EDI_FRNFX_20160218_1
TableName	Actflag	Created	Changed	FrnfxID	SecID	ISIN	EffectiveDate	OldFRNType	OldFRNIndexBenchmark	OldFrnMargin	OldMinimumInterestRate	OldMaximumInterestRate	OldRounding	NewFRNType	NewFRNindexBenchmark	NewFrnMargin	NewMinimumInterestRate	NewMaximumInterestRate	NewRounding	Eventtype	OldFrnIntAdjFreq	NewFrnIntAdjFreq
FRNFX	U	2010/04/21	2016/02/18	31261	1884831	DE000AA16YT1	2016/03/19	FLR	EURIBOR1Y		4.50000			FLR	EURIBOR1Y		5.00000			FRNFX		
FRNFX	U	2014/11/17	2016/02/18	57491	4387716	US06738KU253	2016/03/19	COLLAR	USDLIBOR3M	2.00000	2.25000	5.50000		COLLAR	USDLIBOR3M	2.00000	2.25000	6.00000		FRNFX		
FRNFX	I	2016/02/18	2016/02/18	63329	4138657	IL0011304263	2013/10/31	BASIC	IFL					BASIC	CRDRAT					CORR		VAR
FRNFX	I	2016/02/18	2016/02/18	63330	4702018	US06740Q8565	2016/02/18	BASIC	S&P500					COLLAR	S&P500			7.75000		CORR		
FRNFX	I	2016/02/18	2016/02/18	63331	4702015	US06740Q8722	2016/02/18	BASIC	DJEUROSTK					COLLAR	DJEUROSTK			10.50000		CORR		
FRNFX	I	2016/02/18	2016/02/18	63332	4702470	US3130A7BH75	2016/02/18	BASIC	USDLIBOR3M	-0.06000			3	FLR	USDLIBOR3M	-0.06000			3	CORR		
FRNFX	I	2016/02/18	2016/02/18	63333	4703066	US3130A7BK05	2016/02/18	BASIC	USDLIBOR3M	-0.06000			3	FLR	USDLIBOR3M	-0.06000			3	CORR		
FRNFX	I	2016/02/18	2016/02/18	63334	4702009	US06740Q8805	2016/02/10	BASIC	BSI					COLLAR	BSI			12.00000		CORR		
FRNFX	I	2016/02/18	2016/02/18	63335	4704390	US22546VWW26	2016/02/18	BASIC	BSS					COLLAR	BSS			10.00000		CORR		
FRNFX	I	2016/02/18	2016/02/18	63336	4703068	US3130A7BL87	2016/02/18	BASIC	USDLIBOR1M	0.09000			3	FLR	USDLIBOR1M	0.09000			3	CORR		
FRNFX	I	2016/02/18	2016/02/18	63337	4704269	US3130A7C783	2016/02/18	BASIC	USDLIBOR3M	0.08500			3	FLR	USDLIBOR3M	0.08500			3	CORR		
FRNFX	I	2016/02/18	2016/02/18	63338	4705265	US3130A7CJ23	2016/02/17	BASIC	USDLIBOR1M	-0.00500			3	FLR	USDLIBOR1M	-0.00500			3	CORR		
FRNFX	I	2016/02/18	2016/02/18	63339	4699760	CA06367XTV33	2016/02/18	BASIC	BSI					COLLAR	BSI			8.00000		CORR		
EDI_ENDOFFILE
