EDI_ISSUR_20160218_1
TableName	Actflag	Created	Changed	IssID	SIC	CIK	GICS	IssuerName	IndusID	CntryofIncorp	FinancialYearEnd	Shortname	LegalName	isstype	CntryofDom	StateofDom	Notes
ISSUR	U	2001/09/04	2016/02/18	42133			35202010	Nuvo Research, Inc.	116	CA	3105		F	CORP			
ISSUR	U	2001/09/24	2016/02/18	45969			20201060	Bic	63	FR	3112	Bic	F	CORP			
ISSUR	U	2001/09/29	2016/02/18	47124			20101010	Lisi	1	FR	3112		F	CORP			
ISSUR	U	2001/05/05	2016/02/18	35170	7389	0001094032	25302010	24/7 Kid Doc Inc	138	US	3112		F	CORP			
ISSUR	U	2002/05/08	2016/02/18	66441			45203020	Glory Mark Hi-Tech		BM	3112		F	CORP			
ISSUR	U	2004/08/07	2016/02/18	84085			20104010	Metal Fabricators of Zambia Plc.	66	ZM	3112		F	CORP			
ISSUR	D	2005/06/30	2016/02/18	92623	2300	0000795363		Carter William Co.		US			F	CORP			Duplicate, see issuer `The William Carter Company`
ISSUR	U	2008/12/04	2016/02/18	125961			10102020	Frontier Resources Intl Plc	110	GB	3112		F	CORP			
ISSUR	U	2009/04/11	2016/02/18	128367			40301020	AXA Green Crescent Insurance Company	69	AE	3112		F	CORP			
ISSUR	U	2011/03/26	2016/02/18	143765			15104020	Nexoptic Technology Corp	105	CA	3112		F	CORP			
ISSUR	U	2012/02/27	2016/02/18	148801			15104030	The Food Revolution Group Limited	105	AU	3006		F	CORP			
ISSUR	U	2012/06/29	2016/02/18	150835			30201010	Browar Czarnkow S.A.	123	PL	3112		F	CORP			
ISSUR	U	2012/08/16	2016/02/18	151690				Royalty North Partners Ltd	105	CA	3112		F	CORP			
ISSUR	U	2013/06/13	2016/02/18	156991			35102020	Mediclinic International Plc		GB	3112		F	CORP			
ISSUR	U	2013/11/30	2016/02/18	159886				Char Technologies Inc		CA	3110		F	CORP			
ISSUR	U	2014/06/03	2016/02/18	164615	7363	0001378564	20202010	Zhaopin Ltd	66	KY			F	CORP			
ISSUR	U	2015/03/12	2016/02/18	170651				Deutsche Konsum Reit-AG		DE			F	CORP			
ISSUR	U	2015/06/25	2016/02/18	172963			35102020	Capio AB.	53	SE	3112		F	CORP			
ISSUR	U	2015/09/01	2016/02/18	175758			40403020	Sharjah Group	120	AE	3112		F	CORP			
ISSUR	U	2015/11/26	2016/02/18	178193			35202010	Camurus AB		SE	3112		F	CORP			
ISSUR	I	2016/02/18	2016/02/18	180449				Blackrock European Clo Designated Activity Company		US			F	CORP			
ISSUR	I	2016/02/18	2016/02/18	180450				Schwindstr 15 Projektgesellschaft Mbh		DE			F	CORP			
EDI_ENDOFFILE
