EDI_SCAGY_20160218_1
TableName	Actflag	Created	Changed	ScagyID	SecID	ISIN	Relationship	AgncyID	GuaranteeType	SpStartDate	SpEndDate	Notes
SCAGY	D	2016/02/10	2016/02/18	1776824	4703066	US3130A7BK05	REG	3492				
SCAGY	U	2016/02/11	2016/02/18	1777726	4703689	INE008A08V26	TST	28207				
SCAGY	U	2016/02/11	2016/02/18	1777727	4703689	INE008A08V26	REG	29845				
SCAGY	D	2016/02/12	2016/02/18	1778437	4704269	US3130A7C783	REG	3492				
SCAGY	I	2016/02/18	2016/02/18	1782613	4707249	XS1273393766	DEP	3317				
SCAGY	I	2016/02/18	2016/02/18	1782614	4707250	INE036U07029	DEP	5576				
SCAGY	I	2016/02/18	2016/02/18	1782615	4707250	INE036U07029	TST	6808				
SCAGY	I	2016/02/18	2016/02/18	1782616	4707250	INE036U07029	REG	23946				
SCAGY	I	2016/02/18	2016/02/18	1782617	4670777	KR606590B5C6	PA	27852				
SCAGY	I	2016/02/18	2016/02/18	1782618	4670777	KR606590B5C6	MGR	25855				
SCAGY	I	2016/02/18	2016/02/18	1782619	4670777	KR606590B5C6	UNW	25855				
SCAGY	I	2016/02/18	2016/02/18	1782620	4670777	KR606590B5C6	REG	25201				
SCAGY	I	2016/02/18	2016/02/18	1782621	4707251	XS1273406253	DEP	3317				
SCAGY	I	2016/02/18	2016/02/18	1782622	4707252	XS1273413895	DEP	3317				
SCAGY	I	2016/02/18	2016/02/18	1782623	4672036	KR60198025C9	PA	30873				
SCAGY	I	2016/02/18	2016/02/18	1782624	4672036	KR60198025C9	MGR	25896				
SCAGY	I	2016/02/18	2016/02/18	1782625	4672036	KR60198025C9	UNW	25896				
SCAGY	I	2016/02/18	2016/02/18	1782626	4672036	KR60198025C9	REG	25201				
SCAGY	I	2016/02/18	2016/02/18	1782627	4707253	XS1276929392	DEP	3560				
SCAGY	I	2016/02/18	2016/02/18	1782628	4707255	XS1276929475	DEP	3560				
SCAGY	I	2016/02/18	2016/02/18	1782629	4672039	KR60198035C8	PA	30873				
SCAGY	I	2016/02/18	2016/02/18	1782630	4672039	KR60198035C8	MGR	25896				
SCAGY	I	2016/02/18	2016/02/18	1782631	4672039	KR60198035C8	UNW	31613				
SCAGY	I	2016/02/18	2016/02/18	1782632	4672039	KR60198035C8	REG	25201				
SCAGY	I	2016/02/18	2016/02/18	1782633	4699944	CA06367XTH49	UNW	7549				
SCAGY	I	2016/02/18	2016/02/18	1782634	4699944	CA06367XTH49	CAL	31923				
SCAGY	I	2016/02/18	2016/02/18	1782635	4699944	CA06367XTH49	DEP	5998				
SCAGY	I	2016/02/18	2016/02/18	1782636	4699944	CA06367XTH49	BC	9482				
SCAGY	I	2016/02/18	2016/02/18	1782637	4698995	XS1358935796	UNW	25621				
SCAGY	I	2016/02/18	2016/02/18	1782638	4698995	XS1358935796	GUR	25621	GTD			
SCAGY	I	2016/02/18	2016/02/18	1782639	4698995	XS1358935796	PA	3556				
SCAGY	I	2016/02/18	2016/02/18	1782640	4698995	XS1358935796	CAL	25621				
SCAGY	I	2016/02/18	2016/02/18	1782641	4707256	XS1281104296	DEP	3623				
SCAGY	I	2016/02/18	2016/02/18	1782642	4699027	XS1358936927	CAL	3690				
SCAGY	I	2016/02/18	2016/02/18	1782643	4670785	KR60219655C8	PA	27874				
SCAGY	I	2016/02/18	2016/02/18	1782644	4670785	KR60219655C8	MGR	25837				
SCAGY	I	2016/02/18	2016/02/18	1782645	4670785	KR60219655C8	UNW	25837				
SCAGY	I	2016/02/18	2016/02/18	1782646	4670785	KR60219655C8	REG	25201				
SCAGY	I	2016/02/18	2016/02/18	1782647	4706545	US3133EFD873	UNW	3518				
SCAGY	I	2016/02/18	2016/02/18	1782648	4706545	US3133EFD873	BC	9164				
SCAGY	I	2016/02/18	2016/02/18	1782649	4706545	US3133EFD873	PA	3492				
SCAGY	I	2016/02/18	2016/02/18	1782650	4673817	KR60219695C4	PA	27874				
SCAGY	I	2016/02/18	2016/02/18	1782651	4673817	KR60219695C4	MGR	25837				
SCAGY	I	2016/02/18	2016/02/18	1782652	4673817	KR60219695C4	UNW	25837				
SCAGY	I	2016/02/18	2016/02/18	1782653	4673817	KR60219695C4	REG	25201				
SCAGY	I	2016/02/18	2016/02/18	1782654	4707257	US3133EFE608	UNW	7720				
SCAGY	I	2016/02/18	2016/02/18	1782656	4707258	XS1289428580	DEP	3623				
SCAGY	I	2016/02/18	2016/02/18	1782655	4707257	US3133EFE608	BC	9164				
SCAGY	I	2016/02/18	2016/02/18	1782657	4707257	US3133EFE608	PA	3492				
SCAGY	I	2016/02/18	2016/02/18	1782659	4706556	US3133EFD386	UNW	3594				
SCAGY	I	2016/02/18	2016/02/18	1782660	4706556	US3133EFD386	BC	9164				
SCAGY	I	2016/02/18	2016/02/18	1782661	4706556	US3133EFD386	PA	3492				
SCAGY	I	2016/02/18	2016/02/18	1782658	4707259	XS1289428663	DEP	3623				
SCAGY	I	2016/02/18	2016/02/18	1782662	4699877	US298785HB50	DEP	3432				
SCAGY	I	2016/02/18	2016/02/18	1782663	4706550	US3133EFD956	UNW	3501				
SCAGY	I	2016/02/18	2016/02/18	1782664	4706550	US3133EFD956	BC	9164				
SCAGY	I	2016/02/18	2016/02/18	1782665	4706550	US3133EFD956	PA	3492				
SCAGY	I	2016/02/18	2016/02/18	1782666	4672038	KR60237855C2	PA	31372				
SCAGY	I	2016/02/18	2016/02/18	1782667	4672038	KR60237855C2	MGR	26340				
SCAGY	I	2016/02/18	2016/02/18	1782668	4672038	KR60237855C2	UNW	26340				
SCAGY	I	2016/02/18	2016/02/18	1782669	4672038	KR60237855C2	REG	25201				
SCAGY	I	2016/02/18	2016/02/18	1782670	4707261	XS1289428747	DEP	3623				
SCAGY	I	2016/02/18	2016/02/18	1782671	2136004	IL0011208803	TST	29580				
SCAGY	I	2016/02/18	2016/02/18	1782672	4707263	US3133EFE376	UNW	7720				
SCAGY	I	2016/02/18	2016/02/18	1782673	4707263	US3133EFE376	BC	9164				
SCAGY	I	2016/02/18	2016/02/18	1782674	4707263	US3133EFE376	PA	3492				
SCAGY	I	2016/02/18	2016/02/18	1782675	4080570	IL0011217630	TST	21528				
SCAGY	I	2016/02/18	2016/02/18	1782676	4707264	XS1290056537	DEP	3565				
SCAGY	I	2016/02/18	2016/02/18	1782677	4673815	KR60237865C1	PA	31372				
SCAGY	I	2016/02/18	2016/02/18	1782678	4673815	KR60237865C1	MGR	25855				
SCAGY	I	2016/02/18	2016/02/18	1782679	4673815	KR60237865C1	UNW	25855				
SCAGY	I	2016/02/18	2016/02/18	1782680	4673815	KR60237865C1	REG	25201				
SCAGY	I	2016/02/18	2016/02/18	1782681	4707265	XS1290056610	DEP	3565				
SCAGY	I	2016/02/18	2016/02/18	1782682	4707267	XS1290056701	DEP	3565				
SCAGY	I	2016/02/18	2016/02/18	1782683	4707269	XS1290056883	DEP	3565				
SCAGY	I	2016/02/18	2016/02/18	1782684	4699022	XS1358936844	CAL	3690				
SCAGY	I	2016/02/18	2016/02/18	1782685	4672680	KR60296915C2	PA	26489				
SCAGY	I	2016/02/18	2016/02/18	1782686	4672680	KR60296915C2	MGR	25855				
SCAGY	I	2016/02/18	2016/02/18	1782687	4672680	KR60296915C2	UNW	25855				
SCAGY	I	2016/02/18	2016/02/18	1782688	4672680	KR60296915C2	REG	25201				
SCAGY	I	2016/02/18	2016/02/18	1782689	4707238	CA82028KAV31	MGR	14141				
SCAGY	I	2016/02/18	2016/02/18	1782690	754414	IL0079801622	TST	29167				
SCAGY	I	2016/02/18	2016/02/18	1782691	4672685	KR60296925C1	PA	26489				
SCAGY	I	2016/02/18	2016/02/18	1782692	4672685	KR60296925C1	MGR	25855				
SCAGY	I	2016/02/18	2016/02/18	1782693	4672685	KR60296925C1	UNW	25855				
SCAGY	I	2016/02/18	2016/02/18	1782694	4672685	KR60296925C1	REG	25201				
SCAGY	I	2016/02/18	2016/02/18	1782695	4672695	KR60298895C4	PA	26708				
SCAGY	I	2016/02/18	2016/02/18	1782696	4672695	KR60298895C4	MGR	25206				
SCAGY	I	2016/02/18	2016/02/18	1782697	4672695	KR60298895C4	UNW	25206				
SCAGY	I	2016/02/18	2016/02/18	1782698	4672695	KR60298895C4	REG	25201				
SCAGY	I	2016/02/18	2016/02/18	1782699	1816334	IL0057601523	TST	29557				
SCAGY	I	2016/02/18	2016/02/18	1782700	4183409	XS1020328024	DEP	3432				
SCAGY	I	2016/02/18	2016/02/18	1782701	4704294	MA0002014175	CUST	11813				
SCAGY	I	2016/02/18	2016/02/18	1782702	4707289	XS1292854863	DEP	3560				
SCAGY	I	2016/02/18	2016/02/18	1782703	4634745	XS1315160702	DEP	3432				
SCAGY	I	2016/02/18	2016/02/18	1782704	4707290	US3130A7CV50	REG	3492				
SCAGY	I	2016/02/18	2016/02/18	1782705	4707290	US3130A7CV50	PA	3492				
SCAGY	I	2016/02/18	2016/02/18	1782706	4707292	US3130A7CX17	REG	3492				
SCAGY	I	2016/02/18	2016/02/18	1782707	4707292	US3130A7CX17	PA	3492				
SCAGY	I	2016/02/18	2016/02/18	1782708	4525783	PYBBV01F3798	UNW	32498				
SCAGY	I	2016/02/18	2016/02/18	1782709	4707293	US3130A7D286	REG	3492				
SCAGY	I	2016/02/18	2016/02/18	1782710	4707293	US3130A7D286	PA	3492				
SCAGY	I	2016/02/18	2016/02/18	1782711	4707294	US3130A7D369	REG	3492				
SCAGY	I	2016/02/18	2016/02/18	1782712	4707294	US3130A7D369	PA	3492				
SCAGY	I	2016/02/18	2016/02/18	1782713	4707295	US3130A7D443	REG	3492				
SCAGY	I	2016/02/18	2016/02/18	1782714	4707295	US3130A7D443	PA	3492				
SCAGY	I	2016/02/18	2016/02/18	1782715	4707296	US3130A7D518	REG	3492				
SCAGY	I	2016/02/18	2016/02/18	1782716	4707296	US3130A7D518	PA	3492				
SCAGY	I	2016/02/18	2016/02/18	1782717	4707297	INE364K07075	DEP	5576				
SCAGY	I	2016/02/18	2016/02/18	1782718	4707297	INE364K07075	TST	3161				
SCAGY	I	2016/02/18	2016/02/18	1782719	4707297	INE364K07075	REG	7682				
SCAGY	I	2016/02/18	2016/02/18	1782720	4707298	US3130A7D690	REG	3492				
SCAGY	I	2016/02/18	2016/02/18	1782721	4707298	US3130A7D690	PA	3492				
SCAGY	I	2016/02/18	2016/02/18	1782722	4707299	US3130A7D773	REG	3492				
SCAGY	I	2016/02/18	2016/02/18	1782723	4707299	US3130A7D773	PA	3492				
SCAGY	I	2016/02/18	2016/02/18	1782724	4707300	US3130A7D856	REG	3492				
SCAGY	I	2016/02/18	2016/02/18	1782725	4707300	US3130A7D856	PA	3492				
SCAGY	I	2016/02/18	2016/02/18	1782726	4391608	IL0028102734	TST	4353				
SCAGY	I	2016/02/18	2016/02/18	1782727	754406	IL0079801549	TST	31643				
SCAGY	I	2016/02/18	2016/02/18	1782728	4707301	US3130A7D930	REG	3492				
SCAGY	I	2016/02/18	2016/02/18	1782729	4707301	US3130A7D930	PA	3492				
SCAGY	I	2016/02/18	2016/02/18	1782730	4699544		TST	18036				
SCAGY	I	2016/02/18	2016/02/18	1782731	4704577	ZAG000133299	GUR	27203	GTD			
SCAGY	I	2016/02/18	2016/02/18	1782732	4704577	ZAG000133299	GUR	17335	GTD			
SCAGY	I	2016/02/18	2016/02/18	1782733	4704577	ZAG000133299	GUR	17336	GTD			
SCAGY	I	2016/02/18	2016/02/18	1782734	4704577	ZAG000133299	UNW	8218				
SCAGY	I	2016/02/18	2016/02/18	1782735	4704577	ZAG000133299	CAL	8218				
SCAGY	I	2016/02/18	2016/02/18	1782736	4704577	ZAG000133299	PA	16554				
SCAGY	I	2016/02/18	2016/02/18	1782737	4707303	US3130A7DA05	REG	3492				
SCAGY	I	2016/02/18	2016/02/18	1782738	4707303	US3130A7DA05	PA	3492				
SCAGY	I	2016/02/18	2016/02/18	1782739	4707309	INE364K07083	TST	3161				
SCAGY	I	2016/02/18	2016/02/18	1782740	4707309	INE364K07083	REG	7682				
SCAGY	I	2016/02/18	2016/02/18	1782741	3975777	IL0011276537	TST	29580				
SCAGY	I	2016/02/18	2016/02/18	1782742	4707311	US3130A7DB87	REG	3492				
SCAGY	I	2016/02/18	2016/02/18	1782743	4707311	US3130A7DB87	PA	3492				
SCAGY	I	2016/02/18	2016/02/18	1782744	4707309	INE364K07083	DEP	5576				
SCAGY	I	2016/02/18	2016/02/18	1782745	4707313		MGR	7553				
SCAGY	I	2016/02/18	2016/02/18	1782746	4707314	US3130A7DC60	REG	3492				
SCAGY	I	2016/02/18	2016/02/18	1782747	4707314	US3130A7DC60	PA	3492				
SCAGY	I	2016/02/18	2016/02/18	1782748	1296654	IL0032300837	TST	29167				
SCAGY	I	2016/02/18	2016/02/18	1782749	4707321	INE556F09585	DEP	5576				
SCAGY	I	2016/02/18	2016/02/18	1782750	4707321	INE556F09585	MGR	6992				
SCAGY	I	2016/02/18	2016/02/18	1782751	4707321	INE556F09585	TST	14880				
SCAGY	I	2016/02/18	2016/02/18	1782752	4707321	INE556F09585	REG	4936				
SCAGY	I	2016/02/18	2016/02/18	1782753	4707323	INE658R08032	DEP	5576				
SCAGY	I	2016/02/18	2016/02/18	1782754	4707323	INE658R08032	MGR	25670				
SCAGY	I	2016/02/18	2016/02/18	1782755	4707323	INE658R08032	TST	27908				
SCAGY	I	2016/02/18	2016/02/18	1782756	4707323	INE658R08032	REG	4936				
SCAGY	I	2016/02/18	2016/02/18	1782757	4540419	MU0484D00018	CAL	18337				
SCAGY	I	2016/02/18	2016/02/18	1782758	4540419	MU0484D00018	PA	32500				
SCAGY	I	2016/02/18	2016/02/18	1782759	4540419	MU0484D00018	UNW	18337				
SCAGY	I	2016/02/18	2016/02/18	1782760	4675598	KR60959245C2	PA	30831				
SCAGY	I	2016/02/18	2016/02/18	1782761	4675598	KR60959245C2	MGR	28874				
SCAGY	I	2016/02/18	2016/02/18	1782762	4681852	KR6205494612	PA	32502				
SCAGY	I	2016/02/18	2016/02/18	1782763	4681852	KR6205494612	MGR	25412				
SCAGY	I	2016/02/18	2016/02/18	1782764	4681852	KR6205494612	UNW	25837				
SCAGY	I	2016/02/18	2016/02/18	1782765	4672043	KR61401755C2	PA	26653				
SCAGY	I	2016/02/18	2016/02/18	1782766	4672043	KR61401755C2	MGR	25855				
SCAGY	I	2016/02/18	2016/02/18	1782767	4672043	KR61401755C2	UNW	25855				
SCAGY	I	2016/02/18	2016/02/18	1782768	4707331	INE774D07OB2	DEP	5576				
SCAGY	I	2016/02/18	2016/02/18	1782769	4707331	INE774D07OB2	TST	6912				
SCAGY	I	2016/02/18	2016/02/18	1782770	4707331	INE774D07OB2	REG	6631				
SCAGY	I	2016/02/18	2016/02/18	1782771	4672044	KR61741465C7	PA	31372				
SCAGY	I	2016/02/18	2016/02/18	1782772	4672044	KR61741465C7	MGR	25837				
SCAGY	I	2016/02/18	2016/02/18	1782773	4672044	KR61741465C7	UNW	25837				
SCAGY	I	2016/02/18	2016/02/18	1782774	4707334	INE866I07AW0	DEP	5576				
SCAGY	I	2016/02/18	2016/02/18	1782775	4707334	INE866I07AW0	TST	27908				
SCAGY	I	2016/02/18	2016/02/18	1782776	4707334	INE866I07AW0	REG	4936				
SCAGY	I	2016/02/18	2016/02/18	1782777	4705220	FR0013121753	MGR	4089				
SCAGY	I	2016/02/18	2016/02/18	1782778	753473	IL0012603069	TST	32501				
SCAGY	I	2016/02/18	2016/02/18	1782779	4484193	IL0011326878	TST	31452				
SCAGY	I	2016/02/18	2016/02/18	1782780	4670775	KR62054965C5	PA	31049				
SCAGY	I	2016/02/18	2016/02/18	1782781	4670775	KR62054965C5	MGR	31601				
SCAGY	I	2016/02/18	2016/02/18	1782782	4707339	US500769GX62	PA	6507				
SCAGY	I	2016/02/18	2016/02/18	1782783	4707339	US500769GX62	REG	6507				
SCAGY	I	2016/02/18	2016/02/18	1782784	4707339	US500769GX62	MGR	3527				
SCAGY	I	2016/02/18	2016/02/18	1782785	4707339	US500769GX62	GUR	3951	GTD			
SCAGY	I	2016/02/18	2016/02/18	1782786	4707342	XS1369257172	MGR	6800				
SCAGY	I	2016/02/18	2016/02/18	1782787	4707345	XS1035526307	DEP	3560				
SCAGY	I	2016/02/18	2016/02/18	1782788	4681850	KR6205493614	PA	32502				
SCAGY	I	2016/02/18	2016/02/18	1782789	4681850	KR6205493614	MGR	25412				
SCAGY	I	2016/02/18	2016/02/18	1782790	4681850	KR6205493614	UNW	25412				
SCAGY	I	2016/02/18	2016/02/18	1782791	4704229	CA89366TAA57	MGR	3795				
SCAGY	I	2016/02/18	2016/02/18	1782792	4706685	XS1369250755	MGR	7310				
SCAGY	I	2016/02/18	2016/02/18	1782793	4706614	XS1366026323	UNW	17160				
SCAGY	I	2016/02/18	2016/02/18	1782794	4706614	XS1366026323	GUR	17160	BPA			
SCAGY	I	2016/02/18	2016/02/18	1782795	4706614	XS1366026323	BC	24143				
SCAGY	I	2016/02/18	2016/02/18	1782796	4706614	XS1366026323	TST	6507				
SCAGY	I	2016/02/18	2016/02/18	1782797	4706614	XS1366026323	REG	6507				
SCAGY	I	2016/02/18	2016/02/18	1782798	4706614	XS1366026323	PA	6507				
SCAGY	I	2016/02/18	2016/02/18	1782799	4706614	XS1366026323	CAL	3556				
SCAGY	I	2016/02/18	2016/02/18	1782800	4707347	INE931S07025	DEP	5576				
SCAGY	I	2016/02/18	2016/02/18	1782801	4707347	INE931S07025	TST	3161				
SCAGY	I	2016/02/18	2016/02/18	1782802	4707347	INE931S07025	REG	6631				
SCAGY	I	2016/02/18	2016/02/18	1782803	4707349	US285512AD11	MGR	8318				
SCAGY	I	2016/02/18	2016/02/18	1782804	4681849	KR6205492616	PA	32502				
SCAGY	I	2016/02/18	2016/02/18	1782805	4681849	KR6205492616	MGR	25412				
SCAGY	I	2016/02/18	2016/02/18	1782806	4681849	KR6205492616	UNW	25412				
SCAGY	I	2016/02/18	2016/02/18	1782807	4707351	INE931S07033	DEP	5576				
SCAGY	I	2016/02/18	2016/02/18	1782808	4707354	US494368BT98	MGR	3501				
SCAGY	I	2016/02/18	2016/02/18	1782809	4704949	XS1366739552	TST	4240				
SCAGY	I	2016/02/18	2016/02/18	1782810	4704949	XS1366739552	REG	4240				
SCAGY	I	2016/02/18	2016/02/18	1782811	4704949	XS1366739552	PA	10035				
SCAGY	I	2016/02/18	2016/02/18	1782812	4704949	XS1366739552	CAL	10035				
SCAGY	I	2016/02/18	2016/02/18	1782813	4706800	XS1369254310	MGR	24216				
SCAGY	I	2016/02/18	2016/02/18	1782814	4681848	KR6205491618	PA	32502				
SCAGY	I	2016/02/18	2016/02/18	1782815	4681848	KR6205491618	MGR	25412				
SCAGY	I	2016/02/18	2016/02/18	1782816	4681848	KR6205491618	UNW	25837				
SCAGY	I	2016/02/18	2016/02/18	1782817	4707351	INE931S07033	TST	3161				
SCAGY	I	2016/02/18	2016/02/18	1782818	4707351	INE931S07033	REG	6631				
SCAGY	I	2016/02/18	2016/02/18	1782819	4706622	US06406FAA12	UNW	3501				
SCAGY	I	2016/02/18	2016/02/18	1782820	4705196	US3134G8M715	UNW	7646				
SCAGY	I	2016/02/18	2016/02/18	1782821	4705196	US3134G8M715	MGR	7646				
SCAGY	I	2016/02/18	2016/02/18	1782822	4705196	US3134G8M715	BC	9165				
SCAGY	I	2016/02/18	2016/02/18	1782823	4706282	XS1366026596	BC	24143				
SCAGY	I	2016/02/18	2016/02/18	1782824	4706282	XS1366026596	CAL	3556				
SCAGY	I	2016/02/18	2016/02/18	1782825	4706282	XS1366026596	UNW	17160				
SCAGY	I	2016/02/18	2016/02/18	1782826	4706282	XS1366026596	GUR	17160	BPA			
SCAGY	I	2016/02/18	2016/02/18	1782827	4706282	XS1366026596	PA	6507				
SCAGY	I	2016/02/18	2016/02/18	1782828	4706282	XS1366026596	REG	6507				
SCAGY	I	2016/02/18	2016/02/18	1782829	4706282	XS1366026596	TST	6507				
SCAGY	I	2016/02/18	2016/02/18	1782830	4707358	US494368BU61	MGR	3501				
SCAGY	I	2016/02/18	2016/02/18	1782831	4707359	US40433UJQ04	CAL	5500				
SCAGY	I	2016/02/18	2016/02/18	1782832	4706244	XS1319820624	GUR	22044	BPA			
SCAGY	I	2016/02/18	2016/02/18	1782833	4706244	XS1319820624	UNW	22044				
SCAGY	I	2016/02/18	2016/02/18	1782834	4706244	XS1319820624	TST	4530				
SCAGY	I	2016/02/18	2016/02/18	1782835	4706244	XS1319820624	PA	27382				
SCAGY	I	2016/02/18	2016/02/18	1782836	4707361	INE931S07041	DEP	5576				
SCAGY	I	2016/02/18	2016/02/18	1782837	4707361	INE931S07041	TST	3161				
SCAGY	I	2016/02/18	2016/02/18	1782838	4707361	INE931S07041	REG	6631				
SCAGY	I	2016/02/18	2016/02/18	1782839	4686710	KR6174142614	PA	26452				
SCAGY	I	2016/02/18	2016/02/18	1782840	4686710	KR6174142614	MGR	25412				
SCAGY	I	2016/02/18	2016/02/18	1782841	4686710	KR6174142614	UNW	25412				
SCAGY	I	2016/02/18	2016/02/18	1782842	4706244	XS1319820624	BC	12140				
SCAGY	I	2016/02/18	2016/02/18	1782843	4704949	XS1366739552	UNW	21644				
SCAGY	I	2016/02/18	2016/02/18	1782844	4704949	XS1366739552	GUR	21644	BPA			
SCAGY	I	2016/02/18	2016/02/18	1782845	4706681	XS1369280315	MGR	4089				
SCAGY	I	2016/02/18	2016/02/18	1782846	4707329	US3134G8M897	UNW	7586				
SCAGY	I	2016/02/18	2016/02/18	1782847	4707329	US3134G8M897	MGR	7586				
SCAGY	I	2016/02/18	2016/02/18	1782848	4707329	US3134G8M897	BC	9165				
SCAGY	I	2016/02/18	2016/02/18	1782849	4706601	XS1366026679	BC	24143				
SCAGY	I	2016/02/18	2016/02/18	1782850	4706601	XS1366026679	CAL	3556				
SCAGY	I	2016/02/18	2016/02/18	1782851	4706601	XS1366026679	UNW	17160				
SCAGY	I	2016/02/18	2016/02/18	1782852	4706601	XS1366026679	GUR	17160	BPA			
SCAGY	I	2016/02/18	2016/02/18	1782853	4706601	XS1366026679	PA	6507				
SCAGY	I	2016/02/18	2016/02/18	1782854	4706601	XS1366026679	REG	6507				
SCAGY	I	2016/02/18	2016/02/18	1782855	4706601	XS1366026679	TST	6507				
SCAGY	I	2016/02/18	2016/02/18	1782856	4702018	US06740Q8565	TST	3623				
SCAGY	I	2016/02/18	2016/02/18	1782857	4702018	US06740Q8565	CAL	17160				
SCAGY	I	2016/02/18	2016/02/18	1782858	4702018	US06740Q8565	BC	15527				
SCAGY	I	2016/02/18	2016/02/18	1782859	4702018	US06740Q8565	UNW	11954				
SCAGY	I	2016/02/18	2016/02/18	1782860	4185672	KR6174142416	PA	32503				
SCAGY	I	2016/02/18	2016/02/18	1782861	4185672	KR6174142416	MGR	28301				
SCAGY	I	2016/02/18	2016/02/18	1782862	4185672	KR6174142416	UNW	28301				
SCAGY	I	2016/02/18	2016/02/18	1782863	4704958	XS1366786983	CAL	10035				
SCAGY	I	2016/02/18	2016/02/18	1782864	4704958	XS1366786983	PA	10035				
SCAGY	I	2016/02/18	2016/02/18	1782865	4704958	XS1366786983	UNW	21644				
SCAGY	I	2016/02/18	2016/02/18	1782866	4704958	XS1366786983	TST	4240				
SCAGY	I	2016/02/18	2016/02/18	1782867	4704958	XS1366786983	REG	4240				
SCAGY	I	2016/02/18	2016/02/18	1782868	4704958	XS1366786983	GUR	21644	BPA			
SCAGY	I	2016/02/18	2016/02/18	1782869	4706558	US3134G8M970	UNW	7572				
SCAGY	I	2016/02/18	2016/02/18	1782870	4706558	US3134G8M970	BC	9165				
SCAGY	I	2016/02/18	2016/02/18	1782871	4689635	US3130A74X09	UNW	7588				
SCAGY	I	2016/02/18	2016/02/18	1782872	4706616	XS1366026919	BC	24143				
SCAGY	I	2016/02/18	2016/02/18	1782873	4706616	XS1366026919	CAL	3556				
SCAGY	I	2016/02/18	2016/02/18	1782874	4706616	XS1366026919	UNW	17160				
SCAGY	I	2016/02/18	2016/02/18	1782875	4706616	XS1366026919	PA	6507				
SCAGY	I	2016/02/18	2016/02/18	1782876	4706616	XS1366026919	REG	6507				
SCAGY	I	2016/02/18	2016/02/18	1782877	4706616	XS1366026919	TST	6507				
SCAGY	I	2016/02/18	2016/02/18	1782878	4706616	XS1366026919	GUR	17160	BPA			
SCAGY	I	2016/02/18	2016/02/18	1782879	4707366	INE976G08049	DEP	5576				
SCAGY	I	2016/02/18	2016/02/18	1782880	4707366	INE976G08049	TST	27908				
SCAGY	I	2016/02/18	2016/02/18	1782881	4707366	INE976G08049	REG	4936				
SCAGY	I	2016/02/18	2016/02/18	1782882	4700486		TST	18036				
SCAGY	I	2016/02/18	2016/02/18	1782883	4707369	XS1265943644	DEP	3565				
SCAGY	I	2016/02/18	2016/02/18	1782884	4683972	KR6174141616	PA	29333				
SCAGY	I	2016/02/18	2016/02/18	1782885	4683972	KR6174141616	MGR	25837				
SCAGY	I	2016/02/18	2016/02/18	1782886	4683972	KR6174141616	UNW	25837				
SCAGY	I	2016/02/18	2016/02/18	1782887	4707371	US3133EFE459	PA	3492				
SCAGY	I	2016/02/18	2016/02/18	1782888	4707371	US3133EFE459	BC	9164				
SCAGY	I	2016/02/18	2016/02/18	1782889	4707371	US3133EFE459	UNW	19840				
SCAGY	I	2016/02/18	2016/02/18	1782890	4706562	US037833BN98	TST	20187				
SCAGY	I	2016/02/18	2016/02/18	1782891	4706562	US037833BN98	UNW	3483				
SCAGY	I	2016/02/18	2016/02/18	1782892	4706562	US037833BN98	GUR	3483	BPA			
SCAGY	I	2016/02/18	2016/02/18	1782893	4706562	US037833BN98	BC	12053				
SCAGY	I	2016/02/18	2016/02/18	1782894	4706597	XS1369322927	UNW	17160				
SCAGY	I	2016/02/18	2016/02/18	1782895	4706597	XS1369322927	GUR	17160	BPA			
SCAGY	I	2016/02/18	2016/02/18	1782896	4706597	XS1369322927	REG	27002				
SCAGY	I	2016/02/18	2016/02/18	1782897	4706597	XS1369322927	TST	27002				
SCAGY	I	2016/02/18	2016/02/18	1782898	4706597	XS1369322927	PA	27002				
SCAGY	I	2016/02/18	2016/02/18	1782899	4706597	XS1369322927	BC	9994				LEGAL ADVISORS TO MEXICO<BR>As to United States Law
SCAGY	I	2016/02/18	2016/02/18	1782900	4706552	US3133EFE293	UNW	19840				
SCAGY	I	2016/02/18	2016/02/18	1782901	4706552	US3133EFE293	PA	3492				
SCAGY	I	2016/02/18	2016/02/18	1782902	4706552	US3133EFE293	BC	9164				
SCAGY	I	2016/02/18	2016/02/18	1782903	4707376	XS1270144857	DEP	3560				
SCAGY	I	2016/02/18	2016/02/18	1782904	4138657	IL0011304263	TST	26210				
SCAGY	I	2016/02/18	2016/02/18	1782905	4706684	XS1369288052	MGR	15439				
SCAGY	I	2016/02/18	2016/02/18	1782906	4703633	US3130A7BY09	UNW	3832				
SCAGY	I	2016/02/18	2016/02/18	1782907	4705222	US48128GNM86	UNW	8318				
SCAGY	I	2016/02/18	2016/02/18	1782908	4705222	US48128GNM86	BC	15527				
SCAGY	I	2016/02/18	2016/02/18	1782909	4704377	US22546VX434	UNW	3133				
SCAGY	I	2016/02/18	2016/02/18	1782910	4704377	US22546VX434	CAL	3133				
SCAGY	I	2016/02/18	2016/02/18	1782911	4208843	KR6174141426	PA	32503				
SCAGY	I	2016/02/18	2016/02/18	1782912	4208843	KR6174141426	MGR	24410				
SCAGY	I	2016/02/18	2016/02/18	1782913	4208843	KR6174141426	UNW	24410				
SCAGY	I	2016/02/18	2016/02/18	1782914	4707380	XS1273384427	DEP	3317				
SCAGY	I	2016/02/18	2016/02/18	1782915	4704965	XS1366791124	CAL	10035				
SCAGY	I	2016/02/18	2016/02/18	1782916	4704965	XS1366791124	PA	10035				
SCAGY	I	2016/02/18	2016/02/18	1782917	4704965	XS1366791124	REG	4240				
SCAGY	I	2016/02/18	2016/02/18	1782918	4704965	XS1366791124	TST	4240				
SCAGY	I	2016/02/18	2016/02/18	1782919	4704965	XS1366791124	UNW	21644				
SCAGY	I	2016/02/18	2016/02/18	1782920	4704965	XS1366791124	GUR	21644	BPA			
SCAGY	I	2016/02/18	2016/02/18	1782921	4706576	US037833BQ20	BC	12053				
SCAGY	I	2016/02/18	2016/02/18	1782922	4706576	US037833BQ20	GUR	3483	BPA			
SCAGY	I	2016/02/18	2016/02/18	1782923	4706576	US037833BQ20	UNW	3483				
SCAGY	I	2016/02/18	2016/02/18	1782924	4706576	US037833BQ20	TST	20187				
SCAGY	I	2016/02/18	2016/02/18	1782925	4706604	XS1369323149	BC	9994				LEGAL ADVISORS TO MEXICO<BR>As to United States Law
SCAGY	I	2016/02/18	2016/02/18	1782926	4706604	XS1369323149	GUR	17160	BPA			
SCAGY	I	2016/02/18	2016/02/18	1782927	4706604	XS1369323149	UNW	17160				
SCAGY	I	2016/02/18	2016/02/18	1782928	4706604	XS1369323149	PA	27002				
SCAGY	I	2016/02/18	2016/02/18	1782929	4706604	XS1369323149	REG	27002				
SCAGY	I	2016/02/18	2016/02/18	1782930	4706604	XS1369323149	TST	27002				
SCAGY	I	2016/02/18	2016/02/18	1782931	4702015	US06740Q8722	UNW	25962				
SCAGY	I	2016/02/18	2016/02/18	1782932	4702015	US06740Q8722	TST	3623				
SCAGY	I	2016/02/18	2016/02/18	1782933	4702015	US06740Q8722	CAL	17160				
SCAGY	I	2016/02/18	2016/02/18	1782934	4702015	US06740Q8722	BC	15527				
SCAGY	I	2016/02/18	2016/02/18	1782935	4704284	US3130A7CB96	UNW	8317				
SCAGY	I	2016/02/18	2016/02/18	1782936	4703689	INE008A08V26	DEP	5577				
SCAGY	I	2016/02/18	2016/02/18	1782937	4704351	US3133EFB976	UNW	7565				
SCAGY	I	2016/02/18	2016/02/18	1782938	4704351	US3133EFB976	PA	3492				
SCAGY	I	2016/02/18	2016/02/18	1782939	4704351	US3133EFB976	BC	9164				
SCAGY	I	2016/02/18	2016/02/18	1782940	4706605	US20030NBR17	UNW	3518				
SCAGY	I	2016/02/18	2016/02/18	1782941	4706605	US20030NBR17	GUR	3518	BPA			
SCAGY	I	2016/02/18	2016/02/18	1782942	4706605	US20030NBR17	BC	10914				
SCAGY	I	2016/02/18	2016/02/18	1782943	4705294	US3130A7CU77	UNW	3632				
SCAGY	I	2016/02/18	2016/02/18	1782944	4707386	XS1292854277	DEP	3560				
SCAGY	I	2016/02/18	2016/02/18	1782945	4590665	US38148TCN72	DEP	5158				
SCAGY	I	2016/02/18	2016/02/18	1782946	4706608	US20030NBS99	GUR	3518	BPA			
SCAGY	I	2016/02/18	2016/02/18	1782947	4706608	US20030NBS99	UNW	3518				
SCAGY	I	2016/02/18	2016/02/18	1782948	4706608	US20030NBS99	BC	10914				
SCAGY	I	2016/02/18	2016/02/18	1782949	4707392	XS1369605123	MGR	8291				
SCAGY	I	2016/02/18	2016/02/18	1782950	4705219	US48128GNJ57	BC	11807				
SCAGY	I	2016/02/18	2016/02/18	1782951	4696749	US22546VW444	UNW	8318				
SCAGY	I	2016/02/18	2016/02/18	1782952	4696749	US22546VW444	CAL	8318				
SCAGY	I	2016/02/18	2016/02/18	1782953	4590663	US38148TBY47	DEP	5158				
SCAGY	I	2016/02/18	2016/02/18	1782954	2449319	IL0050800981	TST	29580				
SCAGY	I	2016/02/18	2016/02/18	1782955	4703643	INE115A07IT8	DEP	5577				
SCAGY	I	2016/02/18	2016/02/18	1782956	4702009	US06740Q8805	TST	3623				
SCAGY	I	2016/02/18	2016/02/18	1782957	4702009	US06740Q8805	CAL	17160				
SCAGY	I	2016/02/18	2016/02/18	1782958	4702009	US06740Q8805	BC	15527				
SCAGY	I	2016/02/18	2016/02/18	1782959	4706578	US037833BR03	TST	20187				
SCAGY	I	2016/02/18	2016/02/18	1782960	4706578	US037833BR03	BC	12053				
SCAGY	I	2016/02/18	2016/02/18	1782961	4706578	US037833BR03	UNW	3483				
SCAGY	I	2016/02/18	2016/02/18	1782962	4706578	US037833BR03	GUR	3483	BPA			
SCAGY	I	2016/02/18	2016/02/18	1782963	2493845	CH0124853604	PA	13653				
SCAGY	I	2016/02/18	2016/02/18	1782964	4702470	US3130A7BH75	UNW	3482				
SCAGY	I	2016/02/18	2016/02/18	1782965	4707394	XS1313810183	DEP	3560				
SCAGY	I	2016/02/18	2016/02/18	1782966	4699950	XS1273424314	CAL	1407				
SCAGY	I	2016/02/18	2016/02/18	1782967	4699950	XS1273424314	GUR	1407	GTD			
SCAGY	I	2016/02/18	2016/02/18	1782968	4699950	XS1273424314	UNW	1407				
SCAGY	I	2016/02/18	2016/02/18	1782969	4707260	XS1369614034	MGR	8291				
SCAGY	I	2016/02/18	2016/02/18	1782970	4591707	US38148TC496	DEP	5158				
SCAGY	I	2016/02/18	2016/02/18	1782971	4707397	XS1289428408	DEP	3623				
SCAGY	I	2016/02/18	2016/02/18	1782972	4053659	XS0943420231	DEP	3432				
SCAGY	I	2016/02/18	2016/02/18	1782973	4703112	XS1289430131	GUR	20182	GTD			
SCAGY	I	2016/02/18	2016/02/18	1782974	4703112	XS1289430131	UNW	9488				
SCAGY	I	2016/02/18	2016/02/18	1782975	4703112	XS1289430131	CAL	9488				
SCAGY	I	2016/02/18	2016/02/18	1782976	4707398	XS1313817279	DEP	3560				
SCAGY	I	2016/02/18	2016/02/18	1782977	4703066	US3130A7BK05	CAL	3495				
SCAGY	I	2016/02/18	2016/02/18	1782978	4703066	US3130A7BK05	UNW	19840				
SCAGY	I	2016/02/18	2016/02/18	1782979	4179715	XS1018702941	DEP	3432				
SCAGY	I	2016/02/18	2016/02/18	1782980	4707400	XS1369268534	MGR	4023				
SCAGY	I	2016/02/18	2016/02/18	1782981	4707402	XS1313817352	DEP	3560				
SCAGY	I	2016/02/18	2016/02/18	1782982	4707403	US61766A1034	UNW	13042				
SCAGY	I	2016/02/18	2016/02/18	1782983	4707403	US61766A1034	CAL	13042				
SCAGY	I	2016/02/18	2016/02/18	1782984	4707403	US61766A1034	BC	15527				
SCAGY	I	2016/02/18	2016/02/18	1782985	4707403	US61766A1034	TST	3623				
SCAGY	I	2016/02/18	2016/02/18	1782986	4698373	US38148TLT42	DEP	5158				
SCAGY	I	2016/02/18	2016/02/18	1782987	4281721	XS1075906252	DEP	3432				
SCAGY	I	2016/02/18	2016/02/18	1782988	470941	XS0244532866	UNW	30500				
SCAGY	I	2016/02/18	2016/02/18	1782990	4706001	XS1368576572	MGR	24216				
SCAGY	I	2016/02/18	2016/02/18	1782989	4327872	XS1100379459	DEP	3432				
SCAGY	I	2016/02/18	2016/02/18	1782991	4540421	MU0484D00026	CAL	18337				
SCAGY	I	2016/02/18	2016/02/18	1782992	4540421	MU0484D00026	PA	32500				
SCAGY	I	2016/02/18	2016/02/18	1782993	4540421	MU0484D00026	UNW	18337				
SCAGY	I	2016/02/18	2016/02/18	1782994	4698376	US38148TLU15	DEP	5158				
SCAGY	I	2016/02/18	2016/02/18	1782995	4707407	XS1313817519	DEP	3560				
SCAGY	I	2016/02/18	2016/02/18	1782996	4704390	US22546VWW26	UNW	8318				
SCAGY	I	2016/02/18	2016/02/18	1782997	4704390	US22546VWW26	CAL	8318				
SCAGY	I	2016/02/18	2016/02/18	1782998	4703068	US3130A7BL87	UNW	7720				
SCAGY	I	2016/02/18	2016/02/18	1782999	4707413	XS1313817600	DEP	3560				
SCAGY	I	2016/02/18	2016/02/18	1783000	4510128	XS1234897483	DEP	3432				
SCAGY	I	2016/02/18	2016/02/18	1783001	4707417	XS1237690661	DEP	3623				
SCAGY	I	2016/02/18	2016/02/18	1783002	4707418	XS1281104023	DEP	3623				
SCAGY	I	2016/02/18	2016/02/18	1783003	4700604	XS1361554584	DEP	3432				
SCAGY	I	2016/02/18	2016/02/18	1783004	4650893	US40433UEQ58	DEP	5158				
SCAGY	I	2016/02/18	2016/02/18	1783005	4707419	US90275L7064	DEP	5158				
SCAGY	I	2016/02/18	2016/02/18	1783006	4704970	DE000LB06GV0	MGR	3838				
SCAGY	I	2016/02/18	2016/02/18	1783007	4707420	XS1313817782	DEP	3560				
SCAGY	I	2016/02/18	2016/02/18	1783008	3909453	IL0032301413	TST	31452				
SCAGY	I	2016/02/18	2016/02/18	1783009	4707416	US06741U5F75	UNW	3499				
SCAGY	I	2016/02/18	2016/02/18	1783010	4707416	US06741U5F75	CAL	17160				
SCAGY	I	2016/02/18	2016/02/18	1783011	4707421	XS1314932317	DEP	3565				
SCAGY	I	2016/02/18	2016/02/18	1783012	4707424	US22546VWU69	DEP	5158				
SCAGY	I	2016/02/18	2016/02/18	1783013	4707426		UNW	32498				
SCAGY	I	2016/02/18	2016/02/18	1783014	4707427	XS1314951705	DEP	3565				
SCAGY	I	2016/02/18	2016/02/18	1783015	4706566	US40434N7545	DEP	5158				
SCAGY	I	2016/02/18	2016/02/18	1783016	4707423	US78355HKB41	MGR	29866				
SCAGY	I	2016/02/18	2016/02/18	1783017	4707423	US78355HKB41	BC	21505				
SCAGY	I	2016/02/18	2016/02/18	1783018	4707423	US78355HKB41	UNW	29866				
SCAGY	I	2016/02/18	2016/02/18	1783019	4707423	US78355HKB41	GUR	29866	BPA			
SCAGY	I	2016/02/18	2016/02/18	1783020	4707430	XS1314952182	DEP	3565				
SCAGY	I	2016/02/18	2016/02/18	1783021	4704269	US3130A7C783	CAL	3495				
SCAGY	I	2016/02/18	2016/02/18	1783022	4704269	US3130A7C783	UNW	3501				
SCAGY	I	2016/02/18	2016/02/18	1783023	4707436	XS1314953404	DEP	3565				
SCAGY	I	2016/02/18	2016/02/18	1783024	4707437	XS1290056453	DEP	3565				
SCAGY	I	2016/02/18	2016/02/18	1783025	4685217	KR6023761614	PA	27847				
SCAGY	I	2016/02/18	2016/02/18	1783026	4685217	KR6023761614	MGR	25886				
SCAGY	I	2016/02/18	2016/02/18	1783027	4685217	KR6023761614	UNW	25886				
SCAGY	I	2016/02/18	2016/02/18	1783028	4685217	KR6023761614	REG	25201				
SCAGY	I	2016/02/18	2016/02/18	1783029	4150782	KR61753333B4	PA	30011				
SCAGY	I	2016/02/18	2016/02/18	1783030	4150782	KR61753333B4	MGR	28301				
SCAGY	I	2016/02/18	2016/02/18	1783031	4150782	KR61753333B4	UNW	28301				
SCAGY	I	2016/02/18	2016/02/18	1783032	4150782	KR61753333B4	REG	25201				
SCAGY	I	2016/02/18	2016/02/18	1783033	4707439	US48128AAH68	UNW	8318				
SCAGY	I	2016/02/18	2016/02/18	1783034	4707439	US48128AAH68	BC	15527				
SCAGY	I	2016/02/18	2016/02/18	1783035	4705265	US3130A7CJ23	UNW	7646				
SCAGY	I	2016/02/18	2016/02/18	1783036	4707441	XS1314953669	DEP	3565				
SCAGY	I	2016/02/18	2016/02/18	1783037	4700478		TST	18036				
SCAGY	I	2016/02/18	2016/02/18	1783038	4670781	KR60659095C4	PA	27852				
SCAGY	I	2016/02/18	2016/02/18	1783039	4670781	KR60659095C4	MGR	25206				
SCAGY	I	2016/02/18	2016/02/18	1783040	4670781	KR60659095C4	UNW	25206				
SCAGY	I	2016/02/18	2016/02/18	1783041	4707444	XS1295018391	DEP	3560				
SCAGY	I	2016/02/18	2016/02/18	1783042	4706589	US89236TCU79	DEP	3960				
SCAGY	I	2016/02/18	2016/02/18	1783043	4706589	US89236TCU79	UNW	3501				
SCAGY	I	2016/02/18	2016/02/18	1783044	4706589	US89236TCU79	GUR	3501	BPA			
SCAGY	I	2016/02/18	2016/02/18	1783045	4706589	US89236TCU79	TST	4240				
SCAGY	I	2016/02/18	2016/02/18	1783046	4543274	IL0018201900	TST	29580				
SCAGY	I	2016/02/18	2016/02/18	1783047	4074804	XS0952815164	CAL	5487				
SCAGY	I	2016/02/18	2016/02/18	1783048	4074804	XS0952815164	UNW	3556				
SCAGY	I	2016/02/18	2016/02/18	1783049	4700472		TST	18036				
SCAGY	I	2016/02/18	2016/02/18	1783050	4124245	KR61662613A1	PA	32504				
SCAGY	I	2016/02/18	2016/02/18	1783051	4124245	KR61662613A1	MGR	30754				
SCAGY	I	2016/02/18	2016/02/18	1783052	4124245	KR61662613A1	UNW	30754				
SCAGY	I	2016/02/18	2016/02/18	1783053	4124245	KR61662613A1	REG	25201				
SCAGY	I	2016/02/18	2016/02/18	1783054	4707412	US06744K1372	DEP	27820				
SCAGY	I	2016/02/18	2016/02/18	1783055	3714306	IL0062701367	TST	29125				
SCAGY	I	2016/02/18	2016/02/18	1783056	4700476		TST	18036				
SCAGY	I	2016/02/18	2016/02/18	1783057	4705198	US3136G2ZF78	UNW	3594				
SCAGY	I	2016/02/18	2016/02/18	1783058	4705198	US3136G2ZF78	BC	9019				
SCAGY	I	2016/02/18	2016/02/18	1783059	4707443	US48128GNC05	DEP	27820				
SCAGY	I	2016/02/18	2016/02/18	1783060	4700496		TST	18036				
SCAGY	I	2016/02/18	2016/02/18	1783061	4706629	US40054K3G99	CAL	3483				
SCAGY	I	2016/02/18	2016/02/18	1783062	4706629	US40054K3G99	UNW	3483				
SCAGY	I	2016/02/18	2016/02/18	1783063	4706629	US40054K3G99	BC	11807				
SCAGY	I	2016/02/18	2016/02/18	1783064	4707448	XS1314958205	DEP	3565				
SCAGY	I	2016/02/18	2016/02/18	1783065	4702708	US48128AAG85	BC	15527				
SCAGY	I	2016/02/18	2016/02/18	1783066	4699760	CA06367XTV33	UNW	7549				
SCAGY	I	2016/02/18	2016/02/18	1783067	4699760	CA06367XTV33	CAL	31923				
SCAGY	I	2016/02/18	2016/02/18	1783068	4699760	CA06367XTV33	DEP	5998				
SCAGY	I	2016/02/18	2016/02/18	1783069	4699760	CA06367XTV33	GUR	7549	BPA			
SCAGY	I	2016/02/18	2016/02/18	1783070	4699760	CA06367XTV33	BC	9482				
SCAGY	I	2016/02/18	2016/02/18	1783071	3984047	KR6170511325	PA	32505				
SCAGY	I	2016/02/18	2016/02/18	1783072	4700491		TST	18036				
SCAGY	I	2016/02/18	2016/02/18	1783073	4670789	KR60972415C4	PA	30697				
SCAGY	I	2016/02/18	2016/02/18	1783074	4670789	KR60972415C4	MGR	25412				
SCAGY	I	2016/02/18	2016/02/18	1783075	4670789	KR60972415C4	UNW	25412				
SCAGY	I	2016/02/18	2016/02/18	1783076	4707450	XS1317184031	DEP	3317				
SCAGY	I	2016/02/18	2016/02/18	1783078	4702692	US48128AAF03	UNW	8318				
SCAGY	I	2016/02/18	2016/02/18	1783079	4702692	US48128AAF03	BC	15527				
EDI_ENDOFFILE
