EDI_MTCHG_20160218_1
TableName	Actflag	Created	Changed	MtChgID	SecID	ISIN	NotificationDate	OldMaturityDate	NewMaturityDate	Reason	EventType	OldMaturityBenchmark	NewMaturityBenchmark	Notes
MTCHG	I	2016/02/18	2016/02/18	46960	4469146	CA13595ZP266	2016/02/16	2016/03/19	2017/03/19		MTCHG			
MTCHG	I	2016/02/18	2016/02/18	46961	4389941	CA8911452B95	2016/02/16	2016/02/27	2016/05/27		MTCHG			
MTCHG	I	2016/02/18	2016/02/18	46962	4265579	CA891145Q491	2016/02/16	2016/02/27	2016/05/27		MTCHG			
MTCHG	I	2016/02/18	2016/02/18	46963	4040566	CA891145ZH02	2016/02/16	2016/02/29	2016/05/30		MTCHG			
MTCHG	I	2016/02/18	2016/02/18	46964	4327867	CA891145U857	2016/02/16	2016/03/02	2016/06/02		MTCHG			
MTCHG	I	2016/02/18	2016/02/18	46965	4265316	CA891145Q319	2016/02/16	2016/02/27	2016/05/27		MTCHG			
MTCHG	I	2016/02/18	2016/02/18	46966	4707333	US3136G2ZH35	2016/02/18	2023/03/09	2026/03/09		CLEAN			
MTCHG	I	2016/02/18	2016/02/18	46967	4698995	XS1358935796	2016/02/14	2017/02/13	2017/07/21		CORR	FOREX	FOREX	
MTCHG	I	2016/02/18	2016/02/18	46968	4696749	US22546VW444	2016/02/18	2017/02/01	2017/03/01		CORR	DJ ES 50	DJ ES 50	
MTCHG	I	2016/02/18	2016/02/18	46969	4705265	US3130A7CJ23	2016/02/18	2019/06/20	2016/06/20		CORR			
MTCHG	I	2016/02/18	2016/02/18	46970	4703112	XS1289430131	2016/02/18	2022/02/15	2022/02/16		CORR	BSI	BSI	
EDI_ENDOFFILE
