EDI_SCEXH_20160218_1
TableName	Actflag	Created	Changed	ScExhID	SecID	ISIN	ExchgCD	ListStatus	Lot	MinTrdgQty	ListDate	DelistDate	LocalCode	JunkLocalcode	PriceTick	TickSize	Notes
SCEXH	U	2005/04/22	2016/02/18	344330	238167	FR0010049643	FRPEN	D				2016/02/18					
SCEXH	U	2012/10/01	2016/02/18	5591528	282879	XS0224901099	DEFSX	D	100			2016/01/29					
SCEXH	U	2005/09/09	2016/02/18	402003	282879	XS0224901099	LULSE	D	100		2005/08/01	2016/01/29					
SCEXH	U	2015/05/14	2016/02/18	6374697	282879	XS0224901099	DEDSE	D				2016/01/29					
SCEXH	U	2009/02/05	2016/02/18	1731504	299036	FR0010251322	CHSSX	D				2016/01/29	EU851				
SCEXH	U	2005/11/08	2016/02/18	422970	299036	FR0010251322	LULSE	D	100		2005/11/25	2016/01/29					
SCEXH	U	2010/08/14	2016/02/18	2856524	322056	US172967DE82	USNYSE	D				2016/01/08					
SCEXH	U	2012/09/21	2016/02/18	5581080	411874	XS0218324050	DEFSX	D	100		2011/05/23	2016/01/29	B6FP				
SCEXH	U	2006/09/18	2016/02/18	552961	411874	XS0218324050	LULSE	D	100		2005/04/28	2016/01/29					
SCEXH	U	2007/02/07	2016/02/18	663638	509144	XS0183852523	DEFSX	D				2016/01/29					
SCEXH	U	2008/11/19	2016/02/18	1613799	626342	XS0309630084	GBLSE	D	100		2007/07/20	2016/01/29	71BE				
SCEXH	U	2008/01/16	2016/02/18	847809	754406	IL0079801549	ILTSE				2007/06/24		IDBD.B9				
SCEXH	U	2008/01/16	2016/02/18	847815	754414	IL0079801622	ILTSE				2007/06/26		IDBD.B10				
SCEXH	I	2016/02/18	2016/02/18	6650788	971485	US17307EBE23	USNYSE	N					C16				
SCEXH	U	2008/09/16	2016/02/18	1450811	1151674	NZANBD0006S7	NZSE	R					ANBHA				
SCEXH	U	2009/01/23	2016/02/18	1701151	1295035	IL0025902557	ILTSE				2007/12/05		ORL.B1				
SCEXH	U	2009/02/04	2016/02/18	1706371	1295971	XS0411044653	LULSE	D			2009/01/28	2016/01/29					
SCEXH	U	2009/01/26	2016/02/18	1702095	1296654	IL0032300837	ILTSE				2008/05/19		MLSR.B4				
SCEXH	U	2009/10/30	2016/02/18	2212222	1637288	IL0011151953	ILTSE	D	100				SCIX.C1				
SCEXH	U	2009/12/08	2016/02/18	2266678	1677095	AT000B059571	ATVSE	D				2016/02/18					
SCEXH	U	2010/01/26	2016/02/18	2371103	1754353	AT000B059852	ATVSE	D				2016/02/18					
SCEXH	U	2010/01/27	2016/02/18	2373572	1756911	INE549F08434	INNSE	D			2006/03/29	2016/01/29	IDKSFC167.45%				
SCEXH	U	2010/03/10	2016/02/18	2459648	1816334	IL0057601523	ILTSE		100				ILC.B6				
SCEXH	U	2011/05/06	2016/02/18	3812944	1939207	DE000LB0BGR2	DESSE	D				2016/01/29					
SCEXH	U	2010/07/29	2016/02/18	2793175	2027726	US63243NAB01	SGSSE	D			2010/07/29	2016/01/29					
SCEXH	U	2013/06/21	2016/02/18	5813054	2027726	US63243NAB01	USTRCE	D				2016/01/29	NATA.AA				
SCEXH	U	2011/04/25	2016/02/18	3745556	2029267	US63243MAB28	CHSSX	D				2016/01/29	US893				
SCEXH	U	2012/09/26	2016/02/18	5584012	2029267	US63243MAB28	DEFSX	D				2016/01/29					
SCEXH	U	2010/07/29	2016/02/18	2793177	2029267	US63243MAB28	SGSSE	D			2010/07/29	2016/01/29					
SCEXH	U	2013/06/21	2016/02/18	5813055	2029267	US63243MAB28	USTRCE	D				2016/01/29	NATA.AB				
SCEXH	U	2015/02/05	2016/02/18	6280187	2029267	US63243MAB28	USOTC	D				2016/01/29					
SCEXH	U	2010/07/29	2016/02/18	2793055	2032225	AT000B060819	ATVSE	D				2016/02/18					
SCEXH	U	2010/10/11	2016/02/18	2965268	2136004	IL0011208803	ILTSE				2010/10/04		IGLD.B3				
SCEXH	U	2011/02/01	2016/02/18	3378220	2169960	XS0551327397	IEISE	D	100		2011/01/28	2016/01/29					
SCEXH	U	2010/10/20	2016/02/18	3027167	2170412		HKSEHK	D				2016/01/29					
SCEXH	U	2010/10/21	2016/02/18	3027960	2171050	AT000B061205	ATVSE	D				2016/02/18					
SCEXH	U	2011/03/07	2016/02/18	3561198	2249240	XS0567565584	LULSE	D			2011/01/28	2016/01/29					
SCEXH	U	2011/03/07	2016/02/18	3561193	2274408	XS0568319080	LULSE	D			2011/01/28	2016/01/29					
SCEXH	U	2010/12/29	2016/02/18	3222022	2293031	DE000A1EV8K5	DEFSX	D				2016/01/29					
SCEXH	U	2011/01/24	2016/02/18	3364264	2387770	XS0583801997	CHSSX	D	100			2016/01/29	EU1929				
SCEXH	U	2012/10/17	2016/02/18	5624816	2387770	XS0583801997	DEFSX	D			2011/05/23	2016/01/29	BMFS				
SCEXH	U	2011/01/26	2016/02/18	3369868	2387770	XS0583801997	DEHSE	D				2016/01/29					
SCEXH	U	2011/08/27	2016/02/18	4236595	2387770	XS0583801997	ITMSE	D	100			2016/01/29					
SCEXH	U	2011/01/22	2016/02/18	3362072	2387770	XS0583801997	LULSE	D	100		2011/01/28	2016/01/29					
SCEXH	U	2015/05/14	2016/02/18	6375283	2387770	XS0583801997	DEDSE	D				2016/01/29					
SCEXH	U	2015/06/04	2016/02/18	6398163	2387770	XS0583801997	ATVSE	D				2016/01/29					
SCEXH	U	2011/02/01	2016/02/18	3378382	2389461	XS0585320707	LULSE	D	100		2011/01/28	2016/01/29					
SCEXH	U	2011/01/24	2016/02/18	3364068	2389553	XS0582697941	CHSSX	D				2016/01/29	AUD333				
SCEXH	U	2012/07/14	2016/02/18	5537378	2389553	XS0582697941	DEFSX	D	100			2016/01/29					
SCEXH	U	2011/01/31	2016/02/18	3377136	2389553	XS0582697941	GBLSE	D	100			2016/01/29					
SCEXH	U	2015/05/14	2016/02/18	6375278	2389553	XS0582697941	DEDSE	D				2016/01/29					
SCEXH	U	2013/03/23	2016/02/18	5738836	2389752	US05956QAA31	DEFSX	D				2016/01/29					
SCEXH	U	2011/02/02	2016/02/18	3382191	2389752	US05956QAA31	IEISE	D	100		2011/01/28	2016/01/29					
SCEXH	U	2013/06/20	2016/02/18	5807668	2389752	US05956QAA31	USTRCE	D				2016/01/29	BDYVY3688626				
SCEXH	U	2015/09/15	2016/02/18	6512183	2389752	US05956QAA31	USOTC	D				2016/01/29					
SCEXH	U	2011/01/28	2016/02/18	3372979	2395108	XS0579034223	SGSSE	D	100		2011/01/31	2016/01/29	4QKB				
SCEXH	U	2015/09/04	2016/02/18	6501195	2395108	XS0579034223	USTRCE	D				2016/01/29	SMGB4286111				
SCEXH	U	2011/02/15	2016/02/18	3468608	2396988	XS0586460916	LULSE	D			2011/02/04	2016/01/29					
SCEXH	U	2011/01/28	2016/02/18	3373037	2397772	XS0580973575	GBLSE	D	100		2011/01/27	2016/01/29					
SCEXH	U	2011/01/28	2016/02/18	3373288	2397968	DE000LBB5K59	DEFSX	D				2016/01/29					
SCEXH	U	2015/04/07	2016/02/18	6335035	2397968	DE000LBB5K59	DEBSE	D			2011/01/28	2016/01/29					
SCEXH	U	2011/01/28	2016/02/18	3373294	2397976	DE000RLP0041	DEFSX	D				2016/01/29					
SCEXH	U	2011/01/31	2016/02/18	3377180	2401694	TH073603Q100	THSET	D				2016/01/29	TK161A				
SCEXH	U	2012/12/03	2016/02/18	5660530	2401795	DE000DB7XMH0	DEFSX	D				2016/01/29					
SCEXH	U	2012/04/04	2016/02/18	5277864	2402910	DE000DB7XMN8	LULSE	D			2011/01/28	2016/01/29					
SCEXH	U	2011/02/02	2016/02/18	3381989	2406208	KR6005082112	KRKSE	D			2011/01/28	2016/01/29	00508211				
SCEXH	U	2011/02/02	2016/02/18	3382116	2406307	KR6055552113	KRKSE	D			2011/01/28	2016/01/29	05555211				
SCEXH	U	2011/02/02	2016/02/18	3382282	2406479		HKSEHK	D				2016/01/29					
SCEXH	U	2011/02/02	2016/02/18	3382570	2406707	NL0009689140	NLENA	D				2016/02/18					
SCEXH	U	2011/02/02	2016/02/18	3382579	2406721	NL0009689157	NLENA	D				2016/02/18					
SCEXH	U	2011/02/02	2016/02/18	3382591	2406730	NL0009689165	NLENA	D				2016/02/18					
SCEXH	U	2011/02/03	2016/02/18	3389685	2406748	NL0009689173	NLENA	D				2016/02/18					
SCEXH	U	2011/02/02	2016/02/18	3382632	2406757	NL0009689181	NLENA	D				2016/02/18					
SCEXH	U	2011/02/02	2016/02/18	3386166	2408640	KR6031523113	KRKSE	D			2011/01/31	2016/01/29	03152311				
SCEXH	U	2011/02/02	2016/02/18	3386177	2408651	KR6095233112	KRKSE	D			2011/01/31	2016/01/29	09523311				
SCEXH	U	2015/06/19	2016/02/18	6420825	2414549	CND100003K62	CNIBBM	D			2011/01/30	2016/01/29	1182017				
SCEXH	U	2014/01/31	2016/02/18	5972715	2414567	DE000LBB5K75	DEBSE	D				2016/01/29					
SCEXH	U	2011/02/03	2016/02/18	3395582	2414567	DE000LBB5K75	DEFSX	D				2016/01/29					
SCEXH	U	2011/02/04	2016/02/18	3396283	2415166	AT000B061684	ATVSE	D				2016/02/18					
SCEXH	U	2015/06/19	2016/02/18	6420823	2415482	CND100003KG7	CNIBBM	D			2011/01/30	2016/01/29	1182015				
SCEXH	U	2011/02/14	2016/02/18	3454914	2435439	US06738KAG67	USTRCE	D				2016/01/29	BCS.AIR				
SCEXH	U	2011/02/15	2016/02/18	3468074	2448435	DE000LBB5K42	DEFSX	D				2016/01/29					
SCEXH	U	2015/04/07	2016/02/18	6335028	2448435	DE000LBB5K42	DEBSE	D			2011/01/28	2016/01/29					
SCEXH	U	2011/02/15	2016/02/18	3468106	2448441	DE000LBB5K83	DEFSX	D				2016/01/29					
SCEXH	U	2015/04/08	2016/02/18	6336314	2448441	DE000LBB5K83	DEBSE	D			2011/01/28	2016/01/29					
SCEXH	U	2015/06/19	2016/02/18	6420824	2452052	CND100003K70	CNIBBM	D			2011/01/30	2016/01/29	1182016				
SCEXH	U	2011/03/07	2016/02/18	3560822	2505262	DE000DZ35XR8	DEFSX	D			2011/01/28	2016/01/29					
SCEXH	U	2011/05/17	2016/02/18	3836555	2693633	AT000B076690	ATVSE	D				2016/01/29					
SCEXH	U	2011/05/27	2016/02/18	3862837	2718752	IL0011237281	ILTSE	D				2013/03/18	ELCN.B1				
SCEXH	U	2011/06/24	2016/02/18	3971713	2789842	DE000HV5CMW9	DESSE	D				2016/01/29					
SCEXH	U	2012/01/23	2016/02/18	4948437	3477934	XS0727904301	LULSE	D			2012/01/16	2016/01/29					
SCEXH	U	2015/01/10	2016/02/18	6258288	3483036	XS0727308289	DEFSX	D			2014/11/04	2016/01/29					
SCEXH	U	2012/02/21	2016/02/18	5098081	3563610	FR0011170935	FRPEN	D			2012/02/20	2016/02/18	BPCCW				
SCEXH	U	2012/02/21	2016/02/18	5098092	3571937	FR0011170927	FRPEN	D			2012/02/20	2016/02/18	BPCCV				
SCEXH	U	2014/09/29	2016/02/18	6172660	3594728	US87612BAH50	USNYSE	S			2014/09/24		NGLS21				
SCEXH	U	2012/03/13	2016/02/18	5196352	3628516	DE000WLB44V8	DEDSE	D				2016/02/18					
SCEXH	U	2012/03/26	2016/02/18	5239286	3668742	US05956PAA57	IEISE	D				2016/01/29					
SCEXH	U	2013/06/20	2016/02/18	5807667	3668742	US05956PAA57	USTRCE	D				2016/01/29	BDYVY3688608				
SCEXH	U	2015/09/15	2016/02/18	6512178	3668742	US05956PAA57	USOTC	D				2016/01/29					
SCEXH	U	2012/04/09	2016/02/18	5303955	3714306	IL0062701367	ILTSE		100		2012/04/10		DELT.B5				
SCEXH	U	2012/06/27	2016/02/18	5524386	3779535	FR0010997759	LULSE	D			2011/02/02	2016/01/29					
SCEXH	U	2012/07/18	2016/02/18	5539989	3873660	AT000B115241	ATVSE	D				2016/02/18					
SCEXH	U	2012/10/03	2016/02/18	5597672	3909453	IL0032301413	ILTSE		100		2012/09/10		MLSR.B7				
SCEXH	U	2013/01/30	2016/02/18	5698106	3968529	XS0880057087	LULSE	D				2016/01/29					
SCEXH	U	2013/01/30	2016/02/18	5698074	3968974	XS0880063994	LULSE	D			2013/01/28	2016/01/29					
SCEXH	U	2015/10/01	2016/02/18	6528489	3968974	XS0880063994	CHSSX	D	100			2016/01/29	EU2496				
SCEXH	U	2013/02/07	2016/02/18	5704068	3970990	XS0882170045	GBLSE	D			2013/02/06	2016/01/29	19MS				
SCEXH	U	2013/01/28	2016/02/18	5696365	3971667	US69347SAG03	USNYSE	D			2013/01/25	2016/01/29	PNC/16C				
SCEXH	U	2015/02/07	2016/02/18	6282904	3971667	US69347SAG03	USOTC	D				2016/01/29					
SCEXH	U	2013/02/06	2016/02/18	5703173	3972506	INE286K07013	INBSE	D	1		2013/02/07	2016/01/29	948786				
SCEXH	U	2013/01/29	2016/02/18	5697457	3972615	ZAG000102740	ZAJSE	D				2016/01/29	DENG43				
SCEXH	U	2013/01/31	2016/02/18	5699100	3972776	INE756I07217	INBSE	D	1		2013/02/01	2016/01/29	948781				
SCEXH	U	2013/02/05	2016/02/18	5702301	3972794	INE261F09IC1	INNSE	D			2013/02/05	2016/01/29	IDNBRD168.65%				
SCEXH	U	2015/01/05	2016/02/18	6253203	3972794	INE261F09IC1	INBSE	D			2015/01/05	2016/01/29	951474				
SCEXH	U	2013/01/30	2016/02/18	5698048	3973125	ZAG000102674	ZAJSE	D			2013/01/28	2016/01/29	IVC006				
SCEXH	U	2013/01/30	2016/02/18	5698436	3973460	KR602988A313	KRKSE	D				2016/01/29	02988A31				
SCEXH	U	2013/01/30	2016/02/18	5698450	3973472	KR6136302314	KRKSE	D				2016/01/29	13630231				
SCEXH	U	2013/01/30	2016/02/18	5698451	3973473	KR6136303312	KRKSE	D				2016/01/29	13630331				
SCEXH	U	2013/02/11	2016/02/18	5707829	3973511	US69349LAH15	USNYSE	D			2013/02/08	2016/01/29	PNC/16D				
SCEXH	U	2013/06/24	2016/02/18	5814691	3973511	US69349LAH15	USTRCE	D				2016/01/29	PNC3959925				
SCEXH	U	2015/02/07	2016/02/18	6282855	3973511	US69349LAH15	USOTC	D				2016/01/29					
SCEXH	U	2013/11/23	2016/02/18	5921396	3974531	DE000A1PGL05	DEDSE	D			2013/01/28	2016/01/29					
SCEXH	U	2013/05/08	2016/02/18	5770457	3974531	DE000A1PGL05	DEFSX	D			2013/03/22	2016/01/29					
SCEXH	U	2013/02/20	2016/02/18	5714579	3975253	DE000DUS20D1	DEDSE	D				2016/01/29					
SCEXH	U	2013/02/04	2016/02/18	5700860	3975611	DE000A1PGL13	DEDSE	D			2013/01/28	2016/01/29					
SCEXH	U	2013/05/08	2016/02/18	5770464	3975611	DE000A1PGL13	DEFSX	D			2013/03/22	2016/01/29					
SCEXH	U	2013/02/04	2016/02/18	5701039	3975777	IL0011276537	ILTSE				2013/02/05		ZMH.B3				
SCEXH	U	2013/02/04	2016/02/18	5701554	3976230	RU000A0JTKK3	RUMICX	D			2013/01/31	2016/01/29					
SCEXH	U	2013/02/06	2016/02/18	5703554	3977879	RU000A0JTKL1	RUMICX	D			2013/01/31	2016/01/29					
SCEXH	U	2013/02/16	2016/02/18	5712912	3984047	KR6170511325	KRKSE				2013/02/13		17051132				
SCEXH	U	2013/02/18	2016/02/18	5713180	3984195	US31315PYY95	USTRCE	D				2016/01/29	AGM3957019				
SCEXH	U	2013/02/21	2016/02/18	5715993	3986426	US69349LAJ70	USTRCE	D				2016/01/29	PNC3959929				
SCEXH	U	2015/02/07	2016/02/18	6282853	3986426	US69349LAJ70	USOTC	D				2016/01/29					
SCEXH	U	2015/06/17	2016/02/18	6412767	3995372		CNIBBM	D				2016/01/29	031390019				
SCEXH	U	2015/06/17	2016/02/18	6412771	3995394		CNIBBM	D				2016/01/29	031390023				
SCEXH	U	2013/05/02	2016/02/18	5766759	4029633	US94986RNA58	USTRCE	D				2016/01/29	WFC3959983				
SCEXH	U	2015/03/04	2016/02/18	6304327	4029633	US94986RNA58	USOTC	D				2016/01/29					
SCEXH	U	2013/05/02	2016/02/18	5766767	4029639	US90271B3143	USTRCE	D				2016/01/29	UBS3958728				
SCEXH	U	2015/10/15	2016/02/18	6543889	4029639	US90271B3143	USOTC	D				2016/01/29					
SCEXH	U	2013/05/02	2016/02/18	5766779	4029651	US25152RBH57	USTRCE	D				2016/01/29	DB3959956				
SCEXH	U	2015/09/28	2016/02/18	6525378	4029651	US25152RBH57	USOTC	D				2016/01/29					
SCEXH	U	2013/05/02	2016/02/18	5766801	4029669	US05574LET17	USTRCE	D				2016/01/29	BNPQF3961849				
SCEXH	U	2013/05/02	2016/02/18	5766805	4029672	US06742A1723	USTRCE	D				2016/01/29	BCS3961845				
SCEXH	U	2014/09/29	2016/02/18	6172661	4037929	US87612BAP76	USNYSE	S			2014/09/24		NGLS23A				
SCEXH	U	2013/08/31	2016/02/18	5864800	4043080		UGKSE	D				2016/01/29					
SCEXH	I	2016/02/18	2016/02/18	6650843	4053659	XS0943420231	ITMSE	N			2016/02/17						
SCEXH	U	2013/06/27	2016/02/18	5820359	4065371	US3133ECTC82	USTRCE	D				2016/01/29	FFCD4021902				
SCEXH	U	2015/06/24	2016/02/18	6427755	4070340	NZANBDT011C4	NZSE	R	100				ANB090				
SCEXH	U	2013/07/12	2016/02/18	5830137	4073674	XS0568993918	DEFSX	D	100			2016/01/29					
SCEXH	U	2013/07/12	2016/02/18	5830136	4073674	XS0568993918	GBLSE	D	100		2010/12/15	2016/01/29	78SM				
SCEXH	U	2014/01/23	2016/02/18	5966601	4123315	SE0005423761	SESSE	D			2014/01/22	2016/01/29	SKAND 501				
SCEXH	U	2013/10/11	2016/02/18	5892728	4124245	KR61662613A1	KRKSE				2013/10/10		B1662613A				
SCEXH	U	2013/10/24	2016/02/18	5901121	4129919	XS0985965267	GBLSE	D			2013/10/28	2016/01/29	10OT				
SCEXH	U	2014/10/02	2016/02/18	6176674	4144621	US87612BAM46	USNYSE	S			2014/09/24		NGLS23				
SCEXH	U	2013/11/28	2016/02/18	5924192	4150782	KR61753333B4	KRKSE				2013/11/27		B1753333B				
SCEXH	U	2014/01/06	2016/02/18	5949613	4170940	US3134G4SZ27	USTRCE	D				2016/01/29	FMCC4086604				
SCEXH	U	2014/01/30	2016/02/18	5972239	4176720	INE522D07578	INBSE	D	1		2014/01/30	2016/01/29	934941				
SCEXH	U	2014/01/30	2016/02/18	5972252	4176745	INE522D07586	INBSE	D	1		2014/01/30	2016/01/29	934942				
SCEXH	U	2014/01/30	2016/02/18	5972266	4176749	INE522D07594	INBSE	D	1		2014/01/30	2016/01/29	934943				
SCEXH	U	2014/01/13	2016/02/18	5956064	4176964	US3136G1YW38	USTRCE	D				2016/01/29	FNMA4088108				
SCEXH	I	2016/02/18	2016/02/18	6650849	4179715	XS1018702941	ITMSE	N			2016/02/17						
SCEXH	U	2014/01/28	2016/02/18	5969217	4183017	XS1019471736	GBLSE	D	1		2014/01/28	2016/01/29	36GW				
SCEXH	I	2016/02/18	2016/02/18	6650732	4183409	XS1020328024	ITMSE	N			2016/02/17						
SCEXH	U	2014/01/22	2016/02/18	5966172	4185207	XS1023281329	DEFSX	D	100		2014/01/28	2016/01/29					
SCEXH	U	2014/01/23	2016/02/18	5966808	4185672	KR6174142416	KRKSE				2014/01/22		17414241				
SCEXH	U	2014/01/30	2016/02/18	5971810	4185695	XS1023317966	DEBSE	D	100			2016/01/29					
SCEXH	U	2014/02/17	2016/02/18	5988666	4185695	XS1023317966	DEFSX	D				2016/01/29	0VCH				
SCEXH	U	2015/05/15	2016/02/18	6377931	4185695	XS1023317966	DEDSE	D				2016/01/29					
SCEXH	U	2014/01/30	2016/02/18	5971658	4185998	XS1022982257	LULSE	D			2014/01/28	2016/01/29					
SCEXH	U	2014/01/27	2016/02/18	5968495	4186353	XS1023278374	GBLSE	D			2014/01/28	2016/01/29	36GV				
SCEXH	U	2014/01/30	2016/02/18	5971454	4186363	US370334BS27	USTRCE	D				2016/01/29	GIS4091123				
SCEXH	U	2015/06/24	2016/02/18	6428235	4186363	US370334BS27	USOTC	D				2016/01/29					
SCEXH	U	2014/01/24	2016/02/18	5967880	4186555	TW000G134035	TWOTC	D			2014/01/28	2016/01/29	G13403				
SCEXH	U	2014/01/28	2016/02/18	5969289	4187737		ARMVB	D				2016/01/29					
SCEXH	U	2014/01/28	2016/02/18	5970189	4188442	XS1022095910	SGSSE	D	100		2014/01/29	2016/01/29	2W7B				
SCEXH	U	2014/02/10	2016/02/18	5983027	4188630	INE851M07069	INBSE	D	1		2014/02/11	2016/01/29	949859				
SCEXH	U	2014/01/30	2016/02/18	5971704	4189916	US78010UPT87	USTRCE	D				2016/01/29	RY4091848				
SCEXH	U	2015/10/20	2016/02/18	6549903	4189916	US78010UPT87	USOTC	D				2016/01/29					
SCEXH	U	2014/07/17	2016/02/18	6115993	4190648	ES0513900ZB6	ESAIAF	D				2016/01/29					
SCEXH	U	2014/02/08	2016/02/18	5981769	4196471	XS1002910021	IEISE				2013/12/19						
SCEXH	U	2015/06/17	2016/02/18	6413097	4200939		CNIBBM	D				2016/01/29	031490039				
SCEXH	U	2014/02/21	2016/02/18	5992949	4202834	XS1035318028	FRPEN	D			2014/02/20	2016/02/18	AFDBN				
SCEXH	U	2014/02/26	2016/02/18	5997852	4208843	KR6174141426	KRKSE				2014/02/25		17414142				
SCEXH	U	2015/06/17	2016/02/18	6413098	4215877		CNIBBM	D				2016/01/29	031490042				
SCEXH	D	2014/03/08	2016/02/18	6006604	4216419	XS0947192836	XSBND										
SCEXH	I	2016/02/18	2016/02/18	6650790	4216419	XS0947192836	LULSE	N			2016/02/17						
SCEXH	U	2014/04/10	2016/02/18	6037258	4243231	KR619425K431	KRKSE	D			2014/03/28	2016/01/29					
SCEXH	U	2014/06/02	2016/02/18	6079706	4275682	DE000BLB2R14	DESSE	D				2016/01/29					
SCEXH	U	2014/07/14	2016/02/18	6112777	4275682	DE000BLB2R14	DEFSX	D			2014/05/28	2016/01/29					
SCEXH	U	2014/06/05	2016/02/18	6081911	4281598	KR619653L444	KRKSE	D			2014/04/28	2016/01/29					
SCEXH	I	2016/02/18	2016/02/18	6650852	4281721	XS1075906252	ITMSE	N			2016/02/17						
SCEXH	U	2014/06/26	2016/02/18	6098431	4295796	IL0011325052	ILTSE						PZOL.B4				
SCEXH	U	2014/07/25	2016/02/18	6122056	4315044	US3130A2R402	USTRCE	D				2016/01/29	FHLN4148003				
SCEXH	U	2014/07/28	2016/02/18	6123140	4315973		ARMVB	D				2016/01/29	RGC2O				
SCEXH	U	2015/04/04	2016/02/18	6332545	4315973		AROEX	D				2016/01/29					
SCEXH	U	2014/07/29	2016/02/18	6124021	4316787	US48127DTJ71	USTRCE	D				2016/01/29	JPM4149288				
SCEXH	U	2014/08/04	2016/02/18	6128592	4317775	INE660A07KX1	INNSE	D			2014/08/07	2016/01/29	DBSUNF169.48%				
SCEXH	I	2016/02/18	2016/02/18	6650864	4327872	XS1100379459	ITMSE	N			2016/02/17						
SCEXH	U	2014/10/24	2016/02/18	6194325	4371184	US25152RSD60	USTRCE	D				2016/01/29	DEBG4177542				
SCEXH	U	2014/11/13	2016/02/18	6213122	4378980	INE308L07427	INBSE	D	1		2014/11/14	2016/01/29	951191				
SCEXH	U	2014/11/24	2016/02/18	6220298	4391608	IL0028102734	ILTSE				2014/12/03		ICL.B4-I				
SCEXH	U	2015/01/09	2016/02/18	6256998	4421548	US3133EEJR28	USTRCE	D				2016/01/29	FFCD4201162				
SCEXH	U	2015/01/22	2016/02/18	6267770	4430338	US3133EELU29	USTRCE	D				2016/01/29	FFCD4204098				
SCEXH	U	2015/01/22	2016/02/18	6267767	4430339	US3133EELW84	USTRCE	D				2016/01/29	FFCD4204092				
SCEXH	U	2015/01/23	2016/02/18	6268931	4431587	US31315PH511	USTRCE	D				2016/01/29	AGM4204372				
SCEXH	U	2015/01/23	2016/02/18	6268955	4431609	US31315PJ343	USTRCE	D				2016/01/29	AGM4204371				
SCEXH	U	2015/02/10	2016/02/18	6284490	4431999	XS1143970751	LULSE	D			2015/02/09	2016/01/29					
SCEXH	U	2015/01/26	2016/02/18	6270034	4432508	XS1169204762	IEISE	D			2015/02/03	2016/01/29					
SCEXH	U	2015/01/29	2016/02/18	6273493	4432670	XS1176592753	LULSE	D			2015/01/28	2016/01/29					
SCEXH	U	2015/01/29	2016/02/18	6273475	4432724	XS1176766928	LULSE	D			2015/01/28	2016/01/29					
SCEXH	U	2015/01/27	2016/02/18	6270930	4433035	US3134G6BJ16	USTRCE	D				2016/01/29	FMCC4205105				
SCEXH	U	2015/01/27	2016/02/18	6271291	4433443	XS1173819605	IEISE	D	1		2015/01/23	2016/01/29					
SCEXH	U	2015/01/28	2016/02/18	6272374	4434224	US22547QXZ44	USTRCE	D				2016/01/29	CS4204927				
SCEXH	U	2015/01/29	2016/02/18	6273527	4435082	XS1176592837	LULSE	D			2015/01/28	2016/01/29					
SCEXH	U	2015/01/29	2016/02/18	6273811	4435282	XS1180288216	IEISE	D	1		2015/01/29	2016/01/29					
SCEXH	U	2015/01/29	2016/02/18	6273812	4435284	XS1180279579	IEISE	D	1		2015/01/29	2016/01/29					
SCEXH	U	2015/01/29	2016/02/18	6273874	4435330	FR0122809660	FRPEN	D			2015/01/29	2016/01/29					
SCEXH	U	2015/01/29	2016/02/18	6273897	4435347	FR0122776075	FRPEN	D			2015/01/29	2016/01/29					
SCEXH	U	2015/02/07	2016/02/18	6282856	4435377	KR310506A514	KRKSE	D				2016/01/29	10506A51				
SCEXH	U	2015/01/29	2016/02/18	6274197	4435603		TZTSE	D				2016/01/29					
SCEXH	U	2015/01/31	2016/02/18	6275818	4436323	XS1171864744	IEISE	D	1		2015/01/29	2016/01/29					
SCEXH	U	2015/01/30	2016/02/18	6275294	4436443	XS1179323115	IEISE	D	1		2015/01/29	2016/01/29					
SCEXH	U	2015/01/30	2016/02/18	6275331	4436468	ZAG000123407	ZAJSE	D			2015/01/29	2016/01/29	TFS133				
SCEXH	U	2015/01/31	2016/02/18	6275581	4436681	XS1181449882	IEISE	D	1		2015/01/30	2016/01/29					
SCEXH	U	2015/02/02	2016/02/18	6276758	4437546	MX0FBM0100O2	MXMSE	D				2016/01/29					
SCEXH	U	2015/02/02	2016/02/18	6276764	4437547	MX0FBM1D04O2	MXMSE	D				2016/01/29					
SCEXH	U	2015/02/10	2016/02/18	6284091	4439242	XS1185177687	LULSE	D			2015/02/09	2016/01/29					
SCEXH	U	2015/04/08	2016/02/18	6336268	4439242	XS1185177687	DEFSX	D			2015/02/09	2016/01/29					
SCEXH	U	2016/01/20	2016/02/18	6629041	4439242	XS1185177687	DEBSE	D				2016/01/29					
SCEXH	U	2015/06/17	2016/02/18	6414442	4440260		CNIBBM	D			2015/01/29	2016/01/29	041553007				
SCEXH	U	2015/06/18	2016/02/18	6418896	4441147		CNIBBM	D				2016/01/29	111590066				
SCEXH	U	2015/06/18	2016/02/18	6418585	4441178		CNIBBM	D			2015/01/28	2016/01/29	111512013				
SCEXH	U	2015/06/17	2016/02/18	6414633	4441262		CNIBBM	D			2015/01/29	2016/01/29	041560004				
SCEXH	U	2015/06/17	2016/02/18	6414634	4441289		CNIBBM	D			2015/01/29	2016/01/29	041560005				
SCEXH	U	2015/02/07	2016/02/18	6282852	4441729	XS1169795439	DEFSX	D	100			2016/01/29					
SCEXH	U	2015/06/17	2016/02/18	6414547	4442410		CNIBBM	D				2016/01/29	041557001				
SCEXH	U	2015/06/18	2016/02/18	6418192	4442513		CNIBBM	D			2015/01/28	2016/01/29	111507022				
SCEXH	I	2016/02/18	2016/02/18	6650789	4449262	US48019TAE47	USNYSE	N					JONE23				
SCEXH	U	2015/03/02	2016/02/18	6300767	4455678	MX93FA2J03M8	MXMSE	D			2015/02/26	2016/01/29	FACTOR00215				
SCEXH	U	2015/03/13	2016/02/18	6313762	4462633	NZANBDT013C0	NZSE	R	1		2015/04/01		ANBHB				
SCEXH	U	2015/03/19	2016/02/18	6319342	4469666	XS1171573188	IEISE	D	1		2015/03/19	2016/01/29					
SCEXH	D	2015/04/27	2016/02/18	6354823	4498215	MZABC0OC1403	MZBND										
SCEXH	I	2016/02/18	2016/02/18	6650708	4498215	MZABC0OC1403	MZMSX	N					113.06.01.020.3				
SCEXH	U	2015/05/12	2016/02/18	6368715	4508869		AUASX	D				2016/01/29					
SCEXH	I	2016/02/18	2016/02/18	6650873	4510128	XS1234897483	ITMSE	N			2016/02/17						
SCEXH	U	2015/11/05	2016/02/18	6562849	4519560	US87612BAR33	USNYSE	S	100				NGLS19				
SCEXH	U	2015/06/08	2016/02/18	6402251	4528758		CNSSE	D				2016/01/29	118069				
SCEXH	U	2015/06/12	2016/02/18	6407295	4532208	US3130A5PR46	USTRCE	D				2016/01/29	FHLN4258342				
SCEXH	U	2015/06/24	2016/02/18	6427956	4540419	MU0484D00018	MUSEM				2016/06/23		ASN.D0001				
SCEXH	U	2015/06/30	2016/02/18	6433837	4544950	US3134G7GR69	USTRCE	D				2016/01/29	FMCC4264522				
SCEXH	U	2015/07/08	2016/02/18	6442375	4551429	US3134G7HT17	USTRCE	D				2016/01/29	FMCC4265983				
SCEXH	U	2015/07/13	2016/02/18	6447042	4554960	US3134G7KU43	USTRCE	D				2016/01/29	FMCC4268163				
SCEXH	U	2015/07/13	2016/02/18	6447104	4555002	US3134G7LF66	USTRCE	D				2016/01/29	FMCC4268239				
SCEXH	U	2015/07/27	2016/02/18	6462567	4567345		CNIBBM	D			2015/07/28	2016/01/29	111504001				
SCEXH	U	2015/07/27	2016/02/18	6462600	4567371	IN002015Y090	INRBI	D			2015/07/29	2016/01/29	BIS 4567371				
SCEXH	U	2015/07/29	2016/02/18	6464975	4567371	IN002015Y090	INNSE	D			2015/07/29	2016/01/29	TB182D280116				
SCEXH	U	2015/08/12	2016/02/18	6477959	4567371	IN002015Y090	INBSE	D			2015/08/12	2016/01/29	421275				
SCEXH	U	2015/07/27	2016/02/18	6462603	4567374		CNIBBM	D			2015/07/28	2016/01/29	111510240				
SCEXH	U	2015/07/27	2016/02/18	6462606	4567377		CNIBBM	D			2015/07/28	2016/01/29	111510241				
SCEXH	U	2015/07/27	2016/02/18	6462617	4567387		CNIBBM	D			2015/07/28	2016/01/29	111511185				
SCEXH	U	2015/07/29	2016/02/18	6464845	4569323	US912796GZ64	USTRCE	D				2016/01/29					
SCEXH	U	2015/07/30	2016/02/18	6466714	4570987		TZTSE	D				2016/01/29					
SCEXH	D	2015/07/30	2016/02/18	6466722	4570995		USBND										
SCEXH	U	2015/09/21	2016/02/18	6516591	4609770	NZANBDT014C8	NZSE	R			2015/09/28		ANB100				
SCEXH	U	2015/09/29	2016/02/18	6525879	4615035	US3134G7N988	USTRCE	D				2016/01/29	FMCC4294545				
SCEXH	U	2015/10/28	2016/02/18	6556607	4621724	XS1306408854	GBLSE	D	100		2015/10/28	2016/01/29	69IP				
SCEXH	U	2015/10/26	2016/02/18	6554816	4632328	IN002015X316	INRBI	D			2015/10/28	2016/01/29	BIS 4632328				
SCEXH	U	2015/10/28	2016/02/18	6557011	4632328	IN002015X316	INNSE	D			2015/10/28	2016/01/29	TB91D280116				
SCEXH	U	2015/10/28	2016/02/18	6557025	4632328	IN002015X316	INBSE	D			2015/10/28	2016/01/29	421303				
SCEXH	U	2015/10/27	2016/02/18	6556360	4633728		CNIBBM	D			2015/10/28	2016/01/29	111509262				
SCEXH	U	2015/10/27	2016/02/18	6556391	4633758		CNIBBM	D			2015/10/28	2016/01/29	111592190				
SCEXH	U	2015/10/28	2016/02/18	6557132	4634402	XS1314332047	IEISE	D	1		2015/10/28	2016/01/29					
SCEXH	I	2016/02/18	2016/02/18	6650736	4634745	XS1315160702	ITMSE	N			2016/02/17						
SCEXH	U	2015/10/30	2016/02/18	6559152	4636055		THSET	D				2016/01/29					
SCEXH	U	2015/10/30	2016/02/18	6559509	4636322		CNIBBM	D			2015/11/02	2016/01/29	011542004				
SCEXH	U	2015/11/17	2016/02/18	6569675	4644920		ARMVB						GNCJO				
SCEXH	U	2015/11/19	2016/02/18	6572845	4647786	ARBRIO560024	ARMVB						BNC8O				
SCEXH	U	2015/11/19	2016/02/18	6572853	4647797	ARBRIO560016	ARMVB						BNC9O				
SCEXH	U	2015/12/11	2016/02/18	6590354	4663095	MX93VW010DY9	MXMSE	D				2016/01/29					
SCEXH	U	2015/12/16	2016/02/18	6594521	4666838	ARPBUE520265	ARMVB		100				BB2N6				
SCEXH	U	2015/12/17	2016/02/18	6595397	4667613	ARARGE520114	ARMVB		100				LTPF7				
SCEXH	U	2015/12/19	2016/02/18	6597360	4669371	DE000HV5AXH1	DEHSE	D				2016/01/29					
SCEXH	U	2015/12/23	2016/02/18	6600101	4670777	KR606590B5C6	KRKSE				2015/12/23		B06590B5C				
SCEXH	U	2015/12/23	2016/02/18	6600098	4670781	KR60659095C4	KRKSE				2015/12/23		B0659095C				
SCEXH	U	2015/12/23	2016/02/18	6600093	4670785	KR60219655C8	KRKSE				2015/12/23		B0219655C				
SCEXH	U	2015/12/23	2016/02/18	6600106	4670789	KR60972415C4	KRKSE				2015/12/23		B0972415C				
SCEXH	U	2015/12/24	2016/02/18	6600942	4672036	KR60198025C9	KRKSE				2015/12/24		B0198025C				
SCEXH	U	2015/12/24	2016/02/18	6600963	4672038	KR60237855C2	KRKSE				2015/12/24		B0237855C				
SCEXH	U	2015/12/24	2016/02/18	6600948	4672039	KR60198035C8	KRKSE				2015/12/24		B0198035C				
SCEXH	D	2015/12/24	2016/02/18	6601001	4672680	KR60296915C2	KRBND										
SCEXH	I	2016/02/18	2016/02/18	6650717	4672680	KR60296915C2	KRKSE	N			2015/12/28		B0296915C				
SCEXH	D	2015/12/24	2016/02/18	6601005	4672685	KR60296925C1	KRBND										
SCEXH	I	2016/02/18	2016/02/18	6650722	4672685	KR60296925C1	KRKSE	N			2015/12/28		B0296925C				
SCEXH	D	2015/12/24	2016/02/18	6601015	4672695	KR60298895C4	KRBND										
SCEXH	I	2016/02/18	2016/02/18	6650730	4672695	KR60298895C4	KRKSE	N			2015/12/28		B0298895C				
SCEXH	U	2015/12/28	2016/02/18	6601806	4673417		CNIBBM	D			2015/12/28	2016/01/29	111593400				
SCEXH	U	2015/12/28	2016/02/18	6601822	4673430		CNIBBM	D			2015/12/28	2016/01/29	111593402				
SCEXH	U	2015/12/28	2016/02/18	6601828	4673436		CNIBBM	D			2015/12/28	2016/01/29	111593415				
SCEXH	U	2015/12/28	2016/02/18	6601834	4673443		CNIBBM	D			2015/12/28	2016/01/29	111593408				
SCEXH	U	2015/12/28	2016/02/18	6601837	4673447		CNIBBM	D			2015/12/28	2016/01/29	111593388				
SCEXH	U	2015/12/28	2016/02/18	6601849	4673457		CNIBBM	D			2015/12/28	2016/01/29	111593410				
SCEXH	U	2015/12/28	2016/02/18	6601859	4673466		CNIBBM	D			2015/12/28	2016/01/29	111593413				
SCEXH	U	2015/12/28	2016/02/18	6601862	4673469		CNIBBM	D			2015/12/28	2016/01/29	111593417				
SCEXH	U	2015/12/28	2016/02/18	6601873	4673477		CNIBBM	D			2015/12/28	2016/01/29	111593412				
SCEXH	U	2015/12/28	2016/02/18	6601893	4673502		CNIBBM	D			2015/12/28	2016/01/29	111593406				
SCEXH	U	2015/12/28	2016/02/18	6601903	4673512		CNIBBM	D				2016/01/29	111514065				
SCEXH	U	2015/12/28	2016/02/18	6601905	4673514		CNIBBM	D			2015/12/28	2016/01/29	111593395				
SCEXH	U	2015/12/28	2016/02/18	6601907	4673517		CNIBBM	D				2016/01/29	111593396				
SCEXH	U	2015/12/28	2016/02/18	6601912	4673520		CNIBBM	D			2015/12/28	2016/01/29	111593403				
SCEXH	U	2015/12/28	2016/02/18	6601926	4673534		CNIBBM	D			2015/12/28	2016/01/29	111593401				
SCEXH	U	2015/12/29	2016/02/18	6602981	4673815	KR60237865C1	KRKSE				2015/12/29		B0237865C				
SCEXH	U	2015/12/29	2016/02/18	6602974	4673817	KR60219695C4	KRKSE				2015/12/29		B0219695C				
SCEXH	U	2016/01/07	2016/02/18	6608190	4675598	KR60959245C2	KRKSE				2016/01/04		B0959245C				
SCEXH	U	2016/01/05	2016/02/18	6606484	4677545	XS1330188910	SGSSE	D				2016/02/18					
SCEXH	U	2016/01/12	2016/02/18	6611956	4681848	KR6205491618	KRKSE				2016/01/12		B20549161				
SCEXH	U	2016/01/12	2016/02/18	6611959	4681849	KR6205492616	KRKSE				2016/01/12		B20549261				
SCEXH	U	2016/01/12	2016/02/18	6611964	4681850	KR6205493614	KRKSE				2016/01/12		B20549361				
SCEXH	U	2016/01/12	2016/02/18	6611971	4681852	KR6205494612	KRKSE				2016/01/12		B20549461				
SCEXH	D	2016/01/13	2016/02/18	6612969	4683435	XS1313394964	XSBND										
SCEXH	I	2016/02/18	2016/02/18	6650802	4683435	XS1313394964	LULSE	N			2016/02/17						
SCEXH	U	2016/01/14	2016/02/18	6618345	4683964	KR6019453614	KRKSE				2016/01/14		B01945361				
SCEXH	U	2016/01/14	2016/02/18	6618360	4683972	KR6174141616	KRKSE				2016/01/14		B17414161				
SCEXH	U	2016/01/15	2016/02/18	6621138	4685217	KR6023761614	KRKSE				2016/01/15		B02376161				
SCEXH	U	2016/01/18	2016/02/18	6625147	4686710	KR6174142614	KRKSE				2016/01/18		B17414261				
SCEXH	I	2016/02/18	2016/02/18	6650762	4691783	US780082AD52	CABND										
SCEXH	U	2016/01/28	2016/02/18	6636512	4692448	US87612BAT98	USNYSE	S					NGLS/18				
SCEXH	U	2016/02/09	2016/02/18	6645201	4693606	XS1289137694	LULSE				2016/02/17						
SCEXH	U	2016/01/29	2016/02/18	6638483	4694597	XS1289135722	LULSE				2016/02/17						
SCEXH	U	2016/02/03	2016/02/18	6641579	4699544		CNIBBM				2016/02/04		111608043				
SCEXH	I	2016/02/18	2016/02/18	6650700	4699877	US298785HB50	ITMSE	N			2016/02/17						
SCEXH	U	2016/02/04	2016/02/18	6642631	4700472		CNIBBM				2016/02/05		111690599				
SCEXH	U	2016/02/04	2016/02/18	6642635	4700476		CNIBBM				2016/02/05		111690596				
SCEXH	U	2016/02/04	2016/02/18	6642637	4700478		CNIBBM				2016/02/05		111690595				
SCEXH	U	2016/02/04	2016/02/18	6642647	4700486		CNIBBM				2016/02/05		111690590				
SCEXH	U	2016/02/04	2016/02/18	6642652	4700491		CNIBBM				2016/02/05		111690586				
SCEXH	U	2016/02/04	2016/02/18	6642653	4700492		CNIBBM				2016/02/05		111690585				
SCEXH	U	2016/02/04	2016/02/18	6642656	4700496		CNIBBM				2016/02/05		111690584				
SCEXH	I	2016/02/18	2016/02/18	6650880	4700604	XS1361554584	ITMSE	N			2016/02/17						
SCEXH	U	2016/02/05	2016/02/18	6642910	4700731	XS1362384262	USNYSE				2016/02/16		PX24				
SCEXH	U	2016/02/06	2016/02/18	6643944	4701501	US42809H4048	USOTC	D	100	100	2016/02/05	2016/02/17	AMDPP				
SCEXH	D	2016/02/06	2016/02/18	6643818	4701526	XS1290022471	XSBND										
SCEXH	I	2016/02/18	2016/02/18	6650787	4701526	XS1290022471	LULSE	N			2016/02/17						
SCEXH	D	2016/02/06	2016/02/18	6643897	4701589	XS1313811157	XSBND										
SCEXH	I	2016/02/18	2016/02/18	6650811	4701589	XS1313811157	LULSE	N			2016/02/17						
SCEXH	D	2016/02/06	2016/02/18	6643896	4701591	XS1313811660	XSBND										
SCEXH	I	2016/02/18	2016/02/18	6650808	4701591	XS1313811660	LULSE	N			2016/02/17						
SCEXH	D	2016/02/06	2016/02/18	6643939	4701627	XS1338126870	XSBND										
SCEXH	I	2016/02/18	2016/02/18	6650804	4701627	XS1338126870	LULSE	N			2016/02/17						
SCEXH	D	2016/02/08	2016/02/18	6644430	4702072	XS1308292017	XSBND										SXS1308292017<BR><BR><BR><BR>
SCEXH	I	2016/02/18	2016/02/18	6650797	4702072	XS1308292017	LULSE	N			2016/02/17						
SCEXH	D	2016/02/11	2016/02/18	6646259	4703626	EGBGR01651F1	EGBND										
SCEXH	I	2016/02/18	2016/02/18	6650739	4703626	EGBGR01651F1	EGCASE	N			2016/02/09						
SCEXH	D	2016/02/11	2016/02/18	6646261	4703629	EGBGR01691F7	EGBND										
SCEXH	I	2016/02/18	2016/02/18	6650740	4703629	EGBGR01691F7	EGCASE	N			2016/02/09						
SCEXH	U	2016/02/17	2016/02/18	6649680	4703722	AU3CB0235612	LULSE		100		2016/02/17						
SCEXH	D	2016/02/12	2016/02/18	6647284	4704511	XS1366041124	XSBND										
SCEXH	I	2016/02/18	2016/02/18	6650794	4704511	XS1366041124	LULSE	N			2016/02/17						
SCEXH	D	2016/02/15	2016/02/18	6648402	4705368	XS1366716931	XSBND										
SCEXH	I	2016/02/18	2016/02/18	6650793	4705368	XS1366716931	LULSE	N			2016/02/17						
SCEXH	D	2016/02/16	2016/02/18	6649045	4705909	USP40689AA21	USBND										
SCEXH	I	2016/02/18	2016/02/18	6650881	4705909	USP40689AA21	USTRCE	N					FIDE4336453				
SCEXH	D	2016/02/17	2016/02/18	6649797	4706492	DE000A1680Y5	DEBND										
SCEXH	I	2016/02/18	2016/02/18	6650895	4706492	DE000A1680Y5	DEBSE	N									
SCEXH	I	2016/02/18	2016/02/18	6650693	4706555	USU3823BCM10	USTRCE	N					GS4336451				
SCEXH	I	2016/02/18	2016/02/18	6650632	4707190	CA1360Z2BB90	CABND										
SCEXH	I	2016/02/18	2016/02/18	6650633	4707191	CA5909ZNPL60	CABND										
SCEXH	I	2016/02/18	2016/02/18	6650634	4707192	CA6939Z8Q343	CABND										
SCEXH	I	2016/02/18	2016/02/18	6650635	4707193	CA7419Z2VK51	CABND										
SCEXH	I	2016/02/18	2016/02/18	6650636	4707194	CA9215ZNPL46	CABND										
SCEXH	I	2016/02/18	2016/02/18	6650637	4707195	CA0046ZWSK13	CABND										
SCEXH	I	2016/02/18	2016/02/18	6650638	4707196	CA1280ZTQN85	CABND										
SCEXH	I	2016/02/18	2016/02/18	6650639	4707197	CA3179Z2RK44	CABND										
SCEXH	I	2016/02/18	2016/02/18	6650640	4707198	CA4959Z0VJ05	CABND										
SCEXH	I	2016/02/18	2016/02/18	6650641	4707199	CA5909ZXVK95	CABND										
SCEXH	I	2016/02/18	2016/02/18	6650642	4707200	CA8619Z0TH31	CABND										
SCEXH	I	2016/02/18	2016/02/18	6650643	4707201	CA9289ZAPR46	CABND										
SCEXH	I	2016/02/18	2016/02/18	6650644	4707202	CA9215ZNQ416	CABND										
SCEXH	I	2016/02/18	2016/02/18	6650645	4707203	CA9499Z8TH21	CABND										
SCEXH	I	2016/02/18	2016/02/18	6650646	4707204	CA9575ZEQA43	CABND										
SCEXH	I	2016/02/18	2016/02/18	6650647	4707205	CA0665ZRPQ90	CABND										
SCEXH	I	2016/02/18	2016/02/18	6650648	4707206	CA8911ZLPR09	CABND										
SCEXH	I	2016/02/18	2016/02/18	6650649	4707207	CA6547ZRPW02	CABND										
SCEXH	I	2016/02/18	2016/02/18	6650650	4707208	CA4480ZMQ975	CABND										
SCEXH	I	2016/02/18	2016/02/18	6650651	4707209	CA0046ZWQK31	CABND										
SCEXH	I	2016/02/18	2016/02/18	6650652	4707210	CA1547ZPQJ76	CABND										
SCEXH	I	2016/02/18	2016/02/18	6650653	4707211	CA4480ZMQP17	CABND										
SCEXH	I	2016/02/18	2016/02/18	6650654	4707212	CA8726ZSQQ80	CABND										
SCEXH	I	2016/02/18	2016/02/18	6650655	4707213	CA6259Z2QQ95	CABND										
SCEXH	I	2016/02/18	2016/02/18	6650656	4707214	CA6698Z3QK99	CABND										
SCEXH	I	2016/02/18	2016/02/18	6650657	4707215	CA8359Z4SK28	CABND										
SCEXH	I	2016/02/18	2016/02/18	6650658	4707216	CA8359Z9SL97	CABND										
SCEXH	I	2016/02/18	2016/02/18	6650659	4707217	CA1806ZXYF92	CABND										
SCEXH	I	2016/02/18	2016/02/18	6650660	4707218	CA064151HB21	CABND										
SCEXH	I	2016/02/18	2016/02/18	6650661	4707219	CA064151HH90	CABND										
SCEXH	I	2016/02/18	2016/02/18	6650662	4707220	CA064151HN68	CABND										
SCEXH	I	2016/02/18	2016/02/18	6650663	4707221	CA1350Z7X334	CABND										
SCEXH	I	2016/02/18	2016/02/18	6650664	4707222	CA732451CH03	CABND										
SCEXH	I	2016/02/18	2016/02/18	6650665	4707223	CA732451CJ68	CABND										
SCEXH	I	2016/02/18	2016/02/18	6650666	4707224	CA732451CK32	CABND										
SCEXH	I	2016/02/18	2016/02/18	6650667	4707225	CA732451CL15	CABND										
SCEXH	I	2016/02/18	2016/02/18	6650668	4707226	CA732451CM97	CABND										
SCEXH	I	2016/02/18	2016/02/18	6650669	4707227	CA793420DD97	CABND										
SCEXH	I	2016/02/18	2016/02/18	6650670	4707228	CA793420DE70	CABND										
SCEXH	I	2016/02/18	2016/02/18	6650671	4707229	CA793420DF46	CABND										
SCEXH	I	2016/02/18	2016/02/18	6650672	4707230	CA793420DG29	CABND										
SCEXH	I	2016/02/18	2016/02/18	6650673	4707231	CA793420DH02	CABND										
SCEXH	I	2016/02/18	2016/02/18	6650674	4707232	CA793738CD53	CABND										
SCEXH	I	2016/02/18	2016/02/18	6650675	4707233	CA793738CE37	CABND										
SCEXH	I	2016/02/18	2016/02/18	6650676	4707234	CA793738CF02	CABND										
SCEXH	I	2016/02/18	2016/02/18	6650677	4707235	CA793738CG84	CABND										
SCEXH	I	2016/02/18	2016/02/18	6650678	4707236	CA793738CH67	CABND										
SCEXH	I	2016/02/18	2016/02/18	6650679	4707237	CA793738CJ24	CABND										
SCEXH	I	2016/02/18	2016/02/18	6650680	4707238	CA82028KAV31	CABND										
SCEXH	I	2016/02/18	2016/02/18	6650681	4707239	CA8911457N88	CABND										
SCEXH	I	2016/02/18	2016/02/18	6650682	4707240	CA0781Z7QQ73	CABND										
SCEXH	I	2016/02/18	2016/02/18	6650683	4707241	CA2009ZJQY82	CABND										
SCEXH	I	2016/02/18	2016/02/18	6650684	4707242	CA2509Z6QK57	CABND										
SCEXH	I	2016/02/18	2016/02/18	6650685	4707243	CA2925ZPQ966	CABND										
SCEXH	I	2016/02/18	2016/02/18	6650686	4707244	CA8669Z8QK77	CABND										
SCEXH	I	2016/02/18	2016/02/18	6650687	4707245	CA8672Z1QJ97	CABND										
SCEXH	I	2016/02/18	2016/02/18	6650688	4707246	CA0665ZQSK11	CABND										
SCEXH	I	2016/02/18	2016/02/18	6650689	4707247	CA2339ZHSL96	CABND										
SCEXH	I	2016/02/18	2016/02/18	6650690	4707248	CA0665ZRVH28	CABND										
SCEXH	I	2016/02/18	2016/02/18	6650692	4707249	XS1273393766	XSBND										
SCEXH	I	2016/02/18	2016/02/18	6650691	4707250	INE036U07029	INBND										
SCEXH	I	2016/02/18	2016/02/18	6650694	4707251	XS1273406253	XSBND										
SCEXH	I	2016/02/18	2016/02/18	6650695	4707252	XS1273413895	XSBND										
SCEXH	I	2016/02/18	2016/02/18	6650696	4707253	XS1276929392	XSBND										
SCEXH	I	2016/02/18	2016/02/18	6650697	4707254	XS1289110816	XSBND										
SCEXH	I	2016/02/18	2016/02/18	6650698	4707255	XS1276929475	XSBND										
SCEXH	I	2016/02/18	2016/02/18	6650699	4707256	XS1281104296	XSBND										
SCEXH	I	2016/02/18	2016/02/18	6650862	4707257	US3133EFE608	USTRCE	N					FFCD4336634				
SCEXH	I	2016/02/18	2016/02/18	6650701	4707258	XS1289428580	XSBND										
SCEXH	I	2016/02/18	2016/02/18	6650702	4707259	XS1289428663	XSBND										
SCEXH	I	2016/02/18	2016/02/18	6650703	4707260	XS1369614034	XSBND										
SCEXH	I	2016/02/18	2016/02/18	6650704	4707261	XS1289428747	XSBND										
SCEXH	I	2016/02/18	2016/02/18	6650705	4707262	BE6259127080	BEBND										
SCEXH	I	2016/02/18	2016/02/18	6650706	4707264	XS1290056537	XSBND										
SCEXH	I	2016/02/18	2016/02/18	6650707	4707265	XS1290056610	XSBND										
SCEXH	I	2016/02/18	2016/02/18	6650709	4707266	CA0781Z7SJ13	CABND										
SCEXH	I	2016/02/18	2016/02/18	6650710	4707267	XS1290056701	XSBND										
SCEXH	I	2016/02/18	2016/02/18	6650711	4707268	CA1129Z6QG28	CABND										
SCEXH	I	2016/02/18	2016/02/18	6650712	4707269	XS1290056883	XSBND										
SCEXH	I	2016/02/18	2016/02/18	6650713	4707270	XS1369648446	XSBND										
SCEXH	I	2016/02/18	2016/02/18	6650714	4707271	CA1277ZAQH89	CABND										
SCEXH	I	2016/02/18	2016/02/18	6650715	4707272	CA1280ZHQP95	CABND										
SCEXH	I	2016/02/18	2016/02/18	6650716	4707273	CA1280ZHRM55	CABND										
SCEXH	I	2016/02/18	2016/02/18	6650718	4707274	CA1360Z2SJ44	CABND										
SCEXH	I	2016/02/18	2016/02/18	6650721	4707275		CNIBBM	N					111690697				
SCEXH	I	2016/02/18	2016/02/18	6650719	4707276	CA1360ZRRL57	CABND										
SCEXH	I	2016/02/18	2016/02/18	6650720	4707277	CA2949ZRPR36	CABND										
SCEXH	I	2016/02/18	2016/02/18	6650723	4707278	CA3189Z4Q957	CABND										
SCEXH	I	2016/02/18	2016/02/18	6650725	4707279		CNIBBM	N					111608050				
SCEXH	I	2016/02/18	2016/02/18	6650724	4707280	CA3379Z2SK98	CABND										
SCEXH	I	2016/02/18	2016/02/18	6650726	4707281	CA4042ZPSJ45	CABND										
SCEXH	I	2016/02/18	2016/02/18	6650727	4707282	CA4809Z5QQ62	CABND										
SCEXH	I	2016/02/18	2016/02/18	6650729	4707283		CNIBBM	N					111607038				
SCEXH	I	2016/02/18	2016/02/18	6650728	4707284	CA56347PYM45	CABND										
SCEXH	I	2016/02/18	2016/02/18	6650731	4707285	PHY7500ZAA31	PHBND										
SCEXH	I	2016/02/18	2016/02/18	6650733	4707286	CA5909ZNSJ87	CABND										
SCEXH	I	2016/02/18	2016/02/18	6650734	4707287		CNIBBM	N					111690663				
SCEXH	I	2016/02/18	2016/02/18	6650735	4707288	CA5909ZNTA69	CABND										
SCEXH	I	2016/02/18	2016/02/18	6650737	4707289	XS1292854863	XSBND										
SCEXH	I	2016/02/18	2016/02/18	6650857	4707290	US3130A7CV50	USTRCE	N					FHLN4336606				
SCEXH	I	2016/02/18	2016/02/18	6650738	4707291	RU000A0JVW48	RUMICX	N									
SCEXH	I	2016/02/18	2016/02/18	6650858	4707294	US3130A7D369	USTRCE	N					FHLN4336619				
SCEXH	I	2016/02/18	2016/02/18	6650859	4707296	US3130A7D518	USTRCE	N					FHLN4336632				
SCEXH	I	2016/02/18	2016/02/18	6650741	4707297	INE364K07075	INBND										
SCEXH	I	2016/02/18	2016/02/18	6650860	4707299	US3130A7D773	USTRCE	N					FHLN4336653				
SCEXH	I	2016/02/18	2016/02/18	6650870	4707300	US3130A7D856	USTRCE	N					FHLN4336659				
SCEXH	I	2016/02/18	2016/02/18	6650867	4707301	US3130A7D930	USTRCE	N					FHLN4336682				
SCEXH	I	2016/02/18	2016/02/18	6650742	4707302	CA6330Z8SK68	CABND										
SCEXH	I	2016/02/18	2016/02/18	6650869	4707303	US3130A7DA05	USTRCE	N					FHLN4336694				
SCEXH	I	2016/02/18	2016/02/18	6650743	4707304	CA6832Z56V75	CABND										
SCEXH	I	2016/02/18	2016/02/18	6650745	4707306	CA6832ZJSJ00	CABND										
SCEXH	I	2016/02/18	2016/02/18	6650746	4707307	CA6939Z2PP94	CABND										
SCEXH	I	2016/02/18	2016/02/18	6650747	4707308	CA72819M4D05	CABND										
SCEXH	I	2016/02/18	2016/02/18	6650748	4707309	INE364K07083	INBND										
SCEXH	I	2016/02/18	2016/02/18	6650749	4707310	CA7419Z5PQ27	CABND										
SCEXH	I	2016/02/18	2016/02/18	6650868	4707311	US3130A7DB87	USTRCE	N					FHLN4336684				
SCEXH	I	2016/02/18	2016/02/18	6650750	4707312	CA7419Z5SJ56	CABND										
SCEXH	I	2016/02/18	2016/02/18	6650751	4707313		BWBND										
SCEXH	I	2016/02/18	2016/02/18	6650752	4707315	CA7419Z5TA39	CABND										
SCEXH	I	2016/02/18	2016/02/18	6650753	4707316	CA7801ZHQ920	CABND										
SCEXH	I	2016/02/18	2016/02/18	6650754	4707317	CA861920SF49	CABND										
SCEXH	I	2016/02/18	2016/02/18	6650755	4707318	CA8619Z0VG20	CABND										
SCEXH	I	2016/02/18	2016/02/18	6650756	4707319	CA8686ZHVK56	CABND										
SCEXH	I	2016/02/18	2016/02/18	6650757	4707320	CA9889Z7SJ31	CABND										
SCEXH	I	2016/02/18	2016/02/18	6650759	4707321	INE556F09585	INBND										
SCEXH	I	2016/02/18	2016/02/18	6650760	4707322	CA11067ZEN56	CABND										
SCEXH	I	2016/02/18	2016/02/18	6650764	4707323	INE658R08032	INBND										
SCEXH	I	2016/02/18	2016/02/18	6650761	4707324	CA63308ZJZ32	CABND										
SCEXH	I	2016/02/18	2016/02/18	6650763	4707325	CA79373PGQ42	CABND										
SCEXH	I	2016/02/18	2016/02/18	6650765	4707326	CA79373PGR25	CABND										
SCEXH	I	2016/02/18	2016/02/18	6650766	4707327	CA79373PGS08	CABND										
SCEXH	I	2016/02/18	2016/02/18	6650767	4707328	CA79373PGT80	CABND										
SCEXH	I	2016/02/18	2016/02/18	6650768	4707329	US3134G8M897	USTRCE	N									
SCEXH	I	2016/02/18	2016/02/18	6650769	4707330	CA79373PGU53	CABND										
SCEXH	I	2016/02/18	2016/02/18	6650771	4707331	INE774D07OB2	INBND										
SCEXH	I	2016/02/18	2016/02/18	6650770	4707332	US3136G2ZJ90	USTRCE	N					FNMA4336031				
SCEXH	I	2016/02/18	2016/02/18	6650772	4707333	US3136G2ZH35	USTRCE	N					FNMA4336032				
SCEXH	I	2016/02/18	2016/02/18	6650777	4707334	INE866I07AW0	INBND										
SCEXH	I	2016/02/18	2016/02/18	6650774	4707335	CA86682ZAH97	CABND										
SCEXH	I	2016/02/18	2016/02/18	6650773	4707336	US3136G2ZP50	USTRCE	N					FNMA4336064				
SCEXH	I	2016/02/18	2016/02/18	6650775	4707337	XS1346695197	IEISE	N	100								
SCEXH	I	2016/02/18	2016/02/18	6650776	4707338	US3136G2ZT72	USTRCE	N					FNMA4336414				
SCEXH	I	2016/02/18	2016/02/18	6650778	4707339	US500769GX62	LULSE	N									
SCEXH	I	2016/02/18	2016/02/18	6650779	4707340	DE000A13SW98	DEBND										
SCEXH	I	2016/02/18	2016/02/18	6650851	4707341	US285512AC38	USTRCE	N					ERTS4336677				
SCEXH	I	2016/02/18	2016/02/18	6650780	4707342	XS1369257172	XSBND										
SCEXH	I	2016/02/18	2016/02/18	6650781	4707343	US461203AE11	USTRCE	N					IVC4336440				
SCEXH	I	2016/02/18	2016/02/18	6650782	4707344	DE000A14J9T5	DEBND										
SCEXH	I	2016/02/18	2016/02/18	6650783	4707345	XS1035526307	XSBND										
SCEXH	I	2016/02/18	2016/02/18	6650784	4707346	DE000A1683P7	DEBND										
SCEXH	I	2016/02/18	2016/02/18	6650785	4707347	INE931S07025	INBND										
SCEXH	I	2016/02/18	2016/02/18	6650786	4707348	DE000A1683Q5	DEBND										
SCEXH	I	2016/02/18	2016/02/18	6650854	4707349	US285512AD11	USTRCE	N					ERTS4336679				
SCEXH	I	2016/02/18	2016/02/18	6650791	4707350	DE000A1683V5	DEBND										
SCEXH	I	2016/02/18	2016/02/18	6650792	4707351	INE931S07033	INBND										
SCEXH	I	2016/02/18	2016/02/18	6650796	4707352	US34540TKT87	USBND										
SCEXH	I	2016/02/18	2016/02/18	6650795	4707353	DE000A1683W3	DEBND										
SCEXH	I	2016/02/18	2016/02/18	6650892	4707354	US494368BT98	USTRCE	N					KMB4336674				
SCEXH	I	2016/02/18	2016/02/18	6650798	4707355	DE000A1683X1	DEBND										
SCEXH	I	2016/02/18	2016/02/18	6650799	4707356	DE000A169GJ1	DEBND										
SCEXH	I	2016/02/18	2016/02/18	6650800	4707357	US34540TKU50	USBND										
SCEXH	I	2016/02/18	2016/02/18	6650893	4707358	US494368BU61	USTRCE	N					KMB4336675				
SCEXH	I	2016/02/18	2016/02/18	6650882	4707359	US40433UJQ04	USTRCE	N					HBC4336597				
SCEXH	I	2016/02/18	2016/02/18	6650801	4707360	DE000A169G98	DEBND										
SCEXH	I	2016/02/18	2016/02/18	6650803	4707361	INE931S07041	INBND										
SCEXH	I	2016/02/18	2016/02/18	6650805	4707362	DE000A169K92	DEBND										
SCEXH	I	2016/02/18	2016/02/18	6650807	4707363	US34540TKV34	USBND										
SCEXH	I	2016/02/18	2016/02/18	6650810	4707364	DE000A2AAJ50	DEBND										
SCEXH	I	2016/02/18	2016/02/18	6650812	4707365	DE000DG6CFM5	DEBND										
SCEXH	I	2016/02/18	2016/02/18	6650813	4707366	INE976G08049	INBND										
SCEXH	I	2016/02/18	2016/02/18	6650814	4707367	DE000DG6CFN3	DEBND										
SCEXH	I	2016/02/18	2016/02/18	6650815	4707368	DE000DG6CFP8	DEBND										
SCEXH	I	2016/02/18	2016/02/18	6650817	4707369	XS1265943644	XSBND										
SCEXH	I	2016/02/18	2016/02/18	6650816	4707370	XS1366953047	LULSE	N			2016/02/17						
SCEXH	I	2016/02/18	2016/02/18	6650921	4707371	US3133EFE459	USTRCE	N									
SCEXH	I	2016/02/18	2016/02/18	6650818	4707372	DE000DG6CFQ6	DEBND										
SCEXH	I	2016/02/18	2016/02/18	6650819	4707373	XS1368344286	LULSE	N			2016/02/17						
SCEXH	I	2016/02/18	2016/02/18	6650820	4707374	DE000DK0GA83	DEBND										
SCEXH	I	2016/02/18	2016/02/18	6650821	4707375	ML0000000504	MLBND										
SCEXH	I	2016/02/18	2016/02/18	6650822	4707376	XS1270144857	XSBND										
SCEXH	I	2016/02/18	2016/02/18	6650823	4707377	XS1317169586	LULSE	N			2016/02/17						
SCEXH	I	2016/02/18	2016/02/18	6650824	4707378	DE000DK0GA91	DEBND										
SCEXH	I	2016/02/18	2016/02/18	6650825	4707379	DE000DK0GB17	DEBND										
SCEXH	I	2016/02/18	2016/02/18	6650826	4707380	XS1273384427	XSBND										
SCEXH	I	2016/02/18	2016/02/18	6650827	4707381	DE000DK0GB25	DEBND										
SCEXH	I	2016/02/18	2016/02/18	6650828	4707382	DE000DK0GCP3	DEBND										
SCEXH	I	2016/02/18	2016/02/18	6650829	4707383	XS1365136644	LULSE	N			2016/02/17						
SCEXH	I	2016/02/18	2016/02/18	6650830	4707384	DE000DK0GCQ1	DEBND										
SCEXH	I	2016/02/18	2016/02/18	6650831	4707385	DE000DK0GCR9	DEBND										
SCEXH	I	2016/02/18	2016/02/18	6650833	4707386	XS1292854277	XSBND										
SCEXH	I	2016/02/18	2016/02/18	6650832	4707387	FR0013102241	LULSE	N			2016/02/17						
SCEXH	I	2016/02/18	2016/02/18	6650834	4707388	DE000DK0GCS7	DEBND										
SCEXH	I	2016/02/18	2016/02/18	6650835	4707389	FR0013118312	LULSE	N			2016/02/17						
SCEXH	I	2016/02/18	2016/02/18	6650836	4707390	DE000DK0GCT5	DEBND										
SCEXH	I	2016/02/18	2016/02/18	6650837	4707391	US3136G2ZS99	USTRCE	N					FNMA4336332				
SCEXH	I	2016/02/18	2016/02/18	6650838	4707392	XS1369605123	XSBND										
SCEXH	I	2016/02/18	2016/02/18	6650900	4707393	DE000HSH5XW7	DEHSE	N									
SCEXH	I	2016/02/18	2016/02/18	6650840	4707394	XS1313810183	XSBND										
SCEXH	I	2016/02/18	2016/02/18	6650841	4707395	DE000HY96NL8	DEBND										
SCEXH	I	2016/02/18	2016/02/18	6650842	4707396	DE000HY96NN4	DEBND										
SCEXH	I	2016/02/18	2016/02/18	6650844	4707397	XS1289428408	XSBND										
SCEXH	I	2016/02/18	2016/02/18	6650846	4707398	XS1313817279	XSBND										
SCEXH	I	2016/02/18	2016/02/18	6650847	4707399	DE000HY96NV7	DEBND										
SCEXH	I	2016/02/18	2016/02/18	6650848	4707400	XS1369268534	XSBND										
SCEXH	I	2016/02/18	2016/02/18	6650850	4707401	US131477AQ49	USTRCE	N					CLMT4336656				
SCEXH	I	2016/02/18	2016/02/18	6650855	4707402	XS1313817352	XSBND										
SCEXH	I	2016/02/18	2016/02/18	6650856	4707403	US61766A1034	USTRCE	N					MS4334444				
SCEXH	I	2016/02/18	2016/02/18	6650853	4707404	DE000HY96NW5	DEBND										
SCEXH	I	2016/02/18	2016/02/18	6650861	4707405	DE000HY96NX3	DEBND										
SCEXH	I	2016/02/18	2016/02/18	6650863	4707406	USU94974GU71	USTRCE	N					WFC4336628				
SCEXH	I	2016/02/18	2016/02/18	6650865	4707407	XS1313817519	XSBND										
SCEXH	I	2016/02/18	2016/02/18	6650866	4707408	DE000LB06FY6	DEBND										
SCEXH	I	2016/02/18	2016/02/18	6650871	4707409	US3132X0EY35	USTRCE	N					AGM4336655				
SCEXH	I	2016/02/18	2016/02/18	6650872	4707410	US3134G8MD82	USTRCE	N									
SCEXH	I	2016/02/18	2016/02/18	6650874	4707411	US90275L7148	USTRCE	N					UBS4336669				
SCEXH	I	2016/02/18	2016/02/18	6650875	4707412	US06744K1372	USTRCE	N					BCS4336600				
SCEXH	I	2016/02/18	2016/02/18	6650876	4707413	XS1313817600	XSBND										
SCEXH	I	2016/02/18	2016/02/18	6650877	4707414	US3134G8MF31	USTRCE	N									
SCEXH	I	2016/02/18	2016/02/18	6650878	4707415	IL0020801663	ILTSE	N					NAWI.B2				
SCEXH	I	2016/02/18	2016/02/18	6650902	4707416	US06741U5F75	USBND										
SCEXH	I	2016/02/18	2016/02/18	6650879	4707417	XS1237690661	XSBND										
SCEXH	I	2016/02/18	2016/02/18	6650883	4707418	XS1281104023	XSBND										
SCEXH	I	2016/02/18	2016/02/18	6650884	4707419	US90275L7064	USTRCE	N					UBS4336663				
SCEXH	I	2016/02/18	2016/02/18	6650885	4707420	XS1313817782	XSBND										
SCEXH	I	2016/02/18	2016/02/18	6650886	4707421	XS1314932317	XSBND										
SCEXH	I	2016/02/18	2016/02/18	6650912	4707422	US3136G2ZU46	USTRCE	N					FNMA4336599				
SCEXH	I	2016/02/18	2016/02/18	6650896	4707423	US78355HKB41	USTRCE	N					R4336671				
SCEXH	I	2016/02/18	2016/02/18	6650887	4707424	US22546VWU69	USTRCE	N					CS4336672				
SCEXH	I	2016/02/18	2016/02/18	6650888	4707425	US78012KLM70	USTRCE	N					RY4336693				
SCEXH	I	2016/02/18	2016/02/18	6650889	4707426		PYBVA	N									
SCEXH	I	2016/02/18	2016/02/18	6650890	4707427	XS1314951705	XSBND										
SCEXH	I	2016/02/18	2016/02/18	6650891	4707428	US3136G3AB13	USTRCE	N					FNMA4336605				
SCEXH	I	2016/02/18	2016/02/18	6650894	4707429	US3136G2ZV29	USTRCE	N					FNMA4336607				
SCEXH	I	2016/02/18	2016/02/18	6650897	4707430	XS1314952182	XSBND										
SCEXH	I	2016/02/18	2016/02/18	6650898	4707431	US55342UAF12	USTRCE	N					MPTO4336690				
SCEXH	I	2016/02/18	2016/02/18	6650899	4707432	US3136G3AG00	USTRCE	N					FNMA4336633				
SCEXH	I	2016/02/18	2016/02/18	6650901	4707433	US3136G3AK12	USTRCE	N					FNMA4336652				
SCEXH	I	2016/02/18	2016/02/18	6650904	4707434		ARMVB	N					BDC7O				
SCEXH	I	2016/02/18	2016/02/18	6650903	4707435	US61761JX618	USTRCE	N					MS4336683				
SCEXH	I	2016/02/18	2016/02/18	6650905	4707436	XS1314953404	XSBND										
SCEXH	I	2016/02/18	2016/02/18	6650907	4707437	XS1290056453	XSBND										
SCEXH	I	2016/02/18	2016/02/18	6650906	4707438	US3136G3AM77	USTRCE	N					FNMA4336681				
SCEXH	I	2016/02/18	2016/02/18	6650915	4707439	US48128AAH68	USTRCE	N					JPM4334734				
SCEXH	I	2016/02/18	2016/02/18	6650911	4707440		ARMVB	N									
SCEXH	I	2016/02/18	2016/02/18	6650909	4707441	XS1314953669	XSBND										
SCEXH	I	2016/02/18	2016/02/18	6650908	4707442	US3136G3AH82	USTRCE	N					FNMA4336651				
SCEXH	I	2016/02/18	2016/02/18	6650910	4707443	US48128GNC05	USTRCE	N					JPM4336670				
SCEXH	I	2016/02/18	2016/02/18	6650914	4707444	XS1295018391	XSBND										
SCEXH	I	2016/02/18	2016/02/18	6650913	4707445		ARMVB	N									
SCEXH	I	2016/02/18	2016/02/18	6650916	4707446		SLBND										
SCEXH	I	2016/02/18	2016/02/18	6650917	4707447	GHGBOG041794	GHBND										
SCEXH	I	2016/02/18	2016/02/18	6650918	4707448	XS1314958205	XSBND										
SCEXH	I	2016/02/18	2016/02/18	6650919	4707449		BJBND										
SCEXH	I	2016/02/18	2016/02/18	6650920	4707450	XS1317184031	XSBND										
EDI_ENDOFFILE
