EDI_CTCHG_20160218_1
TableName	Actflag	Created	Changed	CtChgID	SecID	ISIN	EffectiveDate	OldResultantRatio	NewResultantRatio	OldSecurityRatio	NewSecurityRatio	OldCurrency	NewCurrency	OldCurPair	NewCurPair	OldConversionPrice	NewConversionPrice	ResSectyCD	OldResSecID	NewResSecID	EventType	RelEventID	OldFromDate	NewFromDate	OldTodate	NewToDate	ConvtID	OldFXRate	NewFXRate	OldPriceAsPercent	NewPriceAsPercent	Notes
CTCHG	I	2016/02/18	2016/02/18	7381	1607624	XS0457172913	2016/02/12	1.0000000	1.0000000	2253.2672374	2325.5813953	EUR	EUR			22.19000	21.50000	EQS	55723	55723	CTCHG		2014/12/01	2016/02/12	2020/10/21	2020/10/21	6477					CAType            :   CONVERT - CONVERSION OPTION<BR>ExercisePrice :    EUR 21.5<BR>NewToOld       :    2325.581395 : 50000.000000
CTCHG	I	2016/02/18	2016/02/18	7382	4356630	AT0000A0ZK93	2013/03/06		1.0000000		14.0000000	EUR	EUR				71.42857	CTF			CORR		2015/03/05	2015/03/05	2028/03/04	2028/03/04	20137					
EDI_ENDOFFILE
