EDI_BSCHG_20160218_1
TableName	Actflag	Created	Changed	BschgID	SecID	ISIN	NotificationDate	OldBondType	NewBondType	OldCurenCD	NewCurenCD	OldPIU	NewPIU	OldInterestBasis	NewInterestBasis	Eventtype	OldInterestCurrency	NewInterestCurrency	OldMaturityCurrency	NewMaturityCurrency	OldIntBusDayConv	NewIntBusDayConv	OldMatBusDayConv	NewMatBusDayConv	Notes
BSCHG	U	2014/10/18	2016/02/18	155214	4316082	XS1092508727	2014/07/30	MTN	MTN	AUD	AUD			FR	FXD	CORR	AUD	AUD	AUD	AUD					
BSCHG	U	2016/02/15	2016/02/18	199421	4316082	XS1092508727	2014/07/31	MTN	MTN	AUD	AUD			FXD	SU	CORR	AUD	AUD	AUD	AUD					
BSCHG	I	2016/02/18	2016/02/18	199802	4699027	XS1358936927	2016/02/13	MTN	NT	USD	USD			FXD	FXD	CORR	USD		USD	USD					
BSCHG	I	2016/02/18	2016/02/18	199803	4699944	CA06367XTH49	2016/02/18	BD	NT	USD	USD			ZC	ZC	CORR			USD	USD			FBD	FBD	
BSCHG	I	2016/02/18	2016/02/18	199804	4699027	XS1358936927	2016/02/14	NT	NT	USD	USD			FXD	ZC	CORR			USD	USD					
BSCHG	I	2016/02/18	2016/02/18	199805	4698995	XS1358935796	2016/02/13	MTN	NT	USD	USD			FR	FR	CORR	USD	USD	USD	USD	FBD	FBD	FBD	FBD	
BSCHG	I	2016/02/18	2016/02/18	199806	4080570	IL0011217630	2010/12/22	BD	BD	ILS	ILS			FXD	FR	CORR	ILS	ILS	ILS	ILS	FBD	FBD	FBD	FBD	
BSCHG	I	2016/02/18	2016/02/18	199807	4699022	XS1358936844	2016/02/13	MTN	NT	USD	USD			FXD	FXD	CORR	USD	USD	USD	USD					
BSCHG	I	2016/02/18	2016/02/18	199808	4699022	XS1358936844	2016/02/14	NT	NT	USD	USD			FXD	FXD	CORR	USD		USD	USD					
BSCHG	I	2016/02/18	2016/02/18	199809	4699022	XS1358936844	2016/02/15	NT	NT	USD	USD			FXD	ZC	CORR			USD	USD					
BSCHG	I	2016/02/18	2016/02/18	199810	4704577	ZAG000133299	2016/02/10	NT	CP	ZAR	ZAR			FXD	FXD	CORR	ZAR	ZAR	ZAR	ZAR	FBD	FBD	FBD	FBD	
BSCHG	I	2016/02/18	2016/02/18	199811	3975777	IL0011276537	2013/02/01	BD	BD	ILS	ILS			FXD	FR	CORR	ILS	ILS	ILS	ILS	FBD	FBD	FBD	FBD	
BSCHG	I	2016/02/18	2016/02/18	199812	4445322	XS1139543026	2015/02/19	MTN	MTN	USD	USD			FXD	FXDFR	CORR	USD	USD	USD	USD					
BSCHG	I	2016/02/18	2016/02/18	199813	3956192	XS0869772656	2013/02/01	MTN	MTN	BRL	BRL			FXD	FXD	CORR	JPY	BRL	JPY	BRL					
BSCHG	I	2016/02/18	2016/02/18	199814	4488193	XS1218979976	2015/05/13	MTN	MTN	USD	USD			FXD	FXDFR	CORR	USD	USD	USD	USD					
BSCHG	I	2016/02/18	2016/02/18	199815	4484193	IL0011326878	2014/06/23	BD	BD	ILS	ILS			FXD	FR	CORR	ILS	ILS	ILS	ILS					
BSCHG	I	2016/02/18	2016/02/18	199816	4557600	XS1237128548	2015/07/19	MTN	MTN	AUD	AUD			FXD	FXDFR	CORR	AUD	AUD	AUD	AUD					
BSCHG	I	2016/02/18	2016/02/18	199817	4451265	US22546V4K96	2016/02/18	MTN	MTN	USD	USD			FXD	FR	CORR	USD	USD	USD	USD					
BSCHG	I	2016/02/18	2016/02/18	199818	4706685	XS1369250755	2016/02/17	MTN	BD	EUR	EUR			FXD	FXD	CORR	EUR	EUR	EUR	EUR					
BSCHG	I	2016/02/18	2016/02/18	199819	4707351	INE931S07033	2016/02/17	DB	DB	INR	INR			FXD	FR	CLEAN	INR	INR	INR	INR					
BSCHG	I	2016/02/18	2016/02/18	199820	4706800	XS1369254310	2016/02/16	MTN	BD	EUR	EUR			FXD	FXD	CORR	EUR	EUR	EUR	EUR					
BSCHG	I	2016/02/18	2016/02/18	199821	4706633	XS1289370568	2016/02/18	MTN	BD	USD	USD			FXD	FXD	CLEAN	USD	USD	USD	USD					
BSCHG	I	2016/02/18	2016/02/18	199822	4705196	US3134G8M715	2016/02/15	BD	MTN	USD	USD			FXD	FXD	CORR	USD	USD	USD	USD	FBD	FBD	FBD	FBD	
BSCHG	I	2016/02/18	2016/02/18	199823	4706558	US3134G8M970	2016/02/18	BD	MTN	USD	USD			FXD	FXD	CORR	USD	USD	USD	USD					
BSCHG	I	2016/02/18	2016/02/18	199824	4706681	XS1369280315	2016/02/16	MTN	BD	EUR	EUR			FXD	FXD	CORR	EUR	EUR	EUR	EUR					
BSCHG	I	2016/02/18	2016/02/18	199825	4706681	XS1369280315	2016/02/17	BD	BD	EUR	EUR			FXD	FXD	CORR	EUR		EUR	EUR					
BSCHG	I	2016/02/18	2016/02/18	199826	4706681	XS1369280315	2016/02/18	BD	BD	EUR	EUR			FXD	ZC	CORR			EUR	EUR					
BSCHG	I	2016/02/18	2016/02/18	199827	4704377	US22546VX434	2016/02/13	MTN	BD	USD	USD			FXD	FXD	CORR	USD	USD	USD	USD					
BSCHG	I	2016/02/18	2016/02/18	199828	4706552	US3133EFE293	2016/02/18	NT	BD	USD	USD			FR	FR	CORR	USD	USD	USD	USD					
BSCHG	I	2016/02/18	2016/02/18	199829	4706684	XS1369288052	2016/02/16	MTN	BD	USD	USD			FR	FR	CORR	USD	USD	USD	USD					
BSCHG	I	2016/02/18	2016/02/18	199830	4696749	US22546VW444	2016/02/15	MTN	NT	USD	USD			FXD	FXD	CORR	USD		USD	USD					
BSCHG	I	2016/02/18	2016/02/18	199831	4696749	US22546VW444	2016/02/16	NT	NT	USD	USD			FXD	ZC	CORR			USD	USD					
BSCHG	I	2016/02/18	2016/02/18	199832	922283	SG7R06940349	2008/05/29	PRF	PRF	USD	SGD	P	P	FXDFR	FXDFR	CORR	USD	SGD	USD	SGD					
BSCHG	I	2016/02/18	2016/02/18	199833	4704390	US22546VWW26	2016/02/17	MTN	NT	USD	USD			FR	FR	CORR	USD	USD	USD	USD					
BSCHG	I	2016/02/18	2016/02/18	199834	470941	XS0244532866	2006/02/24	NT	NT	JPY	JPY			FXD	SU	CORR									
BSCHG	I	2016/02/18	2016/02/18	199835	4707260	XS1369614034	2016/02/16	BD	BD	EUR	EUR			FR	FXD	CORR	EUR	EUR	EUR	EUR					
BSCHG	I	2016/02/18	2016/02/18	199836	4703112	XS1289430131	2016/02/17	MTN	NT	USD	USD			ZC	ZC	CORR			USD	USD			FBD	FBD	
BSCHG	I	2016/02/18	2016/02/18	199837	4704367	US3133EFD618	2016/02/17	NT	BD	USD	USD			FR	FR	CORR	USD	USD	USD	USD	FBD	FBD	FBD	FBD	
BSCHG	I	2016/02/18	2016/02/18	199838	4698429	XS1290007670	2016/02/13	MTN	MTN	EUR	EUR			FR	FXD	CORR	EUR	EUR	EUR	EUR					
BSCHG	I	2016/02/18	2016/02/18	199839	4706001	XS1368576572	2016/02/17	MTN	BD	EUR	EUR			FXD	FXD	CORR	EUR	EUR	EUR	EUR					
BSCHG	I	2016/02/18	2016/02/18	199840	4698430	XS1290007753	2016/02/13	MTN	MTN	AUD	AUD			FR	FXD	CORR	AUD	AUD	AUD	AUD					
BSCHG	I	2016/02/18	2016/02/18	199841	4702653	US3133EFZV21	2016/02/18	NT	BD	USD	USD			FXD	FXD	CORR	USD	USD	USD	USD	FBD	FBD	FBD	FBD	
BSCHG	I	2016/02/18	2016/02/18	199842	4696706	XS1290028676	2016/02/17	MTN	MTN	USD	USD			FR	FXD	CORR	USD	USD	USD	USD					
BSCHG	I	2016/02/18	2016/02/18	199843	4699287	XS1290038808	2016/02/10	MTN	MTN	USD	USD			FR	FXD	CORR	USD	USD	USD	USD					
BSCHG	I	2016/02/18	2016/02/18	199844	4706040	XS1368543135	2016/02/18	BD	BD	EUR	EUR			FR	FXD	CORR	EUR	EUR	EUR	EUR					
BSCHG	I	2016/02/18	2016/02/18	199845	4698443	XS1290040457	2016/02/13	MTN	MTN	USD	USD			FR	FXDFR	CORR	USD	USD	USD	USD					
BSCHG	I	2016/02/18	2016/02/18	199846	4692368	XS1290046900	2016/01/30	MTN	MTN	USD	USD			FR	FXD	CORR	USD	USD	USD	USD					
BSCHG	I	2016/02/18	2016/02/18	199847	4543274	IL0018201900	2015/06/25	BD	BD	ILS	ILS			FXD	FR	CORR	ILS	ILS	ILS	ILS					
BSCHG	I	2016/02/18	2016/02/18	199848	4702072	XS1308292017	2016/02/18	MTN	MTN	EUR	EUR			FR	FXD	CORR	EUR	EUR	EUR	EUR					
BSCHG	I	2016/02/18	2016/02/18	199849	4706589	US89236TCU79	2016/02/18	MTN	NT	USD	USD			FXD	FXD	CORR	USD	USD	USD	USD	FBD	FBD	FBD	FBD	
BSCHG	I	2016/02/18	2016/02/18	199850	4702708	US48128AAG85	2016/02/17	MTN	NT	USD	USD			FR	FR	CORR	USD	USD	USD	USD					
BSCHG	I	2016/02/18	2016/02/18	199851	4702708	US48128AAG85	2016/02/18	NT	NT	USD	USD			FR	FXD	CORR	USD	USD	USD	USD					
BSCHG	I	2016/02/18	2016/02/18	199852	4702692	US48128AAF03	2016/02/17	NT	NT	USD	USD			FR	FXD	CORR	USD	USD	USD	USD					
BSCHG	I	2016/02/18	2016/02/18	199853	4699760	CA06367XTV33	2016/02/18	BD	NT	USD	USD			FR	FR	CORR	USD	USD	USD	USD	FBD	FBD	FBD	FBD	
EDI_ENDOFFILE
