EDI_REDMT_20160218_1
TableName	Actflag	Created	Changed	RedmtID	SecID	ISIN	RedemDate	RedemCurrency	RedemPrice	MandOptFlag	PartFinal	RedemType	RedemAmount	RedemPremium	RedemInPercent	PriceAsPercent	PremiumAsPercent	Notes
REDMT	I	2016/02/18	2016/02/18	300506	4699944	CA06367XTH49	2016/05/17	USD	1.00000	M	P	AMT				1.000000000		
REDMT	I	2016/02/18	2016/02/18	300507	4699944	CA06367XTH49	2016/08/17	USD	1.00000	M	P	AMT				1.000000000		
REDMT	I	2016/02/18	2016/02/18	300508	4699944	CA06367XTH49	2016/11/17	USD	1.00000	M	P	AMT				1.000000000		
REDMT	I	2016/02/18	2016/02/18	300509	4699944	CA06367XTH49	2017/02/17	USD	1.00000	M	P	AMT				1.000000000		
REDMT	I	2016/02/18	2016/02/18	300510	4699944	CA06367XTH49	2017/05/17	USD	1.00000	M	P	AMT				1.000000000		
REDMT	I	2016/02/18	2016/02/18	300511	4699944	CA06367XTH49	2017/08/17	USD	1.00000	M	P	AMT				1.000000000		
REDMT	I	2016/02/18	2016/02/18	300512	4699944	CA06367XTH49	2017/11/17	USD	1.00000	M	P	AMT				1.000000000		
REDMT	I	2016/02/18	2016/02/18	300513	4699944	CA06367XTH49	2018/02/20	USD	1.00000	M	P	AMT				1.000000000		
REDMT	I	2016/02/18	2016/02/18	300514	4699944	CA06367XTH49	2018/05/17	USD	1.00000	M	P	AMT				1.000000000		
REDMT	I	2016/02/18	2016/02/18	300515	4699944	CA06367XTH49	2018/08/17	USD	1.00000	M	P	AMT				1.000000000		
REDMT	I	2016/02/18	2016/02/18	300516	4699944	CA06367XTH49	2018/11/19	USD	1.00000	M	P	AMT				1.000000000		
REDMT	I	2016/02/18	2016/02/18	300517	4699944	CA06367XTH49	2019/02/19	USD	1.00000	M	P	AMT				1.000000000		
REDMT	I	2016/02/18	2016/02/18	300518	4699944	CA06367XTH49	2019/05/17	USD	1.00000	M	P	AMT				1.000000000		
REDMT	I	2016/02/18	2016/02/18	300519	4699944	CA06367XTH49	2019/08/19	USD	1.00000	M	P	AMT				1.000000000		
REDMT	I	2016/02/18	2016/02/18	300520	4699944	CA06367XTH49	2019/11/18	USD	1.00000	M	P	AMT				1.000000000		
REDMT	I	2016/02/18	2016/02/18	300521	4699944	CA06367XTH49	2020/02/18	USD	1.00000	M	P	AMT				1.000000000		
REDMT	I	2016/02/18	2016/02/18	300522	4699944	CA06367XTH49	2020/05/19	USD	1.00000	M	P	AMT				1.000000000		
REDMT	I	2016/02/18	2016/02/18	300523	4699944	CA06367XTH49	2020/08/17	USD	1.00000	M	P	AMT				1.000000000		
REDMT	I	2016/02/18	2016/02/18	300524	4699944	CA06367XTH49	2020/11/17	USD	1.00000	M	P	AMT				1.000000000		
REDMT	I	2016/02/18	2016/02/18	300525	754414	IL0079801622	2012/12/10	ILS	0.14285	M	P	AMT				14.285714285		
REDMT	I	2016/02/18	2016/02/18	300526	754414	IL0079801622	2013/12/10	ILS	0.14285	M	P	AMT				14.285714285		
REDMT	I	2016/02/18	2016/02/18	300527	754414	IL0079801622	2014/12/10	ILS	0.14285	M	P	AMT				14.285714285		
REDMT	I	2016/02/18	2016/02/18	300528	754414	IL0079801622	2015/12/10	ILS	0.14285	M	P	AMT				14.285714285		
REDMT	I	2016/02/18	2016/02/18	300529	754414	IL0079801622	2016/12/10	ILS	0.14285	M	P	AMT				14.285714285		
REDMT	I	2016/02/18	2016/02/18	300530	754414	IL0079801622	2017/12/10	ILS	0.14285	M	P	AMT				14.285714285		
REDMT	I	2016/02/18	2016/02/18	300531	754414	IL0079801622	2018/12/10	ILS	0.14290	M	F	AMT				14.290000000		
REDMT	I	2016/02/18	2016/02/18	300532	754406	IL0079801549	2020/12/18	ILS	0.16666	M	P	AMT				16.666666666		
REDMT	I	2016/02/18	2016/02/18	300533	754406	IL0079801549	2021/12/18	ILS	0.16666	M	P	AMT				16.666666666		
REDMT	I	2016/02/18	2016/02/18	300534	754406	IL0079801549	2022/12/18	ILS	0.16666	M	P	AMT				16.666666666		
REDMT	I	2016/02/18	2016/02/18	300535	754406	IL0079801549	2023/12/18	ILS	0.16666	M	P	AMT				16.666666666		
REDMT	I	2016/02/18	2016/02/18	300536	754406	IL0079801549	2024/12/18	ILS	0.16666	M	P	AMT				16.666666666		
REDMT	I	2016/02/18	2016/02/18	300537	754406	IL0079801549	2025/12/18	ILS	0.16670	M	F	AMT				16.670000000		
REDMT	I	2016/02/18	2016/02/18	300538	3975777	IL0011276537	2015/02/01	ILS	0.20000	M	P	AMT				20.000000000		
REDMT	I	2016/02/18	2016/02/18	300539	3975777	IL0011276537	2016/02/01	ILS	0.20000	M	P	AMT				20.000000000		
REDMT	I	2016/02/18	2016/02/18	300540	3975777	IL0011276537	2017/02/01	ILS	0.20000	M	P	AMT				20.000000000		
REDMT	I	2016/02/18	2016/02/18	300541	3975777	IL0011276537	2018/02/01	ILS	0.20000	M	P	AMT				20.000000000		
REDMT	I	2016/02/18	2016/02/18	300542	3975777	IL0011276537	2019/02/01	ILS	0.20000	M	F	AMT				20.000000000		
REDMT	I	2016/02/18	2016/02/18	300543	4540419	MU0484D00018	2015/08/31	USD		M	P	AMT	1.66666					
REDMT	I	2016/02/18	2016/02/18	300544	4540419	MU0484D00018	2015/12/02	USD		M	P	AMT	1.66666					
REDMT	I	2016/02/18	2016/02/18	300545	4540419	MU0484D00018	2016/03/02	USD		M	P	AMT	1.66666					
REDMT	I	2016/02/18	2016/02/18	300546	4540419	MU0484D00018	2016/06/01	USD		M	P	AMT	1.66666					
REDMT	I	2016/02/18	2016/02/18	300547	4540419	MU0484D00018	2016/08/31	USD		M	P	AMT	1.66666					
REDMT	I	2016/02/18	2016/02/18	300548	4540419	MU0484D00018	2016/12/01	USD		M	P	AMT	1.66666					
REDMT	I	2016/02/18	2016/02/18	300549	4540419	MU0484D00018	2017/03/02	USD		M	P	AMT	1.66666					
REDMT	I	2016/02/18	2016/02/18	300550	4540419	MU0484D00018	2017/06/01	USD		M	P	AMT	1.66666					
REDMT	I	2016/02/18	2016/02/18	300551	4540419	MU0484D00018	2017/09/01	USD		M	F	AMT	1.66666					
REDMT	I	2016/02/18	2016/02/18	300552	1296654	IL0032300837	2012/08/31	ILS	166.66666	M	P	AMT				16.666666666		
REDMT	I	2016/02/18	2016/02/18	300553	1296654	IL0032300837	2013/08/31	ILS	166.66666	M	P	AMT				16.666666666		
REDMT	I	2016/02/18	2016/02/18	300554	1296654	IL0032300837	2014/08/31	ILS	166.66666	M	P	AMT				16.666666666		
REDMT	I	2016/02/18	2016/02/18	300555	1296654	IL0032300837	2015/08/31	ILS	166.66666	M	P	AMT				16.666666666		
REDMT	I	2016/02/18	2016/02/18	300556	1296654	IL0032300837	2016/08/31	ILS	166.66666	M	P	AMT				16.666666666		
REDMT	I	2016/02/18	2016/02/18	300557	1296654	IL0032300837	2017/08/31	ILS	166.66670	M	F	AMT				16.666670000		
REDMT	I	2016/02/18	2016/02/18	300570	4540421	MU0484D00026	2015/10/08	USD		M	P	AMT	0.44117					
REDMT	I	2016/02/18	2016/02/18	300571	4540421	MU0484D00026	2016/01/07	USD		M	P	AMT	0.44117					
REDMT	I	2016/02/18	2016/02/18	300572	4540421	MU0484D00026	2016/04/07	USD		M	P	AMT	0.44117					
REDMT	I	2016/02/18	2016/02/18	300573	4540421	MU0484D00026	2016/07/11	USD		M	P	AMT	0.44117					
REDMT	I	2016/02/18	2016/02/18	300574	4540421	MU0484D00026	2016/10/06	USD		M	P	AMT	0.44117					
REDMT	I	2016/02/18	2016/02/18	300575	4540421	MU0484D00026	2017/01/06	USD		M	P	AMT	0.44117					
REDMT	I	2016/02/18	2016/02/18	300576	4540421	MU0484D00026	2017/04/06	USD		M	P	AMT	0.44117					
REDMT	I	2016/02/18	2016/02/18	300577	4540421	MU0484D00026	2017/07/07	USD		M	P	AMT	0.44117					
REDMT	I	2016/02/18	2016/02/18	300578	4540421	MU0484D00026	2017/10/06	USD		M	P	AMT	0.44117					
REDMT	I	2016/02/18	2016/02/18	300579	4540421	MU0484D00026	2018/01/08	USD		M	P	AMT	0.44117					
REDMT	I	2016/02/18	2016/02/18	300580	4540421	MU0484D00026	2018/04/06	USD		M	P	AMT	0.44117					
REDMT	I	2016/02/18	2016/02/18	300581	4540421	MU0484D00026	2018/07/09	USD		M	P	AMT	0.44117					
REDMT	I	2016/02/18	2016/02/18	300582	4540421	MU0484D00026	2018/10/09	USD		M	P	AMT	0.44117					
REDMT	I	2016/02/18	2016/02/18	300583	4540421	MU0484D00026	2019/01/08	USD		M	P	AMT	0.44117					
REDMT	I	2016/02/18	2016/02/18	300584	4540421	MU0484D00026	2019/04/08	USD		M	P	AMT	0.44117					
REDMT	I	2016/02/18	2016/02/18	300585	4540421	MU0484D00026	2019/07/09	USD		M	P	AMT	0.44117					
REDMT	I	2016/02/18	2016/02/18	300586	4540421	MU0484D00026	2019/10/08	USD		M	F	AMT	0.44117					
REDMT	I	2016/02/18	2016/02/18	300600	3909453	IL0032301413	2012/10/27	ILS		M	P	AMT						
REDMT	I	2016/02/18	2016/02/18	300601	3909453	IL0032301413	2013/04/27	ILS		M	P	AMT						
REDMT	I	2016/02/18	2016/02/18	300602	3909453	IL0032301413	2013/10/27	ILS		M	P	AMT						
REDMT	I	2016/02/18	2016/02/18	300603	3909453	IL0032301413	2014/10/27	ILS		M	P	AMT						
REDMT	I	2016/02/18	2016/02/18	300604	3909453	IL0032301413	2015/10/27	ILS		M	P	AMT						
REDMT	I	2016/02/18	2016/02/18	300605	3909453	IL0032301413	2016/10/27	ILS		M	P	AMT						
REDMT	I	2016/02/18	2016/02/18	300606	3909453	IL0032301413	2017/10/27	ILS		M	P	AMT						
REDMT	I	2016/02/18	2016/02/18	300607	3909453	IL0032301413	2018/10/27	ILS		M	P	AMT						
REDMT	I	2016/02/18	2016/02/18	300608	3909453	IL0032301413	2019/10/27	ILS		M	P	AMT						
REDMT	I	2016/02/18	2016/02/18	300609	3909453	IL0032301413	2014/04/27	ILS		M	P	AMT						
REDMT	I	2016/02/18	2016/02/18	300610	3909453	IL0032301413	2015/04/27	ILS		M	P	AMT						
REDMT	I	2016/02/18	2016/02/18	300611	3909453	IL0032301413	2016/04/27	ILS		M	P	AMT						
REDMT	I	2016/02/18	2016/02/18	300612	3909453	IL0032301413	2017/04/27	ILS		M	P	AMT						
REDMT	I	2016/02/18	2016/02/18	300613	3909453	IL0032301413	2018/04/27	ILS		M	P	AMT						
REDMT	I	2016/02/18	2016/02/18	300614	3909453	IL0032301413	2019/04/27	ILS		M	P	AMT						
REDMT	I	2016/02/18	2016/02/18	300615	3909453	IL0032301413	2020/04/27	ILS		M	P	AMT						
REDMT	I	2016/02/18	2016/02/18	300616	4707415	IL0020801663	2017/02/28	ILS	0.33330	M	P	AMT				33.330000000		
REDMT	I	2016/02/18	2016/02/18	300617	4707434		2017/05/18	ARS		M	P	AMT				33.330000000		
REDMT	I	2016/02/18	2016/02/18	300618	4707434		2017/08/18	ARS		M	P	AMT				33.330000000		
REDMT	I	2016/02/18	2016/02/18	300619	4707434		2017/11/18	ARS		M	F	AMT				33.340000000		
REDMT	I	2016/02/18	2016/02/18	300620	4707415	IL0020801663	2018/02/28	ILS	0.33330	M	P	AMT				33.330000000		
REDMT	I	2016/02/18	2016/02/18	300621	4707415	IL0020801663	2019/02/28	ILS	0.33340	M	F	AMT				33.340000000		
REDMT	I	2016/02/18	2016/02/18	300622	1816334	IL0057601523	2012/03/12	ILS	200.00000	M	P	AMT				20.000000000		
REDMT	I	2016/02/18	2016/02/18	300623	1816334	IL0057601523	2013/03/12	ILS	200.00000	M	P	AMT				20.000000000		
REDMT	I	2016/02/18	2016/02/18	300624	1816334	IL0057601523	2014/03/12	ILS	200.00000	M	P	AMT				20.000000000		
REDMT	I	2016/02/18	2016/02/18	300625	1816334	IL0057601523	2015/03/12	ILS	200.00000	M	P	AMT				20.000000000		
REDMT	I	2016/02/18	2016/02/18	300626	1816334	IL0057601523	2016/03/12	ILS	200.00000	M	F	AMT				20.000000000		
REDMT	I	2016/02/18	2016/02/18	300627	3714306	IL0062701367	2014/12/31	ILS	125.00000	M	P	AMT				12.500000000		
REDMT	I	2016/02/18	2016/02/18	300628	3714306	IL0062701367	2015/12/31	ILS	125.00000	M	P	AMT				12.500000000		
REDMT	I	2016/02/18	2016/02/18	300629	3714306	IL0062701367	2016/12/31	ILS	125.00000	M	P	AMT				12.500000000		
REDMT	I	2016/02/18	2016/02/18	300630	3714306	IL0062701367	2017/12/31	ILS	125.00000	M	P	AMT				12.500000000		
REDMT	I	2016/02/18	2016/02/18	300631	3714306	IL0062701367	2018/12/31	ILS	125.00000	M	P	AMT				12.500000000		
REDMT	I	2016/02/18	2016/02/18	300632	3714306	IL0062701367	2019/12/31	ILS	125.00000	M	P	AMT				12.500000000		
REDMT	I	2016/02/18	2016/02/18	300633	3714306	IL0062701367	2020/12/31	ILS	125.00000	M	P	AMT				12.500000000		
REDMT	I	2016/02/18	2016/02/18	300634	3714306	IL0062701367	2021/12/31	ILS	125.00000	M	F	AMT				12.500000000		
EDI_ENDOFFILE
