EDI_BOCHG_20160218_1
TableName	Actflag	Created	Changed	BochgID	RelEventID	SecID	ISIN	EffectiveDate	OldOutValue	NewOutValue	EventType	OldOutDate	NewOutDate	Notes
BOCHG	D	2013/12/05	2016/02/18	838963		4070670	XS0948356828	2013/12/04	9.93000	9.94100	CORR	2013/12/03	2013/12/04	
BOCHG	D	2014/11/28	2016/02/18	1036426		1665517	XS0469788896	2014/11/24	133.46683	131.27978	CORR	2014/11/10	2014/11/24	NOK - 131.279786
BOCHG	D	2015/06/18	2016/02/18	1170109		2731679	XS0632246426	2015/06/10	804.05500	798.05500	CORR	2015/06/09	2015/06/10	
BOCHG	D	2015/07/13	2016/02/18	1187700		4429561	XS1113838475	2015/07/01	5.00000	3.50000	CORR	2015/01/30	2015/07/01	
BOCHG	D	2015/08/04	2016/02/18	1202712		2731679	XS0632246426	2015/07/29	798.05500	797.05500	CORR	2015/06/10	2015/07/29	
BOCHG	D	2015/08/10	2016/02/18	1206567		4314780	XS1028947312	2015/08/06	5.63849	5.07804	CORR	2015/05/15	2015/08/06	
BOCHG	D	2015/08/19	2016/02/18	1212016		4576339	XS1272831501	2015/08/12	100.00000	150.00000	CORR	2015/08/11	2015/08/11	
BOCHG	D	2015/09/26	2016/02/18	1236455		3749831	XS0776179656	2015/09/22	1411.43800	1405.86600	CORR	2015/04/07	2015/09/22	
BOCHG	D	2015/10/06	2016/02/18	1242719		3749831	XS0776179656	2015/10/02	1405.86600	1398.99600	CORR	2015/09/22	2015/10/02	
BOCHG	I	2016/02/18	2016/02/18	1323311		3962604	XS0871979646	2016/02/17	232580.00000	232180.00000	CORR	2016/02/12	2016/02/17	
BOCHG	D	2015/10/07	2016/02/18	1243557		3749831	XS0776179656	2015/10/06	1398.99600	1392.25600	CORR	2015/10/02	2015/10/06	
BOCHG	I	2016/02/18	2016/02/18	1323312		4379492	XS1132460145	2016/02/17	62.00000	39.82000	CORR	2014/11/20	2016/02/17	
BOCHG	D	2015/10/16	2016/02/18	1250315		4429561	XS1113838475	2015/09/14	3.50000	1.39000	CORR	2015/07/01	2015/09/14	
BOCHG	D	2015/10/22	2016/02/18	1253339		3749831	XS0776179656	2015/10/21	1392.25600	1387.90400	CORR	2015/10/06	2015/10/21	
BOCHG	D	2015/10/31	2016/02/18	1259047		2731679	XS0632246426	2015/10/26	797.05500	793.26500	CORR	2015/07/29	2015/10/26	
BOCHG	D	2015/11/10	2016/02/18	1263515		4327816	XS1061872823	2015/11/02	15.00000	8.22015	CORR	2014/08/28	2015/11/02	
BOCHG	D	2015/11/16	2016/02/18	1266762		3749831	XS0776179656	2015/11/04	1387.90400	1382.60400	CORR	2015/10/21	2015/11/04	
BOCHG	D	2015/11/19	2016/02/18	1268438		4435924	XS1163232900	2015/11/09	500.00000	468.80500	CORR	2015/02/04	2015/11/09	
BOCHG	D	2015/11/25	2016/02/18	1272233		4079899	XS0954843875	2015/11/18	1.75000	1.73000	CORR	2015/09/17	2015/11/18	
BOCHG	D	2015/11/28	2016/02/18	1273790		4016183	XS0917707258	2015/11/20	966.25000	954.15000	CORR	2015/11/03	2015/11/20	
BOCHG	D	2015/11/28	2016/02/18	1273808		4435924	XS1163232900	2015/11/20	468.80500	468.60500	CORR	2015/11/09	2015/11/20	
BOCHG	D	2015/12/04	2016/02/18	1278296		4445325	XS1139548090	2015/11/25	12.28400	12.05400	CORR	2015/03/05	2015/11/25	
BOCHG	D	2015/12/08	2016/02/18	1280080		1849328	XS0498952679	2015/12/01	1237.37500	1237.17500	CORR	2015/11/09	2015/12/01	
BOCHG	D	2015/12/09	2016/02/18	1280869		4128218	XS0985209617	2015/12/02	7.62300	7.02300	CORR	2015/11/20	2015/12/02	
BOCHG	D	2015/12/23	2016/02/18	1290875		2731679	XS0632246426	2015/12/17	792.26500	790.16500	CORR	2015/12/09	2015/12/17	
BOCHG	D	2015/12/10	2016/02/18	1282029		4185980	XS1023613265	2015/12/01	4465.65000	4462.80000	CORR	2015/02/04	2015/12/01	
BOCHG	D	2016/02/16	2016/02/18	1322251		4661854	XS1312177659	2016/02/15	5.10000	3.10000	CORR	2015/12/16	2015/12/16	
BOCHG	D	2015/12/12	2016/02/18	1282754		4659916	XS1329477910	2015/12/08	50.00000	75.00000	CORR	2015/12/02	2015/12/08	
BOCHG	D	2015/12/12	2016/02/18	1282856		2731679	XS0632246426	2015/12/09	793.26500	792.26500	CORR	2015/10/26	2015/12/09	
BOCHG	D	2015/12/17	2016/02/18	1286446		4540182	XS1242957006	2015/11/16	1000.00000	353.70000	CORR	2015/06/26	2015/11/16	
BOCHG	D	2015/12/18	2016/02/18	1287164		2795105	XS0514502995	2015/12/15	8.00000	5.35000	CORR	2011/07/27	2015/12/15	
BOCHG	D	2015/12/19	2016/02/18	1288061		4001218	XS0905659669	2015/12/15	69.08700	63.34700	CORR	2015/05/18	2015/12/15	
BOCHG	D	2015/12/19	2016/02/18	1288428		4000964	XS0906852529	2015/11/18	1250.00000	347.36100	CORR	2013/03/19	2015/11/18	
BOCHG	D	2015/12/24	2016/02/18	1292222		4596155	XS1286029506	2015/12/17	1200.00000	1119.30000	CORR	2015/09/16	2015/12/17	
BOCHG	D	2015/12/28	2016/02/18	1293090		3941990	XS0861981180	2015/12/21	2000.00000	1886.69000	CORR	2012/12/06	2015/12/21	
BOCHG	D	2015/12/28	2016/02/18	1293190		1665517	XS0469788896	2015/12/21	131.27978	120.68576	CORR	2014/11/24	2015/12/21	1206857644 <BR>
BOCHG	D	2015/12/30	2016/02/18	1294795		4540182	XS1242957006	2015/12/23	353.70000	353.40000	CORR	2015/11/16	2015/12/23	
BOCHG	D	2016/01/04	2016/02/18	1296323		2731679	XS0632246426	2015/12/28	790.16500	787.66500	CORR	2015/12/17	2015/12/28	
BOCHG	D	2016/01/05	2016/02/18	1297665		2680278	XS0627063091	2015/12/29	643.65600	643.46000	CORR	2015/12/22	2015/12/29	
BOCHG	D	2016/01/07	2016/02/18	1299117		2392558	XS0584493349	2015/12/28	699.47700	694.03300	CORR	2015/02/26	2015/12/28	
BOCHG	D	2016/01/07	2016/02/18	1299128		4540182	XS1242957006	2015/12/29	353.40000	352.40000	CORR	2015/12/23	2015/12/29	
BOCHG	D	2016/01/12	2016/02/18	1302544		3961226	XS0875267394	2016/01/07	542.16300	535.26800	CORR	2015/01/15	2016/01/07	
BOCHG	D	2016/01/14	2016/02/18	1303566		3749831	XS0776179656	2016/01/13	1382.60400	1378.13400	CORR	2015/11/04	2016/01/13	
BOCHG	D	2016/01/22	2016/02/18	1308516		2680278	XS0627063091	2016/01/21	643.46000	642.26000	CORR	2015/12/29	2016/01/21	
BOCHG	D	2016/01/23	2016/02/18	1309031		4468473	XS1205619288	2016/01/22	1418.12400	1411.70000	CORR	2015/08/05	2016/01/22	
BOCHG	D	2016/01/26	2016/02/18	1310659		4540182	XS1242957006	2016/01/25	352.40000	351.40000	CORR	2015/12/29	2016/01/25	
BOCHG	D	2016/01/27	2016/02/18	1311655		4286831	XS1075833860	2016/01/26	281.50000	280.50400	CORR	2015/10/08	2016/01/26	
BOCHG	D	2016/01/27	2016/02/18	1311679		4108529	XS0972038227	2016/01/25	2486.50000	2321.50500	CORR	2013/09/19	2016/01/25	
BOCHG	D	2016/01/28	2016/02/18	1312480		4125654	XS0954674312	2016/01/27	750.00000	446.02500	CORR	2013/10/21	2016/01/27	
BOCHG	D	2016/02/01	2016/02/18	1314484		3875235	XS0809571739	2016/01/28	1000.00000	718.82300	CORR	2012/07/26	2016/01/28	
BOCHG	D	2016/02/01	2016/02/18	1314607		4129219	XS0983942656	2016/01/29	158.25325	156.27484	CORR	2016/01/28	2016/01/29	
BOCHG	D	2016/02/02	2016/02/18	1314987		4596155	XS1286029506	2016/01/29	1119.30000	1118.30000	CORR	2015/12/17	2016/01/29	
BOCHG	D	2016/02/02	2016/02/18	1315009		3749831	XS0776179656	2016/01/29	1378.13400	1380.63400	CORR	2016/01/13	2016/01/29	
BOCHG	D	2016/02/03	2016/02/18	1315540		2680278	XS0627063091	2016/02/01	642.26000	641.94500	CORR	2016/01/21	2016/02/01	
BOCHG	D	2016/02/03	2016/02/18	1315555		3875235	XS0809571739	2016/02/01	718.82300	714.34800	CORR	2016/01/28	2016/02/01	
BOCHG	D	2016/02/03	2016/02/18	1315601		4292812	XS1081124502	2016/02/01	1.50000	1.30000	CORR	2015/12/11	2016/02/01	
BOCHG	D	2016/02/04	2016/02/18	1316246		4676637	XS1332519799	2016/02/02	5.00000	4.71300	CORR	2016/02/01	2016/02/02	
BOCHG	D	2016/02/04	2016/02/18	1316248		4676651	XS1333666441	2016/02/02	5.00000	4.66800	CORR	2016/02/01	2016/02/02	
BOCHG	D	2016/02/04	2016/02/18	1316282		4688242	XS1349995198	2016/02/02	5.00000	2.98000	CORR	2016/02/01	2016/02/02	
BOCHG	D	2016/02/05	2016/02/18	1316811		4596155	XS1286029506	2016/02/03	1118.30000	1118.10000	CORR	2016/01/29	2016/02/03	
BOCHG	D	2016/02/05	2016/02/18	1316826		4696807	XS1292843585	2016/02/03	0.60000	0.50000	CORR	2016/02/02	2016/02/03	
BOCHG	D	2016/02/05	2016/02/18	1316827		4696810	XS1292843668	2016/02/03	0.60000	0.50000	CORR	2016/02/02	2016/02/03	
BOCHG	D	2016/02/05	2016/02/18	1316854		4690064	XS1351386732	2016/02/03	2.00000	1.50000	CORR	2016/02/02	2016/02/03	
BOCHG	D	2016/02/05	2016/02/18	1316855		4690119	XS1351587396	2016/02/03	2.00000	1.60000	CORR	2016/02/02	2016/02/03	
BOCHG	D	2016/02/05	2016/02/18	1316856		4690073	XS1351708109	2016/02/03	5.00000	2.82400	CORR	2016/02/02	2016/02/03	
BOCHG	D	2016/02/05	2016/02/18	1316875		4660380	XS1322383834	2016/01/08	5.00000	80.00000	CORR	2016/01/07	2016/01/07	
BOCHG	D	2016/02/05	2016/02/18	1316886		4242716	XS1056386714	2016/01/28	734.28100	724.66200	CORR	2015/11/04	2016/01/28	
BOCHG	D	2016/02/05	2016/02/18	1316976		3495805	XS0739988086	2016/02/04	1224.18500	1221.68500	CORR	2015/12/28	2016/02/04	
BOCHG	D	2016/02/06	2016/02/18	1317170		4459441	XS1199942688	2016/02/04	1.00000	0.75000	CORR	2015/03/09	2016/02/04	
BOCHG	D	2016/02/06	2016/02/18	1317200		4689970	XS1293153265	2016/02/04	2.00000	1.00000	CORR	2016/02/02	2016/02/04	
BOCHG	D	2016/02/08	2016/02/18	1317717		4456835	XS1167394458	2016/02/05	20.00000	19.30000	CORR	2015/03/12	2016/02/05	
BOCHG	D	2016/02/08	2016/02/18	1317762		4146686	XS0997000251	2016/02/05	1477.13400	1464.13400	CORR	2016/02/04	2016/02/05	
BOCHG	D	2016/02/08	2016/02/18	1317770		4316811	XS1040309715	2016/02/05	12.80000	12.60000	CORR	2016/01/20	2016/02/05	
BOCHG	D	2016/02/08	2016/02/18	1317789		4480886	XS1190267846	2016/02/05	14.95700	13.95700	CORR	2015/12/15	2016/02/05	
BOCHG	D	2016/02/08	2016/02/18	1317792		4560696	XS1263139856	2016/02/05	1190.86700	1189.20900	CORR	2015/11/20	2016/02/05	
BOCHG	D	2016/02/08	2016/02/18	1317802		4551910	XS1255067636	2016/02/05	15.00000	14.00000	CORR	2015/07/13	2016/02/05	
BOCHG	D	2016/02/08	2016/02/18	1317841		4598625	XS1270461236	2016/02/05	18.91300	18.89800	CORR	2015/10/26	2016/02/05	
BOCHG	D	2016/02/08	2016/02/18	1317855		4644667	XS1299700812	2016/02/05	13.50700	13.46200	CORR	2015/11/06	2016/02/05	
BOCHG	D	2016/02/08	2016/02/18	1317874		4109228	XS0972645112	2016/02/03	500.00000	485.05500	CORR	2013/09/26	2016/02/03	
BOCHG	D	2016/02/08	2016/02/18	1317877		2160141	XS0551307100	2016/02/03	634.50000	633.21700	CORR	2015/12/14	2016/02/03	
BOCHG	D	2016/02/08	2016/02/18	1317885		4103520	XS0970456744	2016/02/01	1543.99000	1524.62000	CORR	2015/04/28	2016/02/01	
BOCHG	I	2016/02/18	2016/02/18	1323350		4637259	XS1316574398	2016/02/18	500.00000	500.00000	CORR	2016/02/17	2016/02/26	
BOCHG	D	2016/02/09	2016/02/18	1318353		4358774	XS1115919034	2016/02/08	4.48000	4.38000	CORR	2015/12/04	2016/02/08	
BOCHG	D	2016/02/09	2016/02/18	1318404		4232278	XS1051729314	2016/02/08	3.49500	2.31500	CORR	2015/03/31	2016/02/08	
BOCHG	D	2016/02/09	2016/02/18	1318408		4342378	XS1108360238	2016/02/08	7.89000	7.69000	CORR	2014/10/07	2016/02/08	
BOCHG	D	2016/02/09	2016/02/18	1318427		4472750	XS1167490090	2016/02/08	1.20000	1.10000	CORR	2015/04/01	2016/02/08	
BOCHG	D	2016/02/09	2016/02/18	1318433		4499999	XS1209448866	2016/02/08	2.87500	2.72500	CORR	2015/12/24	2016/02/08	
BOCHG	I	2016/02/18	2016/02/18	1323331		4706684	XS1369288052	2016/02/16	500.00000	750.00000	CORR	2016/02/23	2016/02/23	
BOCHG	D	2016/02/09	2016/02/18	1318442		4637284	XS1280096808	2016/02/08	3.15300	3.07800	CORR	2015/10/30	2016/02/08	
BOCHG	D	2016/02/09	2016/02/18	1318443		4361212	XS1120709826	2016/02/08	819.56200	816.26600	CORR	2016/02/05	2016/02/08	
BOCHG	D	2016/02/09	2016/02/18	1318446		4513976	XS1227275135	2016/02/08	1.50000	1.35000	CORR	2015/05/19	2016/02/08	
BOCHG	D	2016/02/09	2016/02/18	1318454		4513841	XS1234958962	2016/02/08	0.65000	0.50000	CORR	2015/05/26	2016/02/08	
BOCHG	D	2016/02/09	2016/02/18	1318455		4513851	XS1234960273	2016/02/08	0.65000	0.50000	CORR	2015/05/26	2016/02/08	
BOCHG	D	2016/02/10	2016/02/18	1318933		4567155	XS1264620342	2016/02/09	11.00000	9.40000	CORR	2015/07/29	2016/02/09	
BOCHG	D	2016/02/10	2016/02/18	1318936		4208283	XS0958765017	2016/02/09	1.70000	1.55000	CORR	2014/02/24	2016/02/09	
BOCHG	D	2016/02/10	2016/02/18	1318939		4151120	XS0996849336	2016/02/09	5.00000	3.00000	CORR	2015/12/17	2016/02/09	
BOCHG	I	2016/02/18	2016/02/18	1323314		4487172	XS1211615163	2016/02/17	2.20000	2.10000	CORR	2015/04/10	2016/02/17	
BOCHG	D	2016/02/10	2016/02/18	1319016		4543749	XS1190897949	2016/02/09	15.16900	15.16800	CORR	2015/07/10	2016/02/09	
BOCHG	D	2016/02/10	2016/02/18	1319026		4690638	XS1236573223	2016/02/09	0.25000	0.22100	CORR	2016/02/03	2016/02/09	
BOCHG	D	2016/02/10	2016/02/18	1319061		4643722	XS1318011571	2016/02/09	30.13000	30.08000	CORR	2015/11/27	2016/02/09	
BOCHG	D	2016/02/10	2016/02/18	1319088		4695687	XS1292845366	2016/02/09	1.50000	1.46000	CORR	2016/02/08	2016/02/09	
BOCHG	D	2016/02/11	2016/02/18	1319553		4519817	XS1227283824	2016/02/10	0.51000	0.31000	CORR	2015/06/04	2016/02/10	
BOCHG	D	2016/02/11	2016/02/18	1319562		4263320	XS1040366194	2016/02/10	2.50000	2.40000	CORR	2014/05/28	2016/02/10	
BOCHG	D	2016/02/11	2016/02/18	1319601		4477253	XS1203918526	2016/02/10	1.05000	0.90000	CORR	2015/03/25	2016/02/10	
BOCHG	D	2016/02/11	2016/02/18	1319603		4577393	XS1254571935	2016/02/10	25.77400	25.76400	CORR	2015/10/26	2016/02/10	
BOCHG	D	2016/02/11	2016/02/18	1319627		4682159	XS1289153030	2016/02/10	3.00000	2.71000	CORR	2016/02/02	2016/02/10	
BOCHG	D	2016/02/11	2016/02/18	1319629		4694637	XS1289367937	2016/02/10	3.00000	2.00000	CORR	2016/02/08	2016/02/10	
BOCHG	D	2016/02/11	2016/02/18	1319634		4695673	XS1292844807	2016/02/10	0.70000	0.50000	CORR	2016/02/09	2016/02/10	
BOCHG	D	2016/02/12	2016/02/18	1320416		4151218	XS0982712100	2016/02/11	17.54000	10.82500	CORR	2013/12/04	2016/02/11	
BOCHG	D	2016/02/15	2016/02/18	1321395		4540182	XS1242957006	2016/02/12	351.40000	338.00000	CORR	2016/01/25	2016/02/12	
BOCHG	D	2016/02/16	2016/02/18	1322176		4505801	XS1085649892	2016/02/15	3.48000	2.98000	CORR	2014/08/11	2016/02/15	
BOCHG	D	2016/02/16	2016/02/18	1322222		3686919	XS0767473852	2016/02/15	3000.00000	2731.20000	CORR	2012/04/04	2016/02/15	
BOCHG	D	2016/02/17	2016/02/18	1322380	1804362	640099	IT0004012248	2016/02/17	1.15000		REDEM	2007/08/04	2016/02/17	
BOCHG	D	2016/02/17	2016/02/18	1322381	1804363	640111	IT0004012263	2016/02/17	0.00800		REDEM	2007/08/04	2016/02/17	
BOCHG	D	2016/02/17	2016/02/18	1322419	1804404	2455928	IT0004690902	2016/02/17	0.62000		REDEM	2011/02/17	2016/02/17	
BOCHG	D	2016/02/17	2016/02/18	1322732		4505801	XS1085649892	2016/02/16	2.98000	3.48000	CORR	2016/02/15	2016/02/16	
BOCHG	I	2016/02/18	2016/02/18	1322950	1709088	4594973	PEP75732V033	2016/02/18	0.42500		REDEM	2015/09/01	2016/02/18	
BOCHG	I	2016/02/18	2016/02/18	1322951	1772036	1753945	INE525E09062	2016/02/18	2651.00000		REDEM	2009/02/18	2016/02/18	
BOCHG	I	2016/02/18	2016/02/18	1322952	1788977	4125924	TW0004113303	2016/02/18	500.00000		REDEM	2013/10/21	2016/02/18	
BOCHG	I	2016/02/18	2016/02/18	1322953	1804829	4687348	MYBRA1600115	2016/02/18	20.00000		REDEM	2016/01/18	2016/02/18	
BOCHG	I	2016/02/18	2016/02/18	1322954	1804841	638415	RU000A0GN9B5	2016/02/18	322.37700		REDEM	2013/02/25	2016/02/18	
BOCHG	I	2016/02/18	2016/02/18	1322955	1804842	735871	XS0335408844	2016/02/18	164.50000		REDEM	2008/02/18	2016/02/18	
BOCHG	I	2016/02/18	2016/02/18	1322956	1804843	736733	XS0336046965	2016/02/18	15.00000		REDEM	2007/12/20	2016/02/18	
BOCHG	I	2016/02/18	2016/02/18	1322957	1804844	764899	XS0345444508	2016/02/18	15.00000		REDEM	2008/02/18	2016/02/18	
BOCHG	I	2016/02/18	2016/02/18	1322958	1804845	1371463	UA4000051684	2016/02/18	20.00000		REDEM	2009/03/05	2016/02/18	
BOCHG	I	2016/02/18	2016/02/18	1322959	1804846	1591189	XS0335423645	2016/02/18	110.00000		REDEM	2008/02/18	2016/02/18	
BOCHG	I	2016/02/18	2016/02/18	1322960	1804847	1796778	XS0488420034	2016/02/18	11.00000		REDEM	2010/02/18	2016/02/18	
BOCHG	I	2016/02/18	2016/02/18	1322961	1804848	1807493	XS0493690423	2016/02/18	1.00000		REDEM	2010/03/05	2016/02/18	
BOCHG	I	2016/02/18	2016/02/18	1322962	1804849	1843413	INE752E07918	2016/02/18	75.00000		REDEM	2010/06/02	2016/02/18	
BOCHG	I	2016/02/18	2016/02/18	1322963	1804850	1847571	INE353G07035	2016/02/18	225.00000		REDEM	2010/02/18	2016/02/18	
BOCHG	I	2016/02/18	2016/02/18	1322964	1804853	2277099	XS0569982761	2016/02/18	6.00000		REDEM	2011/02/18	2016/02/18	
BOCHG	I	2016/02/18	2016/02/18	1322965	1804855	2289510	IT0004651755	2016/02/18	9.79100		REDEM	2011/07/18	2016/02/18	
BOCHG	I	2016/02/18	2016/02/18	1322966	1804856	2339644	XS0577409732	2016/02/18	1.16800		REDEM	2015/12/28	2016/02/18	
BOCHG	I	2016/02/18	2016/02/18	1322967	1804857	2339655	XS0577409815	2016/02/18	1.50000		REDEM	2011/02/18	2016/02/18	
BOCHG	I	2016/02/18	2016/02/18	1322968	1804858	2339713	XS0577411985	2016/02/18	1.50000		REDEM	2011/02/18	2016/02/18	
BOCHG	I	2016/02/18	2016/02/18	1322969	1804859	2361448	DE000WLB6RX9	2016/02/18	100.00000		REDEM	2010/08/18	2016/02/18	
BOCHG	I	2016/02/18	2016/02/18	1322970	1804860	2378242	XS0581078838	2016/02/18	0.16500		REDEM	2015/12/22	2016/02/18	
BOCHG	I	2016/02/18	2016/02/18	1322971	1804861	2401829	XS0587739722	2016/02/18	2.23600		REDEM	2011/02/18	2016/02/18	
BOCHG	I	2016/02/18	2016/02/18	1322972	1804862	2403247	XS0587979104	2016/02/18	5.00000		REDEM	2011/02/18	2016/02/18	
BOCHG	I	2016/02/18	2016/02/18	1322973	1804863	2406453	XS0588325539	2016/02/18	250.00000		REDEM	2011/02/18	2016/02/18	
BOCHG	I	2016/02/18	2016/02/18	1322974	1804864	2406599	XS0588746122	2016/02/18	0.30000		REDEM	2014/10/21	2016/02/18	
BOCHG	I	2016/02/18	2016/02/18	1322975	1804865	2415357	PTBB0JOM0005	2016/02/18	0.78700		REDEM	2011/02/18	2016/02/18	
BOCHG	I	2016/02/18	2016/02/18	1322976	1804866	2415362	PTBB0MOM0000	2016/02/18	4.00700		REDEM	2011/02/18	2016/02/18	
BOCHG	I	2016/02/18	2016/02/18	1322977	1804867	2423656	XS0589948040	2016/02/18	0.85100		REDEM	2014/03/14	2016/02/18	
BOCHG	I	2016/02/18	2016/02/18	1322978	1804868	2427606	XS0591526701	2016/02/18	1.50000		REDEM	2011/02/18	2016/02/18	
BOCHG	I	2016/02/18	2016/02/18	1322979	1804869	2427626	XS0591547707	2016/02/18	30.00000		REDEM	2011/02/18	2016/02/18	
BOCHG	I	2016/02/18	2016/02/18	1322980	1804870	2431337	XS0592050214	2016/02/18	4.73000		REDEM	2013/08/15	2016/02/18	
BOCHG	I	2016/02/18	2016/02/18	1322981	1804871	2432503	XS0592053150	2016/02/18	2.66000		REDEM	2013/08/15	2016/02/18	
BOCHG	I	2016/02/18	2016/02/18	1322982	1804872	2432530	XS0592053408	2016/02/18	5.42000		REDEM	2013/08/15	2016/02/18	
BOCHG	I	2016/02/18	2016/02/18	1322983	1804873	2432985	XS0592298698	2016/02/18	47.84000		REDEM	2015/07/24	2016/02/18	
BOCHG	I	2016/02/18	2016/02/18	1322984	1804874	2434383	XS0592752751	2016/02/18	500.00000		REDEM	2011/02/18	2016/02/18	
BOCHG	I	2016/02/18	2016/02/18	1322985	1804875	2434715	XS0592620925	2016/02/18	1.10000		REDEM	2011/02/18	2016/02/18	
BOCHG	I	2016/02/18	2016/02/18	1322986	1804876	2435657	XS0593530800	2016/02/18	10.00000		REDEM	2011/02/18	2016/02/18	
BOCHG	I	2016/02/18	2016/02/18	1322987	1804877	2435966	AU3CB0170009	2016/02/18	500.00000		REDEM	2011/02/18	2016/02/18	
BOCHG	I	2016/02/18	2016/02/18	1322988	1804878	2452347	DE000HSH3NB7	2016/02/18	10.00000		REDEM	2011/02/18	2016/02/18	
BOCHG	I	2016/02/18	2016/02/18	1322989	1804879	2460205	NO0010600281	2016/02/18	1000.00000		REDEM	2011/02/18	2016/02/18	
BOCHG	I	2016/02/18	2016/02/18	1322990	1804881	2468505	AT000B008305	2016/02/18	5.70000		REDEM	2011/02/18	2016/02/18	
BOCHG	I	2016/02/18	2016/02/18	1322991	1804882	2472850	CND100003M29	2016/02/18	1000.00000		REDEM	2011/02/16	2016/02/18	
BOCHG	I	2016/02/18	2016/02/18	1322992	1804883	2472852	CND100003LM3	2016/02/18	700.00000		REDEM	2011/02/16	2016/02/18	
BOCHG	I	2016/02/18	2016/02/18	1322993	1804884	2472858	CND100003LR2	2016/02/18	800.00000		REDEM	2011/02/17	2016/02/18	
BOCHG	I	2016/02/18	2016/02/18	1322994	1804885	2475682	CND100003M37	2016/02/18	500.00000		REDEM	2011/02/16	2016/02/18	
BOCHG	I	2016/02/18	2016/02/18	1322995	1804886	2705658	HK0000227774	2016/02/18	173.00000		REDEM	2011/02/18	2016/02/18	
BOCHG	I	2016/02/18	2016/02/18	1322996	1804887	2710786	PYCMF02F5178	2016/02/18	1500.00000		REDEM	2011/02/24	2016/02/18	
BOCHG	I	2016/02/18	2016/02/18	1322997	1804888	2727093		2016/02/18	100.00000		REDEM	2011/02/24	2016/02/18	
BOCHG	I	2016/02/18	2016/02/18	1322998	1804889	2737907	DE000DZ35YV8	2016/02/18	10.00000		REDEM	2011/02/18	2016/02/18	
BOCHG	I	2016/02/18	2016/02/18	1322999	1804890	2813549	DE000A1H3L30	2016/02/18	5.00000		REDEM	2011/02/18	2016/02/18	
BOCHG	I	2016/02/18	2016/02/18	1323000	1804891	2924269	NO0010609696	2016/02/18	10.00000		REDEM	2011/02/18	2016/02/18	
BOCHG	I	2016/02/18	2016/02/18	1323001	1804892	3308375	UA4000110175	2016/02/18	100.00000		REDEM	2011/02/24	2016/02/18	
BOCHG	I	2016/02/18	2016/02/18	1323002	1804893	3737280	IT0004777063	2016/02/18	3.00000		REDEM	2011/11/18	2016/02/18	
BOCHG	I	2016/02/18	2016/02/18	1323003	1804894	3896178	AT0000A0M4J3	2016/02/18	5.00000		REDEM	2011/02/18	2016/02/18	
BOCHG	I	2016/02/18	2016/02/18	1323004	1804895	3918575	NO0010661499	2016/02/18	225.00000		REDEM	2013/01/24	2016/02/18	
BOCHG	I	2016/02/18	2016/02/18	1323005	1804896	3967432	XS0460826646	2016/02/18	51.22200		REDEM	2015/06/18	2016/02/18	
BOCHG	I	2016/02/18	2016/02/18	1323006	1804898	3980735	XS0891028044	2016/02/18	600.00000		REDEM	2013/02/18	2016/02/18	
BOCHG	I	2016/02/18	2016/02/18	1323007	1804899	3982131	AT000B051297	2016/02/18	1.00000		REDEM	2011/02/18	2016/02/18	
BOCHG	I	2016/02/18	2016/02/18	1323008	1804900	3982280	XS0887330883	2016/02/18	14.38000		REDEM	2013/02/21	2016/02/18	
BOCHG	I	2016/02/18	2016/02/18	1323009	1804901	3983893	DE000BRL3025	2016/02/18	50.00000		REDEM	2013/02/18	2016/02/18	
BOCHG	I	2016/02/18	2016/02/18	1323010	1804902	3984271	GB00B53XT363	2016/02/18	6.00000		REDEM	2011/02/18	2016/02/18	
BOCHG	I	2016/02/18	2016/02/18	1323011	1804903	3984654	MYBVG1300764	2016/02/18	100.00000		REDEM	2013/02/18	2016/02/18	
BOCHG	I	2016/02/18	2016/02/18	1323012	1804904	3984670	MYBVG1300822	2016/02/18	1.99500		REDEM	2013/02/18	2016/02/18	
BOCHG	I	2016/02/18	2016/02/18	1323013	1804905	3985039	IT0004890254	2016/02/18	27.73300		REDEM	2013/02/18	2016/02/18	
BOCHG	I	2016/02/18	2016/02/18	1323014	1804906	3985045	IT0004891229	2016/02/18	6.05800		REDEM	2013/02/18	2016/02/18	
BOCHG	I	2016/02/18	2016/02/18	1323015	1804907	3985046	IT0004891518	2016/02/18	25.00000		REDEM	2013/02/18	2016/02/18	
BOCHG	I	2016/02/18	2016/02/18	1323016	1804908	3985083	IT0004892243	2016/02/18	5.00000		REDEM	2013/02/18	2016/02/18	
BOCHG	I	2016/02/18	2016/02/18	1323017	1804909	3985089	IT0004891153	2016/02/18	15.86300		REDEM	2013/02/19	2016/02/18	
BOCHG	I	2016/02/18	2016/02/18	1323018	1804910	3985150	IT0004892292	2016/02/18	2.00000		REDEM	2013/02/18	2016/02/18	
BOCHG	I	2016/02/18	2016/02/18	1323019	1804911	3985313	KR6019801325	2016/02/18	30000.00000		REDEM	2013/02/18	2016/02/18	
BOCHG	I	2016/02/18	2016/02/18	1323020	1804912	3985324	KR6091374324	2016/02/18	120000.00000		REDEM	2013/02/18	2016/02/18	
BOCHG	I	2016/02/18	2016/02/18	1323021	1804913	3985335	KR6171181326	2016/02/18	60000.00000		REDEM	2013/02/18	2016/02/18	
BOCHG	I	2016/02/18	2016/02/18	1323022	1804914	3985817	IT0004895493	2016/02/18	5.00000		REDEM	2013/02/18	2016/02/18	
BOCHG	I	2016/02/18	2016/02/18	1323023	1804915	3988947	RU000A0JTND2	2016/02/18	15000.00000		REDEM	2013/02/21	2016/02/18	
BOCHG	I	2016/02/18	2016/02/18	1323024	1804916	3993956	FR0011424472	2016/02/18	40.00000		REDEM	2013/02/18	2016/02/18	
BOCHG	I	2016/02/18	2016/02/18	1323025	1804917	4051947	CH0123460203	2016/02/18	20.00000		REDEM	2011/02/18	2016/02/18	
BOCHG	I	2016/02/18	2016/02/18	1323026	1804918	4073964	CH0195391088	2016/02/18	1000.00000		REDEM	2013/02/18	2016/02/18	
BOCHG	I	2016/02/18	2016/02/18	1323027	1804919	4139600	US3133ED7G11	2016/02/18	200.00000		REDEM	2013/11/18	2016/02/18	
BOCHG	I	2016/02/18	2016/02/18	1323028	1804920	4166789	XS1006244948	2016/02/18	11.30900		REDEM	2015/03/19	2016/02/18	
BOCHG	I	2016/02/18	2016/02/18	1323029	1804921	4195626	XS1031792036	2016/02/18	1.00000		REDEM	2014/02/18	2016/02/18	
BOCHG	I	2016/02/18	2016/02/18	1323030	1804922	4197116	XS1001312930	2016/02/18	10.00000		REDEM	2014/02/11	2016/02/18	
BOCHG	I	2016/02/18	2016/02/18	1323031	1804923	4198506	XS1031115956	2016/02/18	30.00000		REDEM	2014/02/18	2016/02/18	
BOCHG	I	2016/02/18	2016/02/18	1323032	1804924	4198768	AT0000A0Z7U8	2016/02/18	3.00000		REDEM	2013/02/18	2016/02/18	
BOCHG	I	2016/02/18	2016/02/18	1323033	1804925	4200849	XS1033742435	2016/02/18	25.00000		REDEM	2014/02/18	2016/02/18	
BOCHG	I	2016/02/18	2016/02/18	1323034	1804926	4201299	XS0993313054	2016/02/18	2.51500		REDEM	2015/09/14	2016/02/18	
BOCHG	I	2016/02/18	2016/02/18	1323035	1804927	4201802	XS1033741031	2016/02/18	2.00000		REDEM	2014/02/18	2016/02/18	
BOCHG	I	2016/02/18	2016/02/18	1323036	1804928	4204425	XS0958756610	2016/02/18	100.00000		REDEM	2014/02/18	2016/02/18	
BOCHG	I	2016/02/18	2016/02/18	1323037	1804929	4204749	XS1032973627	2016/02/18	6.00000		REDEM	2014/05/15	2016/02/18	
BOCHG	I	2016/02/18	2016/02/18	1323038	1804930	4205928	FR0011746353	2016/02/18	230.00000		REDEM	2014/02/18	2016/02/18	
BOCHG	I	2016/02/18	2016/02/18	1323039	1804931	4212838	DE000CB7QS36	2016/02/18	1.00000		REDEM	2014/02/18	2016/02/18	
BOCHG	I	2016/02/18	2016/02/18	1323040	1804933	4220282		2016/02/18	1500.00000		REDEM	2014/02/18	2016/02/18	
BOCHG	I	2016/02/18	2016/02/18	1323041	1804934	4225311	LT0000821142	2016/02/18	2.40489		REDEM	2015/02/18	2016/02/18	
BOCHG	I	2016/02/18	2016/02/18	1323042	1804935	4226075	XS1032770353	2016/02/18	1.40000		REDEM	2015/05/19	2016/02/18	
BOCHG	I	2016/02/18	2016/02/18	1323043	1804941	4247016	KR619440G438	2016/02/18	10000.00000		REDEM	2014/03/18	2016/02/18	
BOCHG	I	2016/02/18	2016/02/18	1323044	1804945	4322904	US3133EDSQ60	2016/02/18	35.00000		REDEM	2014/08/18	2016/02/18	
BOCHG	I	2016/02/18	2016/02/18	1323045	1804946	4325492	XS1095639438	2016/02/18	5870.00000		REDEM	2014/08/18	2016/02/18	
BOCHG	I	2016/02/18	2016/02/18	1323046	1804947	4326691	XS1099726579	2016/02/18	40.00000		REDEM	2014/08/18	2016/02/18	
BOCHG	I	2016/02/18	2016/02/18	1323047	1804948	4327346	US38148F1747	2016/02/18	8.00000		REDEM	2014/08/20	2016/02/18	
BOCHG	I	2016/02/18	2016/02/18	1323048	1804949	4327356	US38148F1663	2016/02/18	5.00000		REDEM	2014/08/20	2016/02/18	
BOCHG	I	2016/02/18	2016/02/18	1323049	1804950	4327526	XS1073690312	2016/02/18	1.20000		REDEM	2014/12/23	2016/02/18	
BOCHG	I	2016/02/18	2016/02/18	1323050	1804951	4327919	US3130A2VB98	2016/02/18	250.00000		REDEM	2014/08/18	2016/02/18	
BOCHG	I	2016/02/18	2016/02/18	1323051	1804952	4328611	US3134G5GG49	2016/02/18	1900.00000		REDEM	2016/01/01	2016/02/18	
BOCHG	I	2016/02/18	2016/02/18	1323052	1804953	4328653	US83368WSP76	2016/02/18	4.33600		REDEM	2014/08/20	2016/02/18	
BOCHG	I	2016/02/18	2016/02/18	1323053	1804954	4330221	XS1097317066	2016/02/18	2.00000		REDEM	2014/10/27	2016/02/18	
BOCHG	I	2016/02/18	2016/02/18	1323054	1804955	4423815	US38148L2051	2016/02/18	10.94300		REDEM	2015/01/20	2016/02/18	
BOCHG	I	2016/02/18	2016/02/18	1323055	1804956	4433863	XS1177573158	2016/02/18	30.00000		REDEM	2015/02/12	2016/02/18	
BOCHG	I	2016/02/18	2016/02/18	1323056	1804957	4433881	XS1177691356	2016/02/18	100.00000		REDEM	2015/02/06	2016/02/18	
BOCHG	I	2016/02/18	2016/02/18	1323057	1804958	4435260	XS1180292085	2016/02/18	30.00000		REDEM	2015/02/12	2016/02/18	
BOCHG	I	2016/02/18	2016/02/18	1323058	1804959	4437358	US38147QT308	2016/02/18	2.17500		REDEM	2015/02/04	2016/02/18	
BOCHG	I	2016/02/18	2016/02/18	1323059	1804960	4437379	US38147QT555	2016/02/18	0.22500		REDEM	2015/02/04	2016/02/18	
BOCHG	I	2016/02/18	2016/02/18	1323060	1804961	4437386	US38147QT480	2016/02/18	1.67500		REDEM	2015/02/04	2016/02/18	
BOCHG	I	2016/02/18	2016/02/18	1323061	1804962	4437392	US38147QSY34	2016/02/18	497.52600		REDEM	2015/02/04	2016/02/18	
BOCHG	I	2016/02/18	2016/02/18	1323062	1804963	4439181	US06741UQC17	2016/02/18	547.55600		REDEM	2015/02/04	2016/02/18	
BOCHG	I	2016/02/18	2016/02/18	1323063	1804964	4440651	XS1143850003	2016/02/18	1.00000		REDEM	2015/02/17	2016/02/18	
BOCHG	I	2016/02/18	2016/02/18	1323064	1804965	4441120	XS1187133894	2016/02/18	0.28000		REDEM	2015/02/18	2016/02/18	
BOCHG	I	2016/02/18	2016/02/18	1323065	1804969	4442024	XS1169777700	2016/02/18	1.06500		REDEM	2015/02/18	2016/02/18	
BOCHG	I	2016/02/18	2016/02/18	1323066	1804972	4443825	TH068903Q200	2016/02/18	200.00000		REDEM	2015/02/10	2016/02/18	
BOCHG	I	2016/02/18	2016/02/18	1323067	1804976	4444084	XS0475183850	2016/02/18	1.00000		REDEM	2015/07/22	2016/02/18	
BOCHG	I	2016/02/18	2016/02/18	1323068	1804978	4444866	US3133EEQK91	2016/02/18	200.00000		REDEM	2015/02/18	2016/02/18	
BOCHG	I	2016/02/18	2016/02/18	1323069	1804979	4444987	US3130A4BZ43	2016/02/18	250.00000		REDEM	2015/02/18	2016/02/18	
BOCHG	I	2016/02/18	2016/02/18	1323070	1804980	4445024	XS1190722550	2016/02/18	14.90000		REDEM	2015/02/17	2016/02/18	
BOCHG	I	2016/02/18	2016/02/18	1323071	1804981	4445437	XS1191059432	2016/02/18	23.30000		REDEM	2015/02/17	2016/02/18	
BOCHG	I	2016/02/18	2016/02/18	1323072	1804982	4445624	XS1190979754	2016/02/18	12.62600		REDEM	2015/02/18	2016/02/18	
BOCHG	I	2016/02/18	2016/02/18	1323073	1804983	4445635	XS1191002754	2016/02/18	100.00000		REDEM	2015/02/18	2016/02/18	
BOCHG	I	2016/02/18	2016/02/18	1323074	1804984	4445736	XS1190949179	2016/02/18	14.70000		REDEM	2015/02/17	2016/02/18	
BOCHG	I	2016/02/18	2016/02/18	1323075	1804986	4446471		2016/02/18	32.90000		REDEM	2015/02/18	2016/02/18	
BOCHG	I	2016/02/18	2016/02/18	1323076	1804987	4446559	XS1191319794	2016/02/18	110.00000		REDEM	2015/02/18	2016/02/18	
BOCHG	I	2016/02/18	2016/02/18	1323077	1804988	4446600	XS1191582144	2016/02/18	310.00000		REDEM	2015/02/17	2016/02/18	
BOCHG	I	2016/02/18	2016/02/18	1323078	1804989	4447706	HK0000238326	2016/02/18	100.00000		REDEM	2015/02/18	2016/02/18	
BOCHG	I	2016/02/18	2016/02/18	1323079	1804990	4447737	HK0000238359	2016/02/18	585.00000		REDEM	2015/02/23	2016/02/18	
BOCHG	I	2016/02/18	2016/02/18	1323080	1804991	4447749	HK0000238466	2016/02/18	795.00000		REDEM	2015/02/25	2016/02/18	
BOCHG	I	2016/02/18	2016/02/18	1323081	1804992	4447833	MYBUE1500097	2016/02/18	180.00000		REDEM	2015/02/17	2016/02/18	
BOCHG	I	2016/02/18	2016/02/18	1323082	1804996	4448340	MD5RM1050173	2016/02/18	46.87170		REDEM	2014/02/19	2016/02/18	
BOCHG	I	2016/02/18	2016/02/18	1323083	1804997	4448781	XS1193153951	2016/02/18	1.00000		REDEM	2015/02/18	2016/02/18	
BOCHG	I	2016/02/18	2016/02/18	1323084	1804998	4448867		2016/02/18	6507.82000		REDEM	2015/02/19	2016/02/18	
BOCHG	I	2016/02/18	2016/02/18	1323085	1804999	4448914	GETD16218073	2016/02/18	90.00000		REDEM	2015/03/04	2016/02/18	
BOCHG	I	2016/02/18	2016/02/18	1323086	1805000	4448939	XS1193154330	2016/02/18	2.20000		REDEM	2015/02/18	2016/02/18	
BOCHG	I	2016/02/18	2016/02/18	1323087	1805002	4449289	BE6276462775	2016/02/18	18.00000		REDEM	2015/02/18	2016/02/18	
BOCHG	I	2016/02/18	2016/02/18	1323088	1805003	4449329		2016/02/18	3500.00000		REDEM	2015/02/19	2016/02/18	
BOCHG	I	2016/02/18	2016/02/18	1323089	1805006	4449669		2016/02/18	1000.00000		REDEM	2015/02/20	2016/02/18	
BOCHG	I	2016/02/18	2016/02/18	1323090	1805008	4449688	US313312TF77	2016/02/18	35.00000		REDEM	2011/02/18	2016/02/18	
BOCHG	I	2016/02/18	2016/02/18	1323091	1805009	4449692		2016/02/18	43958.00000		REDEM	2015/02/19	2016/02/18	
BOCHG	I	2016/02/18	2016/02/18	1323092	1805013	4450765	XS1191859633	2016/02/18	0.20000		REDEM	2016/02/12	2016/02/18	
BOCHG	I	2016/02/18	2016/02/18	1323093	1805014	4451169		2016/02/18	50300.78000		REDEM	2015/02/19	2016/02/18	
BOCHG	I	2016/02/18	2016/02/18	1323094	1805015	4452320	XS1195053480	2016/02/18	100.00000		REDEM	2015/02/19	2016/02/18	
BOCHG	I	2016/02/18	2016/02/18	1323095	1805016	4452505	MX0FBI0003L2	2016/02/18	400.00000		REDEM	2015/02/19	2016/02/18	
BOCHG	I	2016/02/18	2016/02/18	1323096	1805017	4452739	ZAG000123837	2016/02/18	154.00000		REDEM	2015/08/20	2016/02/18	
BOCHG	I	2016/02/18	2016/02/18	1323097	1805020	4453347	XS1169734131	2016/02/18	0.50000		REDEM	2015/02/24	2016/02/18	
BOCHG	I	2016/02/18	2016/02/18	1323098	1805021	4453494	XS1190917218	2016/02/18	1.60000		REDEM	2015/02/25	2016/02/18	
BOCHG	I	2016/02/18	2016/02/18	1323099	1805022	4454256	IDL0000022B1	2016/02/18	85000.00000		REDEM	2015/02/26	2016/02/18	
BOCHG	I	2016/02/18	2016/02/18	1323100	1805024	4455719	MX0FBA012BV0	2016/02/18	1000.00000		REDEM	2015/02/26	2016/02/18	
BOCHG	I	2016/02/18	2016/02/18	1323101	1805025	4456644	MX0FBA012BW8	2016/02/18	2300.00000		REDEM	2015/02/27	2016/02/18	
BOCHG	I	2016/02/18	2016/02/18	1323102	1805026	4458737		2016/02/18	80000.00000		REDEM	2015/02/18	2016/02/18	
BOCHG	I	2016/02/18	2016/02/18	1323103	1805027	4459598	PAL310743GG4	2016/02/18	10.00000		REDEM	2015/02/23	2016/02/18	
BOCHG	I	2016/02/18	2016/02/18	1323104	1805028	4479576		2016/02/18	145000.00000		REDEM	2015/02/20	2016/02/18	
BOCHG	I	2016/02/18	2016/02/18	1323105	1805029	4513838	KR380804A559	2016/02/18	30000.00000		REDEM	2015/05/18	2016/02/18	
BOCHG	I	2016/02/18	2016/02/18	1323106	1805031	4558829	XS1262191643	2016/02/18	32.00000		REDEM	2015/07/15	2016/02/18	
BOCHG	I	2016/02/18	2016/02/18	1323107	1805032	4563173	XS1180262682	2016/02/18	100.00000		REDEM	2015/02/10	2016/02/18	
BOCHG	I	2016/02/18	2016/02/18	1323108	1805033	4563197	XS1179287302	2016/02/18	100.00000		REDEM	2015/02/09	2016/02/18	
BOCHG	I	2016/02/18	2016/02/18	1323109	1805034	4563751	CH0242068317	2016/02/18	10.00000		REDEM	2014/08/18	2016/02/18	
BOCHG	I	2016/02/18	2016/02/18	1323110	1805037	4577200	MX0JBB0J0099	2016/02/18	11.08000		REDEM	2015/08/06	2016/02/18	
BOCHG	I	2016/02/18	2016/02/18	1323111	1805038	4580313	US3130A6BQ91	2016/02/18	500.00000		REDEM	2015/08/18	2016/02/18	
BOCHG	I	2016/02/18	2016/02/18	1323112	1805039	4581754		2016/02/18	500.00000		REDEM	2015/08/18	2016/02/18	
BOCHG	I	2016/02/18	2016/02/18	1323113	1805040	4582778	HK0000263092	2016/02/18	100.00000		REDEM	2015/08/18	2016/02/18	
BOCHG	I	2016/02/18	2016/02/18	1323114	1805043	4583267	EU000A1U99P0	2016/02/18	2487.50000		REDEM	2015/08/20	2016/02/18	
BOCHG	I	2016/02/18	2016/02/18	1323115	1805045	4583662		2016/02/18	1500.00000		REDEM	2015/08/17	2016/02/18	
BOCHG	I	2016/02/18	2016/02/18	1323116	1805046	4583692		2016/02/18	300.00000		REDEM	2015/08/17	2016/02/18	
BOCHG	I	2016/02/18	2016/02/18	1323117	1805047	4583695		2016/02/18	500.00000		REDEM	2015/08/17	2016/02/18	
BOCHG	I	2016/02/18	2016/02/18	1323118	1805048	4583702		2016/02/18	750.00000		REDEM	2015/08/17	2016/02/18	
BOCHG	I	2016/02/18	2016/02/18	1323119	1805050	4584012	US912796HC60	2016/02/18	104001.36280		REDEM	2016/01/21	2016/02/18	
BOCHG	I	2016/02/18	2016/02/18	1323120	1805051	4584423		2016/02/18	710.00000		REDEM	2015/08/18	2016/02/18	
BOCHG	I	2016/02/18	2016/02/18	1323121	1805055	4584900	TH0655B7Q284	2016/02/18	32000.00000		REDEM	2015/08/20	2016/02/18	
BOCHG	I	2016/02/18	2016/02/18	1323122	1805056	4585312	MD5RM1051288	2016/02/18	18.99940		REDEM	2015/08/20	2016/02/18	
BOCHG	I	2016/02/18	2016/02/18	1323123	1805059	4585670	MXBIGO000J74	2016/02/18	43575.60000		REDEM	2016/01/21	2016/02/18	
BOCHG	I	2016/02/18	2016/02/18	1323124	1805060	4588998	TH0816A7Q208	2016/02/18	115.00000		REDEM	2015/08/20	2016/02/18	
BOCHG	I	2016/02/18	2016/02/18	1323125	1805061	4589002		2016/02/18	35.00000		REDEM	2015/08/20	2016/02/18	
BOCHG	I	2016/02/18	2016/02/18	1323126	1805063	4589144		2016/02/18	3000.00000		REDEM	2015/08/21	2016/02/18	
BOCHG	I	2016/02/18	2016/02/18	1323127	1805064	4589181		2016/02/18	10552.30000		REDEM	2015/08/20	2016/02/18	
BOCHG	I	2016/02/18	2016/02/18	1323128	1805065	4589212		2016/02/18	34844.80000		REDEM	2015/08/20	2016/02/18	
BOCHG	I	2016/02/18	2016/02/18	1323129	1805067	4589434		2016/02/18	30000.00000		REDEM	2015/08/19	2016/02/18	
BOCHG	I	2016/02/18	2016/02/18	1323130	1805068	4590023		2016/02/18	35564.80000		REDEM	2015/08/20	2016/02/18	
BOCHG	I	2016/02/18	2016/02/18	1323131	1805077	4617754		2016/02/18	1100.00000		REDEM	2015/08/20	2016/02/18	
BOCHG	I	2016/02/18	2016/02/18	1323132	1805078	4621878	XS1305486794	2016/02/18	50.00000		REDEM	2015/10/08	2016/02/18	
BOCHG	I	2016/02/18	2016/02/18	1323133	1805083	4644632	IN002015X340	2016/02/18	93100.00000		REDEM	2015/11/19	2016/02/18	
BOCHG	I	2016/02/18	2016/02/18	1323134	1805084	4644697	HK0000273828	2016/02/18	180.00000		REDEM	2015/11/18	2016/02/18	
BOCHG	I	2016/02/18	2016/02/18	1323135	1805085	4644700	HK0000273836	2016/02/18	180.00000		REDEM	2015/11/18	2016/02/18	
BOCHG	I	2016/02/18	2016/02/18	1323136	1805086	4644705	HK0000273844	2016/02/18	170.00000		REDEM	2015/11/18	2016/02/18	
BOCHG	I	2016/02/18	2016/02/18	1323137	1805092	4645535	FR0123361620	2016/02/18	33.00000		REDEM	2015/11/18	2016/02/18	
BOCHG	I	2016/02/18	2016/02/18	1323138	1805093	4645609		2016/02/18	300.00000		REDEM	2015/11/17	2016/02/18	
BOCHG	I	2016/02/18	2016/02/18	1323139	1805094	4645614		2016/02/18	200.00000		REDEM	2015/11/17	2016/02/18	
BOCHG	I	2016/02/18	2016/02/18	1323140	1805095	4645615		2016/02/18	250.00000		REDEM	2015/11/17	2016/02/18	
BOCHG	I	2016/02/18	2016/02/18	1323141	1805096	4645618		2016/02/18	50.00000		REDEM	2015/11/17	2016/02/18	
BOCHG	I	2016/02/18	2016/02/18	1323142	1805097	4645626		2016/02/18	150.00000		REDEM	2015/11/17	2016/02/18	
BOCHG	I	2016/02/18	2016/02/18	1323143	1805098	4645634		2016/02/18	500.00000		REDEM	2015/11/17	2016/02/18	
BOCHG	I	2016/02/18	2016/02/18	1323144	1805099	4645638		2016/02/18	50.00000		REDEM	2015/11/17	2016/02/18	
BOCHG	I	2016/02/18	2016/02/18	1323145	1805100	4645640		2016/02/18	300.00000		REDEM	2015/11/17	2016/02/18	
BOCHG	I	2016/02/18	2016/02/18	1323146	1805102	4645912		2016/02/18	500.00000		REDEM	2015/11/17	2016/02/18	
BOCHG	I	2016/02/18	2016/02/18	1323147	1805103	4645938		2016/02/18	500.00000		REDEM	2015/11/17	2016/02/18	
BOCHG	I	2016/02/18	2016/02/18	1323148	1805104	4645953		2016/02/18	250.00000		REDEM	2015/11/17	2016/02/18	
BOCHG	I	2016/02/18	2016/02/18	1323149	1805105	4645956		2016/02/18	500.00000		REDEM	2015/11/17	2016/02/18	
BOCHG	I	2016/02/18	2016/02/18	1323150	1805106	4645968		2016/02/18	550.00000		REDEM	2015/11/17	2016/02/18	
BOCHG	I	2016/02/18	2016/02/18	1323151	1805107	4645971		2016/02/18	500.00000		REDEM	2015/11/17	2016/02/18	
BOCHG	I	2016/02/18	2016/02/18	1323152	1805111	4646377	TH0655F7Q280	2016/02/18	32000.00000		REDEM	2015/11/19	2016/02/18	
BOCHG	I	2016/02/18	2016/02/18	1323153	1805114	4646814	XS1323981867	2016/02/18	100.00000		REDEM	2015/11/18	2016/02/18	
BOCHG	I	2016/02/18	2016/02/18	1323154	1805123	4647921	ZAG000131517	2016/02/18	60.00000		REDEM	2015/11/18	2016/02/18	
BOCHG	I	2016/02/18	2016/02/18	1323155	1805124	4648085		2016/02/18	400.00000		REDEM	2015/11/19	2016/02/18	
BOCHG	I	2016/02/18	2016/02/18	1323156	1805125	4648094	MD5RM1051866	2016/02/18	104.00000		REDEM	2015/11/19	2016/02/18	
BOCHG	I	2016/02/18	2016/02/18	1323157	1805129	4648465		2016/02/18	1000.00000		REDEM	2015/11/20	2016/02/18	
BOCHG	I	2016/02/18	2016/02/18	1323158	1805130	4648598	MT3100013502	2016/02/18	21.00000		REDEM	2015/11/19	2016/02/18	
BOCHG	I	2016/02/18	2016/02/18	1323159	1805131	4648771		2016/02/18	115.00000		REDEM	2015/11/19	2016/02/18	
BOCHG	I	2016/02/18	2016/02/18	1323160	1805137	4649360		2016/02/18	8841.00000		REDEM	2015/11/19	2016/02/18	
BOCHG	I	2016/02/18	2016/02/18	1323161	1805139	4649864		2016/02/18	2000.00000		REDEM	2015/11/19	2016/02/18	
BOCHG	I	2016/02/18	2016/02/18	1323162	1805141	4652135	ZAG000131731	2016/02/18	224.00000		REDEM	2015/11/23	2016/02/18	
BOCHG	I	2016/02/18	2016/02/18	1323163	1805160	4653795		2016/02/18	128071.14500		REDEM	2015/11/26	2016/02/18	
BOCHG	I	2016/02/18	2016/02/18	1323164	1805181	4669403	XS1336935645	2016/02/18	1000.00000		REDEM	2015/12/18	2016/02/18	
BOCHG	I	2016/02/18	2016/02/18	1323165	1805227	4685741	US78012R4829	2016/02/18	39.62953		REDEM		2016/02/18	
BOCHG	I	2016/02/18	2016/02/18	1323166	1805228	4685914	MYBRA1600149	2016/02/18	180.00000		REDEM	2016/01/18	2016/02/18	
BOCHG	I	2016/02/18	2016/02/18	1323167	1805229	4685924	MYBRA1600164	2016/02/18	160.00000		REDEM	2016/01/18	2016/02/18	
BOCHG	I	2016/02/18	2016/02/18	1323168	1805230	4685930	MYBRA1600123	2016/02/18	40.00000		REDEM	2016/01/18	2016/02/18	
BOCHG	I	2016/02/18	2016/02/18	1323169	1805243	1724467	XS0348936757	2016/02/18	1.00000		REDEM	2008/02/25	2016/02/18	
BOCHG	I	2016/02/18	2016/02/18	1323170	1805781	4688401	ZAG000132598	2016/02/18	254.00000		REDEM	2016/01/14	2016/02/18	
BOCHG	I	2016/02/18	2016/02/18	1323171	1806388	2285212	NO0010593742	2016/02/18	164.00000		REDEM	2016/01/19	2016/02/18	
BOCHG	I	2016/02/18	2016/02/18	1323172	1807076	4691481		2016/02/18	8000.00000		REDEM	2016/01/22	2016/02/18	
BOCHG	I	2016/02/18	2016/02/18	1323173	1807172	4691978		2016/02/18	10000.00000		REDEM	2016/01/21	2016/02/18	
BOCHG	I	2016/02/18	2016/02/18	1323174	1808594	3905875	XS0834606104	2016/02/18	25.10000		REDEM	2015/12/11	2016/02/18	
BOCHG	I	2016/02/18	2016/02/18	1323175	1809715	4441217	XS1188286667	2016/02/18	50.00000		REDEM	2015/02/18	2016/02/18	
BOCHG	I	2016/02/18	2016/02/18	1323176	1809834	3970619	XS0881813108	2016/02/18	0.32000		REDEM	2016/01/25	2016/02/18	
BOCHG	I	2016/02/18	2016/02/18	1323177	1809841	4688256	ZAG000132614	2016/02/18	263.00000		REDEM	2016/01/14	2016/02/18	
BOCHG	I	2016/02/18	2016/02/18	1323178	1812502	4690564	BD0103011161	2016/02/18	1580.00000		REDEM	2016/01/19	2016/02/18	
BOCHG	I	2016/02/18	2016/02/18	1323179	1812538	226776	XS0211247290	2016/02/18	25.00000		REDEM	2012/01/13	2016/02/18	
BOCHG	I	2016/02/18	2016/02/18	1323180	1813418	4686193		2016/02/18	1000.00000		REDEM	2016/01/15	2016/02/18	
BOCHG	I	2016/02/18	2016/02/18	1323181	1813438	4686197		2016/02/18	1000.00000		REDEM	2016/01/15	2016/02/18	
BOCHG	I	2016/02/18	2016/02/18	1323182	1813447	4686221		2016/02/18	250.00000		REDEM	2016/01/15	2016/02/18	
BOCHG	I	2016/02/18	2016/02/18	1323183	1813492	4686284		2016/02/18	5000.00000		REDEM	2016/01/15	2016/02/18	
BOCHG	I	2016/02/18	2016/02/18	1323184	1813493	4686238		2016/02/18	1000.00000		REDEM	2016/01/15	2016/02/18	
BOCHG	I	2016/02/18	2016/02/18	1323185	1813494	4686274		2016/02/18	4200.00000		REDEM	2016/01/15	2016/02/18	
BOCHG	I	2016/02/18	2016/02/18	1323186	1813496	4686236		2016/02/18	300.00000		REDEM	2016/01/15	2016/02/18	
BOCHG	I	2016/02/18	2016/02/18	1323187	1813500	4686228		2016/02/18	550.00000		REDEM	2016/01/15	2016/02/18	
BOCHG	I	2016/02/18	2016/02/18	1323188	1813699	4215505	DE000SKB0419	2016/02/18	20.00000		REDEM	2014/02/18	2016/02/18	
BOCHG	I	2016/02/18	2016/02/18	1323189	1815133	4502201	US3135G0E254	2016/02/18	250.00000		REDEM	2015/05/18	2016/02/18	
BOCHG	I	2016/02/18	2016/02/18	1323190	1815134	4501502	US3136G2JN86	2016/02/18	15.00000		REDEM	2015/05/18	2016/02/18	
BOCHG	I	2016/02/18	2016/02/18	1323191	1815135	4508729	US3136G2KJ55	2016/02/18	10.00000		REDEM	2015/05/21	2016/02/18	
BOCHG	I	2016/02/18	2016/02/18	1323192	1815136	4433358	US3135G0B854	2016/02/18	250.00000		REDEM	2015/02/18	2016/02/18	
BOCHG	I	2016/02/18	2016/02/18	1323193	1815159	4577696	XS1274151700	2016/02/18	1.53700		REDEM	2015/08/18	2016/02/18	
BOCHG	I	2016/02/18	2016/02/18	1323194	1815162	4446835	XS1191831467	2016/02/18	100.00000		REDEM	2015/02/18	2016/02/18	
BOCHG	I	2016/02/18	2016/02/18	1323195	1816317	3986146	US3133ECFB55	2016/02/18	129.00000		REDEM	2013/02/13	2016/02/18	
BOCHG	I	2016/02/18	2016/02/18	1323196	1816326	3986158	US3133ECFE94	2016/02/18	25.00000		REDEM	2013/02/13	2016/02/18	
BOCHG	I	2016/02/18	2016/02/18	1323197	1816343	4444157	US3133EEQD58	2016/02/18	60.00000		REDEM	2015/02/18	2016/02/18	
BOCHG	I	2016/02/18	2016/02/18	1323198	1821245	3991695	US3133ECGK46	2016/02/18	69.00000		REDEM	2013/03/04	2016/02/18	
BOCHG	I	2016/02/18	2016/02/18	1323199	1821247	4007003	US3133ECK453	2016/02/18	63.00000		REDEM	2013/03/26	2016/02/18	
BOCHG	I	2016/02/18	2016/02/18	1323200	1821256	4478841	US3133EEXP06	2016/02/18	55.00000		REDEM	2015/04/08	2016/02/18	
BOCHG	I	2016/02/18	2016/02/18	1323201	1821263	4483154	US3133EEYH70	2016/02/18	15.00000		REDEM	2015/04/13	2016/02/18	
BOCHG	I	2016/02/18	2016/02/18	1323202	1821265	4483127	US3133EEYR52	2016/02/18	85.00000		REDEM	2015/04/14	2016/02/18	
BOCHG	I	2016/02/18	2016/02/18	1323203	1821266	4604035	US3133EFDM69	2016/02/18	80.00000		REDEM	2015/09/17	2016/02/18	
BOCHG	I	2016/02/18	2016/02/18	1323204	1821268	4641498	US3133EFPA93	2016/02/18	60.00000		REDEM	2015/11/16	2016/02/18	
BOCHG	I	2016/02/18	2016/02/18	1323205	1821269	4642040	US3133EFPF80	2016/02/18	25.00000		REDEM	2015/11/18	2016/02/18	
BOCHG	I	2016/02/18	2016/02/18	1323206	1821280	4365357	US3130A3DB73	2016/02/18	10.00000		REDEM	2014/10/29	2016/02/18	
BOCHG	I	2016/02/18	2016/02/18	1323207	1821281	4379940	US3130A3GU28	2016/02/18	10.00000		REDEM	2014/12/04	2016/02/18	
BOCHG	I	2016/02/18	2016/02/18	1323208	1821284	4439907	US3130A45E81	2016/02/18	100.00000		REDEM	2015/02/18	2016/02/18	
BOCHG	I	2016/02/18	2016/02/18	1323209	1821285	4633102	US3130A6QF71	2016/02/18	15.00000		REDEM	2015/11/18	2016/02/18	
BOCHG	I	2016/02/18	2016/02/18	1323210	1821289	4057053	US313383LG45	2016/02/18	25.00000		REDEM	2013/07/08	2016/02/18	
BOCHG	I	2016/02/18	2016/02/18	1323211	1821554	4431610	US3134G6AZ66	2016/02/18	25.00000		REDEM	2015/02/18	2016/02/18	
BOCHG	I	2016/02/18	2016/02/18	1323212	1821556	4433087	US3134G6BK88	2016/02/18	25.00000		REDEM	2015/02/18	2016/02/18	
BOCHG	I	2016/02/18	2016/02/18	1323213	1821557	4495309	US3134G6XZ10	2016/02/18	30.00000		REDEM	2015/05/18	2016/02/18	
BOCHG	I	2016/02/18	2016/02/18	1323214	1823641	4581261	XS1212537044	2016/02/18	1.00000		REDEM	2015/08/17	2016/02/18	
BOCHG	I	2016/02/18	2016/02/18	1323215	1824175	4638657	XS1266710166	2016/02/18	0.50000		REDEM	2015/11/12	2016/02/18	
BOCHG	I	2016/02/18	2016/02/18	1323216	1824807	4439919	US31315PN709	2016/02/18	10.00000		REDEM	2015/02/18	2016/02/18	
BOCHG	I	2016/02/18	2016/02/18	1323217	1810075	4150485	XS0986194453	2016/02/18	217.31000	206.40100	REDEM	2016/01/20	2016/02/18	
BOCHG	I	2016/02/18	2016/02/18	1323218	1812544	1798096	INE429C07016	2016/02/18	2500.00000	1666.66667	REDEM	2009/02/18	2016/02/18	
BOCHG	I	2016/02/18	2016/02/18	1323219	1813504	4590589	INE310L07AE1	2016/02/18	527.49400	523.74300	REDEM	2016/01/20	2016/02/18	
BOCHG	I	2016/02/18	2016/02/18	1323220	1813505	4243116	INE310L07AC5	2016/02/18	564.99999	556.66665	REDEM	2015/08/20	2016/02/18	
BOCHG	I	2016/02/18	2016/02/18	1323221	1821283	4420757	US3130A3VP67	2016/02/18	40.00000	35.00000	REDEM	2015/01/16	2016/02/18	
BOCHG	I	2016/02/18	2016/02/18	1323222	1821716	1506050	TN0002601029	2016/02/18	31.25000	28.12500	REDEM	2015/02/18	2016/02/18	
BOCHG	I	2016/02/18	2016/02/18	1323223	1821718	4007690	TN0006720064	2016/02/18	26.00000	20.80000	REDEM	2013/02/18	2016/02/18	
BOCHG	I	2016/02/18	2016/02/18	1323224	1823548	3952981	XS0855339080	2016/02/18	13.94050	8.18213	REDEM	2016/01/18	2016/02/18	
BOCHG	I	2016/02/18	2016/02/18	1323225	1824750	4370615	XS1103661838	2016/02/18	262.44460	251.71212	REDEM	2016/01/18	2016/02/18	
BOCHG	I	2016/02/18	2016/02/18	1323226	1824751	4309875	XS1081212208	2016/02/18	188.35148	180.71723	REDEM	2016/01/18	2016/02/18	
BOCHG	I	2016/02/18	2016/02/18	1323227	1824754	4515999	XS1175193413	2016/02/18	349.43348	337.92474	REDEM	2016/01/18	2016/02/18	
BOCHG	I	2016/02/18	2016/02/18	1323228	1824755	353423	XS0237385975	2016/02/18	5.45461	5.45145	REDEM	2015/08/18	2016/02/18	
BOCHG	I	2016/02/18	2016/02/18	1323229	1824756	4573483	XS1250092043	2016/02/18	377.75183	367.03560	REDEM	2016/01/19	2016/02/18	
BOCHG	I	2016/02/18	2016/02/18	1323230	1824770	4327248	CA135087D689	2016/02/18	9261.57700	8936.57700	REDEM	2015/12/10	2016/02/18	
BOCHG	I	2016/02/18	2016/02/18	1323231	1824771	4123307	CA135087B600	2016/02/18	16094.20700	15919.20700	REDEM	2016/02/04	2016/02/18	
BOCHG	I	2016/02/18	2016/02/18	1323232	1824840	4058993	DE000A1HL0S4	2016/02/18	11.68126	9.10431	REDEM	2016/01/18	2016/02/18	
BOCHG	I	2016/02/18	2016/02/18	1323233	1824939	283308	FR0010235176	2016/02/18	19945.00000	19895.00000	REDEM	2016/02/17	2016/02/18	
BOCHG	I	2016/02/18	2016/02/18	1323234	1824940	3869629	FR0011276898	2016/02/18	20.28656	14.39998	REDEM	2016/01/18	2016/02/18	
BOCHG	I	2016/02/18	2016/02/18	1323235	81528	4446247	XS1165929081	2016/02/18	3.71000		CONV	2016/01/05	2016/02/18	
BOCHG	I	2016/02/18	2016/02/18	1323236	81529	4196338	XS0993314292	2016/02/18	0.75000		CONV	2015/07/01	2016/02/18	
BOCHG	I	2016/02/18	2016/02/18	1323237	81748	4435018	XS1143865373	2016/02/18	1.00000		CONV	2015/02/10	2016/02/18	
BOCHG	I	2016/02/18	2016/02/18	1323238	81751	4434781	XS1143865969	2016/02/18	0.90000		CONV	2015/02/10	2016/02/18	
BOCHG	I	2016/02/18	2016/02/18	1323239	81779	4438192	XS1139593633	2016/02/18	1.50000		CONV	2015/03/19	2016/02/18	
BOCHG	I	2016/02/18	2016/02/18	1323240	81783	4436002	XS1143940762	2016/02/18	0.50000		CONV	2015/02/10	2016/02/18	
BOCHG	I	2016/02/18	2016/02/18	1323241	81233	3980085	XS0890335275	2016/02/18	1.14000		CONV	2013/02/15	2016/02/18	
BOCHG	I	2016/02/18	2016/02/18	1323242	81234	4196253	XS1031132969	2016/02/18	0.20000		CONV	2014/02/18	2016/02/18	
BOCHG	I	2016/02/18	2016/02/18	1323243	81236	4204735	XS1032770437	2016/02/18	0.35000		CONV	2014/04/18	2016/02/18	
BOCHG	I	2016/02/18	2016/02/18	1323244	81237	4322450	XS1097315797	2016/02/18	0.04300		CONV	2014/11/10	2016/02/18	
BOCHG	I	2016/02/18	2016/02/18	1323245	81238	4324070	XS1061519895	2016/02/18	5.55000		CONV	2015/02/13	2016/02/18	
BOCHG	I	2016/02/18	2016/02/18	1323246	81240	4434795	XS1143871181	2016/02/18	0.50000		CONV	2015/02/10	2016/02/18	
BOCHG	I	2016/02/18	2016/02/18	1323247	81243	4437114	XS1133623246	2016/02/18	2.00000		CONV	2015/02/10	2016/02/18	
BOCHG	I	2016/02/18	2016/02/18	1323248	81244	4437849	XS1133623832	2016/02/18	2.00000		CONV	2015/02/10	2016/02/18	
BOCHG	I	2016/02/18	2016/02/18	1323249		421882	XS0260560049	2016/02/17	28.82335	24.58496	REDEM	2015/02/17	2016/02/17	
BOCHG	I	2016/02/18	2016/02/18	1323250		526217	XS0279262660	2016/02/18	37.44374	28.72452	REDEM	2015/11/18	2016/02/18	
BOCHG	I	2016/02/18	2016/02/18	1323251		4625566	CA135087F254	2016/02/22	10000.00000	13800.00000	REISS	2016/01/18	2016/02/22	
BOCHG	I	2016/02/18	2016/02/18	1323252		575468	XS0114288789	2016/02/17	21130.88280	21130.82280	CORR	2016/02/08	2016/02/17	
BOCHG	I	2016/02/18	2016/02/18	1323253	1825133	4601848	XS1251306822	2016/02/18	0.85000		REDEM	2015/09/18	2016/02/18	
BOCHG	I	2016/02/18	2016/02/18	1323254		460228	XS0249760090	2016/02/17	16.40000	12.70000	CORR	2006/03/31	2016/02/17	
BOCHG	I	2016/02/18	2016/02/18	1323255	1825134	4006896	XS0885855691	2016/02/18	21.56400	11.83250	REDEM	2016/01/18	2016/02/18	
BOCHG	I	2016/02/18	2016/02/18	1323256		4060496	XS0946834917	2016/02/17	122.44000	102.96000	CORR	2015/11/13	2016/02/17	
BOCHG	I	2016/02/18	2016/02/18	1323257		2136004	IL0011208803	2015/07/12	506.32181	490.77180	CORR	2014/11/21	2015/07/12	
BOCHG	I	2016/02/18	2016/02/18	1323258		4117334	XS0976364272	2016/02/17	1.19000	0.89000	CORR	2015/04/09	2016/02/17	
BOCHG	I	2016/02/18	2016/02/18	1323259		4122682	XS0976447051	2016/02/17	7.22000	7.19500	CORR	2016/02/09	2016/02/17	
BOCHG	I	2016/02/18	2016/02/18	1323260		4178139	XS1014772310	2016/02/17	1662.30000	1637.30000	CORR	2016/02/15	2016/02/17	
BOCHG	I	2016/02/18	2016/02/18	1323261		4243000	XS1015498873	2016/02/17	1.11900	1.09900	CORR	2015/12/28	2016/02/17	
BOCHG	I	2016/02/18	2016/02/18	1323262		4189178	XS1021900094	2016/02/17	16.20000	15.20000	CORR	2016/01/22	2016/02/17	
BOCHG	I	2016/02/18	2016/02/18	1323263		4217502	XS1027521639	2016/02/17	0.57600	0.51600	CORR	2015/06/24	2016/02/17	
BOCHG	I	2016/02/18	2016/02/18	1323264		737798	XS0336419154	2016/02/17	0.25000	0.24500	CORR	2008/01/15	2016/02/17	
BOCHG	I	2016/02/18	2016/02/18	1323265		2659661	XS0623358313	2016/02/17	2.95000	2.50000	CORR	2015/09/18	2016/02/17	
BOCHG	I	2016/02/18	2016/02/18	1323266		2725712	XS0626651573	2016/02/17	11.01800	9.55800	CORR	2015/01/14	2016/02/17	
BOCHG	I	2016/02/18	2016/02/18	1323267		3624715	XS0752601640	2016/02/17	1.36900	1.32500	CORR	2015/06/03	2016/02/17	
BOCHG	I	2016/02/18	2016/02/18	1323268		301978	XS0161426621	2016/01/14	5.43084	5.42161	CORR	2015/12/15	2016/01/14	
BOCHG	I	2016/02/18	2016/02/18	1323269		301978	XS0161426621	2016/02/15	5.42161	5.41376	CORR	2016/01/14	2016/02/15	
BOCHG	I	2016/02/18	2016/02/18	1323270		4264283	XS1067544624	2016/02/17	1.70000	1.50000	CORR	2014/05/23	2016/02/17	
BOCHG	I	2016/02/18	2016/02/18	1323271		1843993	XS0490022208	2016/02/17	1.47850	1.39850	CORR	2015/08/18	2016/02/17	
BOCHG	I	2016/02/18	2016/02/18	1323272		4407338	NIMHCP0B0472	2016/02/12	44.05100	44.06100	REISS	2016/02/05	2016/02/12	
BOCHG	I	2016/02/18	2016/02/18	1323273		2738226	XS0634222318	2016/02/17	45.45269	47.45269	CORR	2016/02/01	2016/02/17	
BOCHG	I	2016/02/18	2016/02/18	1323274		4336445	XS1099681535	2016/02/17	1.75000	1.45000	CORR	2014/11/20	2016/02/17	
BOCHG	I	2016/02/18	2016/02/18	1323275		2998477	XS0662074128	2016/02/17	5.22900	3.52000	CORR	2011/09/28	2016/02/17	
BOCHG	I	2016/02/18	2016/02/18	1323276		3914756	XS0726743833	2016/02/17	1.81224	1.84244	CORR	2016/01/19	2016/02/17	
BOCHG	I	2016/02/18	2016/02/18	1323277		3906616	XS0821696951	2016/02/17	3.86700	3.85200	CORR	2015/12/24	2016/02/17	
BOCHG	I	2016/02/18	2016/02/18	1323278	1825157	640099	IT0004012248	2007/08/17	1.15000		REDEM	2007/08/04	2007/08/17	
BOCHG	I	2016/02/18	2016/02/18	1323279		4012302	XS0827991414	2016/02/17	1.00600	0.99000	CORR	2016/02/01	2016/02/17	
BOCHG	I	2016/02/18	2016/02/18	1323280	1825158	4118421	XS0963248637	2016/02/18	75.81735	68.89610	REDEM	2016/01/18	2016/02/18	
BOCHG	I	2016/02/18	2016/02/18	1323281	1825159	640111	IT0004012263	2007/08/17	0.00800		REDEM	2007/08/04	2007/08/17	
BOCHG	I	2016/02/18	2016/02/18	1323282	1825161	2718752	IL0011237281	2013/03/17	176.48700		REDEM	2011/09/15	2013/03/17	
BOCHG	I	2016/02/18	2016/02/18	1323283		4341029	XS1103870751	2016/02/17	2.11000	1.88000	CORR	2014/10/06	2016/02/17	
BOCHG	I	2016/02/18	2016/02/18	1323284		4364740	XS1103879117	2016/02/17	1.47300	1.47100	CORR	2015/12/31	2016/02/17	
BOCHG	I	2016/02/18	2016/02/18	1323285	1825162	3949580	XS0857684178	2016/02/17	24.40746	13.35026	REDEM	2015/11/17	2016/02/17	
BOCHG	I	2016/02/18	2016/02/18	1323286		3967367	XS0871980065	2016/02/17	10770.00000	10750.00000	CORR	2016/02/15	2016/02/17	
BOCHG	I	2016/02/18	2016/02/18	1323287		4342356	XS1107508118	2016/02/17	5.94700	5.65700	CORR	2014/10/07	2016/02/17	
BOCHG	I	2016/02/18	2016/02/18	1323288	1825163	1429731	XS0271944604	2015/09/10	65.50029	46.06144	REDEM	2013/06/10	2015/09/10	
BOCHG	I	2016/02/18	2016/02/18	1323290		4350109	XS1113141441	2016/02/17	470.88900	469.88900	CORR	2016/02/08	2016/02/17	
BOCHG	I	2016/02/18	2016/02/18	1323289		4019903	IT0004898471	2013/03/29	50.00000	2.72100	CORR	2013/03/28	2013/03/28	
BOCHG	I	2016/02/18	2016/02/18	1323291	1825164	2455928	IT0004690902	2013/02/17	0.62000		REDEM	2011/02/17	2013/02/17	
BOCHG	I	2016/02/18	2016/02/18	1323292	1825165	1429731	XS0271944604	2015/12/10	46.06144	40.98432	REDEM	2015/09/10	2015/12/10	
BOCHG	I	2016/02/18	2016/02/18	1323293		4582719	GB00BDNS5175	2016/02/15	2000.00000	4000.00000	REISS	2015/11/16	2016/02/15	
BOCHG	I	2016/02/18	2016/02/18	1323294		3625391	XS0754797438	2016/02/17	298.94500	300.00000	CORR	2015/09/30	2016/02/17	
BOCHG	I	2016/02/18	2016/02/18	1323295		4084962	XS0904891354	2016/02/17	1.60000	1.50000	CORR	2015/08/17	2016/02/17	
BOCHG	I	2016/02/18	2016/02/18	1323296		4370543	XS1123646926	2016/02/17	5.70000	5.15600	CORR	2016/01/15	2016/02/17	
BOCHG	I	2016/02/18	2016/02/18	1323297		4099323	XS0964442494	2016/02/17	2.57000	2.37000	CORR	2013/08/27	2016/02/17	
BOCHG	I	2016/02/18	2016/02/18	1323298		4371799	XS1130088658	2016/02/17	50.00000	40.00000	CORR	2014/10/29	2016/02/17	
BOCHG	I	2016/02/18	2016/02/18	1323299		4180126	XS0988279435	2016/02/17	4.34500	4.32800	CORR	2015/12/24	2016/02/17	
BOCHG	I	2016/02/18	2016/02/18	1323300		4138591	XS0991474312	2016/02/17	59.70000	59.20000	CORR	2015/08/25	2016/02/17	
BOCHG	I	2016/02/18	2016/02/18	1323301		3974275	XS0881260334	2016/02/17	5.35000	5.20000	CORR	2014/12/30	2016/02/17	
BOCHG	I	2016/02/18	2016/02/18	1323302		4164389	XS1007106500	2016/02/17	2.58000	1.69900	CORR	2014/11/20	2016/02/17	
BOCHG	I	2016/02/18	2016/02/18	1323303		4456101	XS1169744874	2016/02/17	24.54300	22.44300	CORR	2015/05/13	2016/02/17	
BOCHG	I	2016/02/18	2016/02/18	1323304		4424567	XS1170577800	2016/02/17	95.90000	94.70000	CORR	2016/01/21	2016/02/17	
BOCHG	I	2016/02/18	2016/02/18	1323305		4218769	XS1015495937	2016/02/17	4.27413	3.57413	CORR	2015/08/14	2016/02/17	
BOCHG	I	2016/02/18	2016/02/18	1323306		4290658	XS1078170856	2016/02/17	1.02900	1.00400	CORR	2014/10/13	2016/02/17	
BOCHG	I	2016/02/18	2016/02/18	1323307		4229666	XS1038297476	2016/02/17	7.71000	7.70200	CORR	2014/03/28	2016/02/17	
BOCHG	I	2016/02/18	2016/02/18	1323308		4385994	XS1099696137	2016/02/17	0.36200	0.23500	CORR	2015/12/31	2016/02/17	
BOCHG	I	2016/02/18	2016/02/18	1323309		4273743	XS1055896200	2016/02/17	0.69800	0.68800	CORR	2016/02/01	2016/02/17	
BOCHG	I	2016/02/18	2016/02/18	1323310		4354952	XS1103886088	2016/02/17	1.57643	1.54482	CORR	2015/05/21	2016/02/17	
BOCHG	I	2016/02/18	2016/02/18	1323313		4540419	MU0484D00018	2015/06/23	15.00000	15.00000	CORR	2015/06/11	2015/06/23	
BOCHG	I	2016/02/18	2016/02/18	1323315		4146686	XS0997000251	2016/02/17	1477.13400	1464.36000	CORR	2016/02/04	2016/02/17	
BOCHG	I	2016/02/18	2016/02/18	1323316		4490194	XS1220074303	2016/02/17	0.74300	0.64800	CORR	2015/05/11	2016/02/17	
BOCHG	I	2016/02/18	2016/02/18	1323317		4540267	XS1222281930	2016/02/17	2.82000	1.94500	CORR	2015/06/25	2016/02/17	
BOCHG	I	2016/02/18	2016/02/18	1323318		4530429	XS1222323526	2016/02/17	8.69200	8.67900	CORR	2015/12/24	2016/02/17	
BOCHG	I	2016/02/18	2016/02/18	1323319		4628392	XS1035488532	2016/02/17	7.13900	7.20900	CORR	2016/02/02	2016/02/17	
BOCHG	I	2016/02/18	2016/02/18	1323320		4451362	XS1133631777	2016/02/17	5.75000	5.65000	CORR	2015/02/26	2016/02/17	
BOCHG	I	2016/02/18	2016/02/18	1323321		4464573	XS1198224591	2016/02/17	18.32600	18.12600	CORR	2015/04/09	2016/02/17	
BOCHG	I	2016/02/18	2016/02/18	1323322		4510605	XS1209354536	2016/02/17	22.68600	22.68200	CORR	2016/02/02	2016/02/17	
BOCHG	I	2016/02/18	2016/02/18	1323323		4501641	XS1209413993	2016/02/17	4.99000	4.89000	CORR	2015/05/07	2016/02/17	
BOCHG	I	2016/02/18	2016/02/18	1323324		4293427	XS1080257279	2016/02/17	15.55000	14.45000	CORR	2015/02/26	2016/02/17	
BOCHG	I	2016/02/18	2016/02/18	1323325		4529994	XS1225872743	2016/02/17	47.63700	47.63100	CORR	2015/07/31	2016/02/17	
BOCHG	I	2016/02/18	2016/02/18	1323326		4531512	XS1227280135	2016/02/17	0.37500	0.37000	CORR	2015/06/15	2016/02/17	
BOCHG	I	2016/02/18	2016/02/18	1323327		4610886	XS1274877668	2016/02/17	1.48300	1.45100	CORR	2015/11/09	2016/02/17	
BOCHG	I	2016/02/18	2016/02/18	1323328		4590567	XS1274890257	2016/02/17	2.68500	2.23500	CORR	2016/01/07	2016/02/17	
BOCHG	I	2016/02/18	2016/02/18	1323329		4615311	XS1288044479	2016/02/17	9.41000	9.31000	CORR	2015/12/31	2016/02/17	
BOCHG	I	2016/02/18	2016/02/18	1323332		4702015	US06740Q8722	2016/02/18	1.99000	1.19900	CORR	2016/02/18	2016/02/18	
BOCHG	I	2016/02/18	2016/02/18	1323333		4706655		2016/01/25	2.00000	4.50000	REISS	2015/12/23	2016/01/25	
BOCHG	I	2016/02/18	2016/02/18	1323334		4621516	XS1306387918	2016/02/17	0.96400	0.95400	CORR	2016/02/15	2016/02/17	
BOCHG	I	2016/02/18	2016/02/18	1323335		4606385	US912796HG74	2016/02/18	48000.66590	103000.82260	REISS	2015/12/17	2016/02/18	
BOCHG	I	2016/02/18	2016/02/18	1323336		4621763	XS1306625366	2016/02/18	65.00000	65.00000	CORR	2016/02/17	2016/02/26	
BOCHG	I	2016/02/18	2016/02/18	1323337		4661854	XS1312177659	2016/02/15	5.10000	3.10000	CORR	2015/12/16	2016/02/15	
BOCHG	I	2016/02/18	2016/02/18	1323338	1825177	261163	ARPCHA030109	2015/12/04	9.09992	8.89770	REDEM	2015/09/04	2015/12/04	
BOCHG	I	2016/02/18	2016/02/18	1323339		4688645	PAL3005112H0	2016/01/19	5.00000	7.00000	CORR	2016/01/19	2016/01/19	
BOCHG	I	2016/02/18	2016/02/18	1323340		4698303	PAL341783FL5	2016/02/12	2.00000	2.00000	CORR	2016/02/11	2016/02/15	
BOCHG	I	2016/02/18	2016/02/18	1323341		4694430	XS1334803589	2016/02/05	600.00000	600.00000	CORR	2016/01/25	2016/02/05	
BOCHG	I	2016/02/18	2016/02/18	1323342		4371037	NZLGFDT006C6	2016/02/22	475.00000	675.00000	REISS	2015/12/14	2016/02/22	
BOCHG	I	2016/02/18	2016/02/18	1323343	82307	1637288	IL0011151953	2015/03/02	205.25427		CONV	2010/10/27	2015/03/02	
BOCHG	I	2016/02/18	2016/02/18	1323344	1825179	4318522	FR0012074284	2016/02/17	891.80000	884.50000	REDEM	2016/01/25	2016/02/17	
BOCHG	I	2016/02/18	2016/02/18	1323345	1825180	4398233	FR0012369122	2016/02/17	638.20000	636.60000	REDEM	2016/01/25	2016/02/17	
BOCHG	I	2016/02/18	2016/02/18	1323330		4018382	NZGOVDT420C6	2016/02/23	6640.00000	6740.00000	REISS	2015/12/01	2016/02/23	As on (nz fi gov160218docx) NZDMO has announced the results of Nominal Government Bond tender number 562 held on 18 February 2016.  Tender Date: Tue, 18 Feb 2016<BR>Bids close: 2.00pm<BR>Results: From 2.05pm<BR>Settlement Date:Wed,23 FEB 2016<BR>Treasury Bills Issued<BR>Series Offered         3.00% 15 Apr 2020<BR>Total Amount Offered (NZDmillion)100<BR>Total Amount Allocated (NZDmillion)100<BR>Total Number of Bids Received 32<BR>Total Amount of Bids Received (NZDmillion) 589<BR>Total Number of Successful Bids 9<BR>Highest Yield Accepted (%) 2.570<BR>Lowest Yield Accepted (%) 2.550<BR>Highest Yield Rejected (%)2.650<BR>Lowest Yield Rejected (%) 2.570<BR>Weighted Average Accepted Yield (%)2.5600<BR>Weighted Average Rejected Yield (%)2.5861<BR>Amount Allotted at Highest Accepted Yield 3.1<BR>as Percentage of Amount Bid at that Yield <BR>Coverage Ratio 5890<BR>
BOCHG	I	2016/02/18	2016/02/18	1323346		4668158	MA0002014076	2016/02/22	1692.00000	1892.00000	REISS	2016/01/25	2016/02/22	
BOCHG	I	2016/02/18	2016/02/18	1323347		4702653	US3133EFZV21	2016/02/18	130.00000	155.00000	CORR	2016/02/18	2016/02/18	
BOCHG	I	2016/02/18	2016/02/18	1323348	1825181	4388756	FR0012280212	2015/02/17	2.00000	1.97332	REDEM	2014/11/06	2015/02/17	
BOCHG	I	2016/02/18	2016/02/18	1323349		4696851	XS1261164971	2016/02/18	10.00000	11.00000	CORR	2016/02/17	2016/02/17	
BOCHG	I	2016/02/18	2016/02/18	1323351	1825184	4523716	FR0012735280	2015/12/17	2.30000	2.26932	REDEM		2015/12/17	
BOCHG	I	2016/02/18	2016/02/18	1323352		4704983	DE000SHFM493	2001/02/17	125.00000	125.00000	CORR	2001/02/16	2016/02/16	
EDI_ENDOFFILE
