EDI_LSTAT_20160218_1
TableName	Actflag	Created	Changed	LstatID	SecID	ISIN	ExchgCD	NotificationDate	EffectiveDate	LStatStatus	EventType	Reason
LSTAT	I	2016/02/18	2016/02/18	5164560	411874	XS0218324050	DEFSX	2015/12/18	2016/01/29	D	REDEM	Final Redemption of the Security.
LSTAT	I	2016/02/18	2016/02/18	5164561	411874	XS0218324050	LULSE	2015/12/18	2016/01/29	D	REDEM	Final Redemption of the Security.
LSTAT	I	2016/02/18	2016/02/18	5164562	282879	XS0224901099	DEDSE	2015/12/29	2016/01/29	D	REDEM	Final Redemption of the Security.
LSTAT	I	2016/02/18	2016/02/18	5164563	282879	XS0224901099	DEFSX	2015/12/29	2016/01/29	D	REDEM	Final Redemption of the Security.
LSTAT	I	2016/02/18	2016/02/18	5164564	282879	XS0224901099	LULSE	2015/12/29	2016/01/29	D	REDEM	Final Redemption of the Security.
LSTAT	I	2016/02/18	2016/02/18	5164565	299036	FR0010251322	CHSSX	2015/12/29	2016/01/29	D	REDEM	Final Redemption of the Security.
LSTAT	I	2016/02/18	2016/02/18	5164566	299036	FR0010251322	LULSE	2015/12/29	2016/01/29	D	REDEM	Final Redemption of the Security.
LSTAT	I	2016/02/18	2016/02/18	5164567	509144	XS0183852523	DEFSX	2015/12/29	2016/01/29	D	REDEM	Final Redemption of the Security.
LSTAT	I	2016/02/18	2016/02/18	5164568	1295971	XS0411044653	LULSE	2015/12/29	2016/01/29	D	REDEM	Final Redemption of the Security.
LSTAT	I	2016/02/18	2016/02/18	5164569	1756911	INE549F08434	INNSE	2015/12/29	2016/01/29	D	REDEM	Final Redemption of the Security.
LSTAT	I	2016/02/18	2016/02/18	5164570	1939207	DE000LB0BGR2	DESSE	2015/12/29	2016/01/29	D	REDEM	Final Redemption of the Security.
LSTAT	I	2016/02/18	2016/02/18	5164571	2027726	US63243NAB01	SGSSE	2015/12/29	2016/01/29	D	REDEM	Final Redemption of the Security.
LSTAT	I	2016/02/18	2016/02/18	5164572	2027726	US63243NAB01	USTRCE	2015/12/29	2016/01/29	D	REDEM	Final Redemption of the Security.
LSTAT	I	2016/02/18	2016/02/18	5164573	2029267	US63243MAB28	CHSSX	2015/12/29	2016/01/29	D	REDEM	Final Redemption of the Security.
LSTAT	I	2016/02/18	2016/02/18	5164574	2029267	US63243MAB28	DEFSX	2015/12/29	2016/01/29	D	REDEM	Final Redemption of the Security.
LSTAT	I	2016/02/18	2016/02/18	5164575	2029267	US63243MAB28	SGSSE	2015/12/29	2016/01/29	D	REDEM	Final Redemption of the Security.
LSTAT	I	2016/02/18	2016/02/18	5164576	2029267	US63243MAB28	USOTC	2015/12/29	2016/01/29	D	REDEM	Final Redemption of the Security.
LSTAT	I	2016/02/18	2016/02/18	5164577	2029267	US63243MAB28	USTRCE	2015/12/29	2016/01/29	D	REDEM	Final Redemption of the Security.
LSTAT	I	2016/02/18	2016/02/18	5164578	2169960	XS0551327397	IEISE	2015/12/29	2016/01/29	D	REDEM	Final Redemption of the Security.
LSTAT	I	2016/02/18	2016/02/18	5164579	2274408	XS0568319080	LULSE	2015/12/29	2016/01/29	D	REDEM	Final Redemption of the Security.
LSTAT	I	2016/02/18	2016/02/18	5164580	2293031	DE000A1EV8K5	DEFSX	2015/12/29	2016/01/29	D	REDEM	Final Redemption of the Security.
LSTAT	I	2016/02/18	2016/02/18	5164581	2387770	XS0583801997	ATVSE	2015/12/29	2016/01/29	D	REDEM	Final Redemption of the Security.
LSTAT	I	2016/02/18	2016/02/18	5164582	2387770	XS0583801997	CHSSX	2015/12/29	2016/01/29	D	REDEM	Final Redemption of the Security.
LSTAT	I	2016/02/18	2016/02/18	5164583	2387770	XS0583801997	DEDSE	2015/12/29	2016/01/29	D	REDEM	Final Redemption of the Security.
LSTAT	I	2016/02/18	2016/02/18	5164584	2387770	XS0583801997	DEFSX	2015/12/29	2016/01/29	D	REDEM	Final Redemption of the Security.
LSTAT	I	2016/02/18	2016/02/18	5164585	2387770	XS0583801997	DEHSE	2015/12/29	2016/01/29	D	REDEM	Final Redemption of the Security.
LSTAT	I	2016/02/18	2016/02/18	5164586	2387770	XS0583801997	ITMSE	2015/12/29	2016/01/29	D	REDEM	Final Redemption of the Security.
LSTAT	I	2016/02/18	2016/02/18	5164587	2387770	XS0583801997	LULSE	2015/12/29	2016/01/29	D	REDEM	Final Redemption of the Security.
LSTAT	I	2016/02/18	2016/02/18	5164588	2389461	XS0585320707	LULSE	2015/12/29	2016/01/29	D	REDEM	Final Redemption of the Security.
LSTAT	I	2016/02/18	2016/02/18	5164589	2389553	XS0582697941	CHSSX	2015/12/29	2016/01/29	D	REDEM	Final Redemption of the Security.
LSTAT	I	2016/02/18	2016/02/18	5164590	2389553	XS0582697941	DEDSE	2015/12/29	2016/01/29	D	REDEM	Final Redemption of the Security.
LSTAT	I	2016/02/18	2016/02/18	5164591	2389553	XS0582697941	DEFSX	2015/12/29	2016/01/29	D	REDEM	Final Redemption of the Security.
LSTAT	I	2016/02/18	2016/02/18	5164592	2389553	XS0582697941	GBLSE	2015/12/29	2016/01/29	D	REDEM	Final Redemption of the Security.
LSTAT	I	2016/02/18	2016/02/18	5164593	2389752	US05956QAA31	DEFSX	2015/12/29	2016/01/29	D	REDEM	Final Redemption of the Security.
LSTAT	I	2016/02/18	2016/02/18	5164594	2389752	US05956QAA31	IEISE	2015/12/29	2016/01/29	D	REDEM	Final Redemption of the Security.
LSTAT	I	2016/02/18	2016/02/18	5164595	2389752	US05956QAA31	USOTC	2015/12/29	2016/01/29	D	REDEM	Final Redemption of the Security.
LSTAT	I	2016/02/18	2016/02/18	5164596	2389752	US05956QAA31	USTRCE	2015/12/29	2016/01/29	D	REDEM	Final Redemption of the Security.
LSTAT	I	2016/02/18	2016/02/18	5164597	2395108	XS0579034223	SGSSE	2015/12/29	2016/01/29	D	REDEM	Final Redemption of the Security.
LSTAT	I	2016/02/18	2016/02/18	5164598	2395108	XS0579034223	USTRCE	2015/12/29	2016/01/29	D	REDEM	Final Redemption of the Security.
LSTAT	I	2016/02/18	2016/02/18	5164599	2396988	XS0586460916	LULSE	2015/12/29	2016/01/29	D	REDEM	Final Redemption of the Security.
LSTAT	I	2016/02/18	2016/02/18	5164600	2397968	DE000LBB5K59	DEBSE	2015/12/29	2016/01/29	D	REDEM	Final Redemption of the Security.
LSTAT	I	2016/02/18	2016/02/18	5164601	2397968	DE000LBB5K59	DEFSX	2015/12/29	2016/01/29	D	REDEM	Final Redemption of the Security.
LSTAT	I	2016/02/18	2016/02/18	5164602	2397976	DE000RLP0041	DEFSX	2015/12/29	2016/01/29	D	REDEM	Final Redemption of the Security.
LSTAT	I	2016/02/18	2016/02/18	5164603	2401694	TH073603Q100	THSET	2015/12/29	2016/01/29	D	REDEM	Final Redemption of the Security.
LSTAT	I	2016/02/18	2016/02/18	5164604	2401795	DE000DB7XMH0	DEFSX	2015/12/29	2016/01/29	D	REDEM	Final Redemption of the Security.
LSTAT	I	2016/02/18	2016/02/18	5164605	2402910	DE000DB7XMN8	LULSE	2015/12/29	2016/01/29	D	REDEM	Final Redemption of the Security.
LSTAT	I	2016/02/18	2016/02/18	5164835	4462633	NZANBDT013C0	NZSE	2016/02/16	2016/02/16	S		As Per nz fi 17022016.pdf<BR><BR>NZX Regulation ( NZXR ) advises that, at the request of the company, it has placed a trading halt on ANZ Bank New Zealand Limited ( ANB ) capital notes ( ANBHA and ANBHB ) and bonds ( ANB090  and  ANB100 ). The trading halt was placed at pre market open this morning.<BR>The trading halt has been put in place pending the release of an announcement to be made by the company.
LSTAT	I	2016/02/18	2016/02/18	5164836	4462633	NZANBDT013C0	NZSE	2016/02/17	2016/02/17	R		As Per nz fi 16022017 (1).pdf<BR>Suspention Lifted 17/02/2016<BR>
LSTAT	I	2016/02/18	2016/02/18	5164840	1637288	IL0011151953	ILTSE	2016/02/17	2015/03/03	D	CONV	Final Conversion of the security.
LSTAT	I	2016/02/18	2016/02/18	5164829	4070340	NZANBDT011C4	NZSE	2016/02/17	2016/02/17	R		As Per nz fi 16022017 (1).pdf<BR>Suspention Lifted 17/02/2016
LSTAT	I	2016/02/18	2016/02/18	5164831	4609770	NZANBDT014C8	NZSE	2016/02/16	2016/02/16	S		As Per nz fi 17022016 (1).pdf<BR><BR>NZX Regulation ( NZXR ) advises that, at the request of the company, it has placed a trading halt on ANZ Bank New Zealand Limited ( ANB ) capital notes ( ANBHA and ANBHB ) and bonds ( ANB090  and  ANB100 ). The trading halt was placed at pre market open this morning.<BR>The trading halt has been put in place pending the release of an announcement to be made by the company.
LSTAT	I	2016/02/18	2016/02/18	5164832	4609770	NZANBDT014C8	NZSE	2016/02/17	2016/02/17	R		As Per nz fi 16022017 (1).pdf<BR>Suspention Lifted 17/02/2016<BR><BR>
LSTAT	I	2016/02/18	2016/02/18	5164833	1151674	NZANBD0006S7	NZSE	2016/02/16	2016/02/16	S		As Per nz fi 17022016.pdf<BR>NZX Regulation ( NZXR ) advises that, at the request of the company, it has placed a trading halt on ANZ Bank New Zealand Limited ( ANB ) capital notes ( ANBHA and ANBHB ) and bonds ( ANB090  and  ANB100 ). The trading halt was placed at pre market open this morning.<BR>The trading halt has been put in place pending the release of an announcement to be made by the company.
LSTAT	I	2016/02/18	2016/02/18	5164834	1151674	NZANBD0006S7	NZSE	2016/02/17	2016/02/17	R		As Per nz fi 16022017 (1).pdf<BR>Suspention Lifted 17/02/2016<BR>
LSTAT	U	2016/02/17	2016/02/18	5164340	4701501	US42809H4048	USOTC	2016/02/17	2016/02/17	D	PRCHG	(As on 17/02/2016) USFINRA<BR>Date Event Type Eff/Ex Date Symbol Issue Name Market<BR>02/17/2016 01:35:23 Market Center Change Listed on NYSE 02/17/2016 01:35:23 AMDPP HESS CORP Dep Shs Repstg 1/20th Int Mandatory Conv Pfd Ser A Other OTC<BR>Comments<BR>Prdct chng OTCE-OTCE>CTS-NYSE<BR>Details<BR> Current Value<BR>Daily List Date 02/17/2016 01:35:23<BR>Event Type Market Center Change Listed on NYSE<BR>Effective/Ex Date 02/17/2016 01:35:23<BR>Symbol AMDPP<BR>Issue Name HESS CORP Dep Shs Repstg 1/20th Int Mandatory Conv Pfd Ser A<BR>Class A<BR>Market Category Other OTC<BR>Offering Type No Restrictions<BR>Daily List Comment Prdct chng OTCE-OTCE>CTS-NYSE<BR><BR>(As on 17/02/16) USLISTDELIST<BR>Symbol HES-A<BR>Company Name Hess Corporation<BR>NASDAQ Action Add<BR>BX Action Add<BR>PSX Action Add<BR>Effective Date 2/17/2016<BR>Primary Listing Market N<BR>
LSTAT	I	2016/02/18	2016/02/18	5164606	2406208	KR6005082112	KRKSE	2015/12/29	2016/01/29	D	REDEM	Final Redemption of the Security.
LSTAT	I	2016/02/18	2016/02/18	5164607	2406307	KR6055552113	KRKSE	2015/12/29	2016/01/29	D	REDEM	Final Redemption of the Security.
LSTAT	I	2016/02/18	2016/02/18	5164608	2408640	KR6031523113	KRKSE	2015/12/29	2016/01/29	D	REDEM	Final Redemption of the Security.
LSTAT	I	2016/02/18	2016/02/18	5164609	2408651	KR6095233112	KRKSE	2015/12/29	2016/01/29	D	REDEM	Final Redemption of the Security.
LSTAT	I	2016/02/18	2016/02/18	5164610	2414549	CND100003K62	CNIBBM	2015/12/29	2016/01/29	D	REDEM	Final Redemption of the Security.
LSTAT	I	2016/02/18	2016/02/18	5164611	2414567	DE000LBB5K75	DEBSE	2015/12/29	2016/01/29	D	REDEM	Final Redemption of the Security.
LSTAT	I	2016/02/18	2016/02/18	5164612	2414567	DE000LBB5K75	DEFSX	2015/12/29	2016/01/29	D	REDEM	Final Redemption of the Security.
LSTAT	I	2016/02/18	2016/02/18	5164613	2415482	CND100003KG7	CNIBBM	2015/12/29	2016/01/29	D	REDEM	Final Redemption of the Security.
LSTAT	I	2016/02/18	2016/02/18	5164614	2435439	US06738KAG67	USTRCE	2015/12/29	2016/01/29	D	REDEM	Final Redemption of the Security.
LSTAT	I	2016/02/18	2016/02/18	5164615	2448435	DE000LBB5K42	DEBSE	2015/12/29	2016/01/29	D	REDEM	Final Redemption of the Security.
LSTAT	I	2016/02/18	2016/02/18	5164616	2448435	DE000LBB5K42	DEFSX	2015/12/29	2016/01/29	D	REDEM	Final Redemption of the Security.
LSTAT	I	2016/02/18	2016/02/18	5164617	2448441	DE000LBB5K83	DEBSE	2015/12/29	2016/01/29	D	REDEM	Final Redemption of the Security.
LSTAT	I	2016/02/18	2016/02/18	5164618	2448441	DE000LBB5K83	DEFSX	2015/12/29	2016/01/29	D	REDEM	Final Redemption of the Security.
LSTAT	I	2016/02/18	2016/02/18	5164619	2452052	CND100003K70	CNIBBM	2015/12/29	2016/01/29	D	REDEM	Final Redemption of the Security.
LSTAT	I	2016/02/18	2016/02/18	5164620	2505262	DE000DZ35XR8	DEFSX	2015/12/29	2016/01/29	D	REDEM	Final Redemption of the Security.
LSTAT	I	2016/02/18	2016/02/18	5164621	2693633	AT000B076690	ATVSE	2015/12/29	2016/01/29	D	REDEM	Final Redemption of the Security.
LSTAT	I	2016/02/18	2016/02/18	5164622	2789842	DE000HV5CMW9	DESSE	2015/12/29	2016/01/29	D	REDEM	Final Redemption of the Security.
LSTAT	I	2016/02/18	2016/02/18	5164623	3483036	XS0727308289	DEFSX	2015/12/29	2016/01/29	D	REDEM	Final Redemption of the Security.
LSTAT	I	2016/02/18	2016/02/18	5164624	3668742	US05956PAA57	IEISE	2015/12/29	2016/01/29	D	REDEM	Final Redemption of the Security.
LSTAT	I	2016/02/18	2016/02/18	5164625	3668742	US05956PAA57	USOTC	2015/12/29	2016/01/29	D	REDEM	Final Redemption of the Security.
LSTAT	I	2016/02/18	2016/02/18	5164626	3668742	US05956PAA57	USTRCE	2015/12/29	2016/01/29	D	REDEM	Final Redemption of the Security.
LSTAT	I	2016/02/18	2016/02/18	5164627	3779535	FR0010997759	LULSE	2015/12/29	2016/01/29	D	REDEM	Final Redemption of the Security.
LSTAT	I	2016/02/18	2016/02/18	5164628	3968974	XS0880063994	CHSSX	2015/12/29	2016/01/29	D	REDEM	Final Redemption of the Security.
LSTAT	I	2016/02/18	2016/02/18	5164629	3968974	XS0880063994	LULSE	2015/12/29	2016/01/29	D	REDEM	Final Redemption of the Security.
LSTAT	I	2016/02/18	2016/02/18	5164630	3971667	US69347SAG03	USNYSE	2015/12/29	2016/01/29	D	REDEM	Final Redemption of the Security.
LSTAT	I	2016/02/18	2016/02/18	5164631	3971667	US69347SAG03	USOTC	2015/12/29	2016/01/29	D	REDEM	Final Redemption of the Security.
LSTAT	I	2016/02/18	2016/02/18	5164632	3972506	INE286K07013	INBSE	2015/12/29	2016/01/29	D	REDEM	Final Redemption of the Security.
LSTAT	I	2016/02/18	2016/02/18	5164633	3972615	ZAG000102740	ZAJSE	2015/12/29	2016/01/29	D	REDEM	Final Redemption of the Security.
LSTAT	I	2016/02/18	2016/02/18	5164634	3972776	INE756I07217	INBSE	2015/12/29	2016/01/29	D	REDEM	Final Redemption of the Security.
LSTAT	I	2016/02/18	2016/02/18	5164635	3972794	INE261F09IC1	INBSE	2015/12/29	2016/01/29	D	REDEM	Final Redemption of the Security.
LSTAT	I	2016/02/18	2016/02/18	5164636	3972794	INE261F09IC1	INNSE	2015/12/29	2016/01/29	D	REDEM	Final Redemption of the Security.
LSTAT	I	2016/02/18	2016/02/18	5164637	3973125	ZAG000102674	ZAJSE	2015/12/29	2016/01/29	D	REDEM	Final Redemption of the Security.
LSTAT	I	2016/02/18	2016/02/18	5164638	3973460	KR602988A313	KRKSE	2015/12/29	2016/01/29	D	REDEM	Final Redemption of the Security.
LSTAT	I	2016/02/18	2016/02/18	5164639	3973472	KR6136302314	KRKSE	2015/12/29	2016/01/29	D	REDEM	Final Redemption of the Security.
LSTAT	I	2016/02/18	2016/02/18	5164640	3973473	KR6136303312	KRKSE	2015/12/29	2016/01/29	D	REDEM	Final Redemption of the Security.
LSTAT	I	2016/02/18	2016/02/18	5164641	3973511	US69349LAH15	USNYSE	2015/12/29	2016/01/29	D	REDEM	Final Redemption of the Security.
LSTAT	I	2016/02/18	2016/02/18	5164642	3973511	US69349LAH15	USOTC	2015/12/29	2016/01/29	D	REDEM	Final Redemption of the Security.
LSTAT	I	2016/02/18	2016/02/18	5164643	3973511	US69349LAH15	USTRCE	2015/12/29	2016/01/29	D	REDEM	Final Redemption of the Security.
LSTAT	I	2016/02/18	2016/02/18	5164644	3974531	DE000A1PGL05	DEDSE	2015/12/29	2016/01/29	D	REDEM	Final Redemption of the Security.
LSTAT	I	2016/02/18	2016/02/18	5164645	3974531	DE000A1PGL05	DEFSX	2015/12/29	2016/01/29	D	REDEM	Final Redemption of the Security.
LSTAT	I	2016/02/18	2016/02/18	5164646	3975253	DE000DUS20D1	DEDSE	2015/12/29	2016/01/29	D	REDEM	Final Redemption of the Security.
LSTAT	I	2016/02/18	2016/02/18	5164647	3975611	DE000A1PGL13	DEDSE	2015/12/29	2016/01/29	D	REDEM	Final Redemption of the Security.
LSTAT	I	2016/02/18	2016/02/18	5164648	3975611	DE000A1PGL13	DEFSX	2015/12/29	2016/01/29	D	REDEM	Final Redemption of the Security.
LSTAT	I	2016/02/18	2016/02/18	5164649	3976230	RU000A0JTKK3	RUMICX	2015/12/29	2016/01/29	D	REDEM	Final Redemption of the Security.
LSTAT	I	2016/02/18	2016/02/18	5164650	3977879	RU000A0JTKL1	RUMICX	2015/12/29	2016/01/29	D	REDEM	Final Redemption of the Security.
LSTAT	I	2016/02/18	2016/02/18	5164651	3984195	US31315PYY95	USTRCE	2015/12/29	2016/01/29	D	REDEM	Final Redemption of the Security.
LSTAT	I	2016/02/18	2016/02/18	5164652	3986426	US69349LAJ70	USOTC	2015/12/29	2016/01/29	D	REDEM	Final Redemption of the Security.
LSTAT	I	2016/02/18	2016/02/18	5164653	3986426	US69349LAJ70	USTRCE	2015/12/29	2016/01/29	D	REDEM	Final Redemption of the Security.
LSTAT	I	2016/02/18	2016/02/18	5164654	3995372		CNIBBM	2015/12/29	2016/01/29	D	REDEM	Final Redemption of the Security.
LSTAT	I	2016/02/18	2016/02/18	5164655	3995394		CNIBBM	2015/12/29	2016/01/29	D	REDEM	Final Redemption of the Security.
LSTAT	I	2016/02/18	2016/02/18	5164656	4029633	US94986RNA58	USOTC	2015/12/29	2016/01/29	D	REDEM	Final Redemption of the Security.
LSTAT	I	2016/02/18	2016/02/18	5164657	4029633	US94986RNA58	USTRCE	2015/12/29	2016/01/29	D	REDEM	Final Redemption of the Security.
LSTAT	I	2016/02/18	2016/02/18	5164658	4029639	US90271B3143	USOTC	2015/12/29	2016/01/29	D	REDEM	Final Redemption of the Security.
LSTAT	I	2016/02/18	2016/02/18	5164659	4029639	US90271B3143	USTRCE	2015/12/29	2016/01/29	D	REDEM	Final Redemption of the Security.
LSTAT	I	2016/02/18	2016/02/18	5164660	4029651	US25152RBH57	USOTC	2015/12/29	2016/01/29	D	REDEM	Final Redemption of the Security.
LSTAT	I	2016/02/18	2016/02/18	5164661	4029651	US25152RBH57	USTRCE	2015/12/29	2016/01/29	D	REDEM	Final Redemption of the Security.
LSTAT	I	2016/02/18	2016/02/18	5164662	4029669	US05574LET17	USTRCE	2015/12/29	2016/01/29	D	REDEM	Final Redemption of the Security.
LSTAT	I	2016/02/18	2016/02/18	5164663	4029672	US06742A1723	USTRCE	2015/12/29	2016/01/29	D	REDEM	Final Redemption of the Security.
LSTAT	I	2016/02/18	2016/02/18	5164664	4043080		UGKSE	2015/12/29	2016/01/29	D	REDEM	Final Redemption of the Security.
LSTAT	I	2016/02/18	2016/02/18	5164665	4065371	US3133ECTC82	USTRCE	2015/12/29	2016/01/29	D	REDEM	Final Redemption of the Security.
LSTAT	I	2016/02/18	2016/02/18	5164666	4073674	XS0568993918	DEFSX	2015/12/29	2016/01/29	D	REDEM	Final Redemption of the Security.
LSTAT	I	2016/02/18	2016/02/18	5164667	4073674	XS0568993918	GBLSE	2015/12/29	2016/01/29	D	REDEM	Final Redemption of the Security.
LSTAT	I	2016/02/18	2016/02/18	5164668	4123315	SE0005423761	SESSE	2015/12/29	2016/01/29	D	REDEM	Final Redemption of the Security.
LSTAT	I	2016/02/18	2016/02/18	5164669	4129919	XS0985965267	GBLSE	2015/12/29	2016/01/29	D	REDEM	Final Redemption of the Security.
LSTAT	I	2016/02/18	2016/02/18	5164670	4176720	INE522D07578	INBSE	2015/12/29	2016/01/29	D	REDEM	Final Redemption of the Security.
LSTAT	I	2016/02/18	2016/02/18	5164671	4176745	INE522D07586	INBSE	2015/12/29	2016/01/29	D	REDEM	Final Redemption of the Security.
LSTAT	I	2016/02/18	2016/02/18	5164672	4176749	INE522D07594	INBSE	2015/12/29	2016/01/29	D	REDEM	Final Redemption of the Security.
LSTAT	I	2016/02/18	2016/02/18	5164673	4183017	XS1019471736	GBLSE	2015/12/29	2016/01/29	D	REDEM	Final Redemption of the Security.
LSTAT	I	2016/02/18	2016/02/18	5164674	4185207	XS1023281329	DEFSX	2015/12/29	2016/01/29	D	REDEM	Final Redemption of the Security.
LSTAT	I	2016/02/18	2016/02/18	5164675	4185695	XS1023317966	DEBSE	2015/12/29	2016/01/29	D	REDEM	Final Redemption of the Security.
LSTAT	I	2016/02/18	2016/02/18	5164676	4185695	XS1023317966	DEDSE	2015/12/29	2016/01/29	D	REDEM	Final Redemption of the Security.
LSTAT	I	2016/02/18	2016/02/18	5164677	4185695	XS1023317966	DEFSX	2015/12/29	2016/01/29	D	REDEM	Final Redemption of the Security.
LSTAT	I	2016/02/18	2016/02/18	5164678	4185998	XS1022982257	LULSE	2015/12/29	2016/01/29	D	REDEM	Final Redemption of the Security.
LSTAT	I	2016/02/18	2016/02/18	5164679	4186353	XS1023278374	GBLSE	2015/12/29	2016/01/29	D	REDEM	Final Redemption of the Security.
LSTAT	I	2016/02/18	2016/02/18	5164680	4186363	US370334BS27	USOTC	2015/12/29	2016/01/29	D	REDEM	Final Redemption of the Security.
LSTAT	I	2016/02/18	2016/02/18	5164681	4186363	US370334BS27	USTRCE	2015/12/29	2016/01/29	D	REDEM	Final Redemption of the Security.
LSTAT	I	2016/02/18	2016/02/18	5164682	4186555	TW000G134035	TWOTC	2015/12/29	2016/01/29	D	REDEM	Final Redemption of the Security.
LSTAT	I	2016/02/18	2016/02/18	5164683	4187737		ARMVB	2015/12/29	2016/01/29	D	REDEM	Final Redemption of the Security.
LSTAT	I	2016/02/18	2016/02/18	5164684	4188630	INE851M07069	INBSE	2015/12/29	2016/01/29	D	REDEM	Final Redemption of the Security.
LSTAT	I	2016/02/18	2016/02/18	5164685	4189916	US78010UPT87	USOTC	2015/12/29	2016/01/29	D	REDEM	Final Redemption of the Security.
LSTAT	I	2016/02/18	2016/02/18	5164686	4189916	US78010UPT87	USTRCE	2015/12/29	2016/01/29	D	REDEM	Final Redemption of the Security.
LSTAT	I	2016/02/18	2016/02/18	5164687	4190648	ES0513900ZB6	ESAIAF	2015/12/29	2016/01/29	D	REDEM	Final Redemption of the Security.
LSTAT	I	2016/02/18	2016/02/18	5164688	4200939		CNIBBM	2015/12/29	2016/01/29	D	REDEM	Final Redemption of the Security.
LSTAT	I	2016/02/18	2016/02/18	5164689	4215877		CNIBBM	2015/12/29	2016/01/29	D	REDEM	Final Redemption of the Security.
LSTAT	I	2016/02/18	2016/02/18	5164690	4243231	KR619425K431	KRKSE	2015/12/29	2016/01/29	D	REDEM	Final Redemption of the Security.
LSTAT	I	2016/02/18	2016/02/18	5164691	4281598	KR619653L444	KRKSE	2015/12/29	2016/01/29	D	REDEM	Final Redemption of the Security.
LSTAT	I	2016/02/18	2016/02/18	5164692	4315044	US3130A2R402	USTRCE	2015/12/29	2016/01/29	D	REDEM	Final Redemption of the Security.
LSTAT	I	2016/02/18	2016/02/18	5164693	4315973		ARMVB	2015/12/29	2016/01/29	D	REDEM	Final Redemption of the Security.
LSTAT	I	2016/02/18	2016/02/18	5164694	4315973		AROEX	2015/12/29	2016/01/29	D	REDEM	Final Redemption of the Security.
LSTAT	I	2016/02/18	2016/02/18	5164695	4316787	US48127DTJ71	USTRCE	2015/12/29	2016/01/29	D	REDEM	Final Redemption of the Security.
LSTAT	I	2016/02/18	2016/02/18	5164696	4317775	INE660A07KX1	INNSE	2015/12/29	2016/01/29	D	REDEM	Final Redemption of the Security.
LSTAT	I	2016/02/18	2016/02/18	5164697	4371184	US25152RSD60	USTRCE	2015/12/29	2016/01/29	D	REDEM	Final Redemption of the Security.
LSTAT	I	2016/02/18	2016/02/18	5164698	4378980	INE308L07427	INBSE	2015/12/29	2016/01/29	D	REDEM	Final Redemption of the Security.
LSTAT	I	2016/02/18	2016/02/18	5164699	4432508	XS1169204762	IEISE	2015/12/29	2016/01/29	D	REDEM	Final Redemption of the Security.
LSTAT	I	2016/02/18	2016/02/18	5164700	4432670	XS1176592753	LULSE	2015/12/29	2016/01/29	D	REDEM	Final Redemption of the Security.
LSTAT	I	2016/02/18	2016/02/18	5164701	4432724	XS1176766928	LULSE	2015/12/29	2016/01/29	D	REDEM	Final Redemption of the Security.
LSTAT	I	2016/02/18	2016/02/18	5164702	4433443	XS1173819605	IEISE	2015/12/29	2016/01/29	D	REDEM	Final Redemption of the Security.
LSTAT	I	2016/02/18	2016/02/18	5164703	4434224	US22547QXZ44	USTRCE	2015/12/29	2016/01/29	D	REDEM	Final Reverse-Convertible of the security.
LSTAT	I	2016/02/18	2016/02/18	5164704	4435082	XS1176592837	LULSE	2015/12/29	2016/01/29	D	REDEM	Final Redemption of the Security.
LSTAT	I	2016/02/18	2016/02/18	5164705	4435282	XS1180288216	IEISE	2015/12/29	2016/01/29	D	REDEM	Final Redemption of the Security.
LSTAT	I	2016/02/18	2016/02/18	5164706	4435284	XS1180279579	IEISE	2015/12/29	2016/01/29	D	REDEM	Final Redemption of the Security.
LSTAT	I	2016/02/18	2016/02/18	5164707	4435330	FR0122809660	FRPEN	2015/12/29	2016/01/29	D	REDEM	Final Redemption of the Security.
LSTAT	I	2016/02/18	2016/02/18	5164708	4435347	FR0122776075	FRPEN	2015/12/29	2016/01/29	D	REDEM	Final Redemption of the Security.
LSTAT	I	2016/02/18	2016/02/18	5164709	4435377	KR310506A514	KRKSE	2015/12/29	2016/01/29	D	REDEM	Final Redemption of the Security.
LSTAT	I	2016/02/18	2016/02/18	5164710	4435603		TZTSE	2015/12/29	2016/01/29	D	REDEM	Final Redemption of the Security.
LSTAT	I	2016/02/18	2016/02/18	5164711	4436443	XS1179323115	IEISE	2015/12/29	2016/01/29	D	REDEM	Final Redemption of the Security.
LSTAT	I	2016/02/18	2016/02/18	5164712	4436468	ZAG000123407	ZAJSE	2015/12/29	2016/01/29	D	REDEM	Final Redemption of the Security.
LSTAT	I	2016/02/18	2016/02/18	5164713	4436681	XS1181449882	IEISE	2015/12/29	2016/01/29	D	REDEM	Final Redemption of the Security.
LSTAT	I	2016/02/18	2016/02/18	5164714	4437546	MX0FBM0100O2	MXMSE	2015/12/29	2016/01/29	D	REDEM	Final Redemption of the Security.
LSTAT	I	2016/02/18	2016/02/18	5164715	4437547	MX0FBM1D04O2	MXMSE	2015/12/29	2016/01/29	D	REDEM	Final Redemption of the Security.
LSTAT	I	2016/02/18	2016/02/18	5164716	4440260		CNIBBM	2015/12/29	2016/01/29	D	REDEM	Final Redemption of the Security.
LSTAT	I	2016/02/18	2016/02/18	5164717	4441147		CNIBBM	2015/12/29	2016/01/29	D	REDEM	Final Redemption of the Security.
LSTAT	I	2016/02/18	2016/02/18	5164718	4441178		CNIBBM	2015/12/29	2016/01/29	D	REDEM	Final Redemption of the Security.
LSTAT	I	2016/02/18	2016/02/18	5164719	4441262		CNIBBM	2015/12/29	2016/01/29	D	REDEM	Final Redemption of the Security.
LSTAT	I	2016/02/18	2016/02/18	5164720	4441289		CNIBBM	2015/12/29	2016/01/29	D	REDEM	Final Redemption of the Security.
LSTAT	I	2016/02/18	2016/02/18	5164721	4442410		CNIBBM	2015/12/29	2016/01/29	D	REDEM	Final Redemption of the Security.
LSTAT	I	2016/02/18	2016/02/18	5164722	4442513		CNIBBM	2015/12/29	2016/01/29	D	REDEM	Final Redemption of the Security.
LSTAT	I	2016/02/18	2016/02/18	5164723	4455678	MX93FA2J03M8	MXMSE	2015/12/29	2016/01/29	D	REDEM	Final Redemption of the Security.
LSTAT	I	2016/02/18	2016/02/18	5164724	4469666	XS1171573188	IEISE	2015/12/29	2016/01/29	D	REDEM	Final Redemption of the Security.
LSTAT	I	2016/02/18	2016/02/18	5164725	4528758		CNSSE	2015/12/29	2016/01/29	D	REDEM	Final Redemption of the Security.
LSTAT	I	2016/02/18	2016/02/18	5164726	4567345		CNIBBM	2015/12/29	2016/01/29	D	REDEM	Final Redemption of the Security.
LSTAT	I	2016/02/18	2016/02/18	5164727	4567371	IN002015Y090	INBSE	2015/12/29	2016/01/29	D	REDEM	Final Redemption of the Security.
LSTAT	I	2016/02/18	2016/02/18	5164728	4567371	IN002015Y090	INNSE	2015/12/29	2016/01/29	D	REDEM	Final Redemption of the Security.
LSTAT	I	2016/02/18	2016/02/18	5164729	4567371	IN002015Y090	INRBI	2015/12/29	2016/01/29	D	REDEM	Final Redemption of the Security.
LSTAT	I	2016/02/18	2016/02/18	5164730	4567374		CNIBBM	2015/12/29	2016/01/29	D	REDEM	Final Redemption of the Security.
LSTAT	I	2016/02/18	2016/02/18	5164731	4567377		CNIBBM	2015/12/29	2016/01/29	D	REDEM	Final Redemption of the Security.
LSTAT	I	2016/02/18	2016/02/18	5164732	4567387		CNIBBM	2015/12/29	2016/01/29	D	REDEM	Final Redemption of the Security.
LSTAT	I	2016/02/18	2016/02/18	5164733	4569323	US912796GZ64	USTRCE	2015/12/29	2016/01/29	D	REDEM	Final Redemption of the Security.
LSTAT	I	2016/02/18	2016/02/18	5164734	4570987		TZTSE	2015/12/29	2016/01/29	D	REDEM	Final Redemption of the Security.
LSTAT	I	2016/02/18	2016/02/18	5164735	4632328	IN002015X316	INBSE	2015/12/29	2016/01/29	D	REDEM	Final Redemption of the Security.
LSTAT	I	2016/02/18	2016/02/18	5164736	4632328	IN002015X316	INNSE	2015/12/29	2016/01/29	D	REDEM	Final Redemption of the Security.
LSTAT	I	2016/02/18	2016/02/18	5164737	4632328	IN002015X316	INRBI	2015/12/29	2016/01/29	D	REDEM	Final Redemption of the Security.
LSTAT	I	2016/02/18	2016/02/18	5164738	4633728		CNIBBM	2015/12/29	2016/01/29	D	REDEM	Final Redemption of the Security.
LSTAT	I	2016/02/18	2016/02/18	5164739	4633758		CNIBBM	2015/12/29	2016/01/29	D	REDEM	Final Redemption of the Security.
LSTAT	I	2016/02/18	2016/02/18	5164740	4634402	XS1314332047	IEISE	2015/12/29	2016/01/29	D	REDEM	Final Redemption of the Security.
LSTAT	I	2016/02/18	2016/02/18	5164741	4636055		THSET	2015/12/29	2016/01/29	D	REDEM	Final Redemption of the Security.
LSTAT	I	2016/02/18	2016/02/18	5164742	4636322		CNIBBM	2015/12/29	2016/01/29	D	REDEM	Final Redemption of the Security.
LSTAT	I	2016/02/18	2016/02/18	5164743	4663095	MX93VW010DY9	MXMSE	2015/12/29	2016/01/29	D	REDEM	Final Redemption of the Security.
LSTAT	I	2016/02/18	2016/02/18	5164744	4669371	DE000HV5AXH1	DEHSE	2015/12/29	2016/01/29	D	REDEM	Final Redemption of the Security.
LSTAT	I	2016/02/18	2016/02/18	5164745	4673517		CNIBBM	2015/12/29	2016/01/29	D	REDEM	Final Redemption of the Security.
LSTAT	I	2016/02/18	2016/02/18	5164746	2170412		HKSEHK	2015/12/29	2016/01/29	D	REDEM	Final Redemption-Conversion of the Security.
LSTAT	I	2016/02/18	2016/02/18	5164747	2406479		HKSEHK	2015/12/29	2016/01/29	D	REDEM	Final Redemption-Conversion of the Security.
LSTAT	I	2016/02/18	2016/02/18	5164748	3968529	XS0880057087	LULSE	2016/01/06	2016/01/29	D	REDEM	Final Redemption of the Security.
LSTAT	I	2016/02/18	2016/02/18	5164749	4275682	DE000BLB2R14	DEFSX	2016/01/07	2016/01/29	D	REDEM	Final Redemption of the Security.
LSTAT	I	2016/02/18	2016/02/18	5164750	4275682	DE000BLB2R14	DESSE	2016/01/07	2016/01/29	D	REDEM	Final Redemption of the Security.
LSTAT	I	2016/02/18	2016/02/18	5164751	3970990	XS0882170045	GBLSE	2015/12/30	2016/01/29	D	REDEM	Final Redemption of the Security.
LSTAT	I	2016/02/18	2016/02/18	5164752	4431999	XS1143970751	LULSE	2016/01/06	2016/01/29	D	REDEM	Final Redemption of the Security.
LSTAT	I	2016/02/18	2016/02/18	5164753	4176964	US3136G1YW38	USTRCE	2016/01/15	2016/01/29	D	REDEM	Final Redemption of the Security.
LSTAT	I	2016/02/18	2016/02/18	5164754	4436323	XS1171864744	IEISE	2016/01/18	2016/01/29	D	REDEM	Final Redemption of the Security.
LSTAT	I	2016/02/18	2016/02/18	5164755	4621724	XS1306408854	GBLSE	2016/01/18	2016/01/29	D	REDEM	Final Redemption of the Security.
LSTAT	I	2016/02/18	2016/02/18	5164756	2249240	XS0567565584	LULSE	2016/01/19	2016/01/29	D	REDEM	Final Redemption of the Security.
LSTAT	I	2016/02/18	2016/02/18	5164757	4673443		CNIBBM	2016/01/01	2016/01/29	D	REDEM	Final Redemption of the Security.
LSTAT	I	2016/02/18	2016/02/18	5164758	4673469		CNIBBM	2015/12/29	2016/01/29	D	REDEM	Final Redemption of the Security.
LSTAT	I	2016/02/18	2016/02/18	5164759	4673512		CNIBBM	2015/12/29	2016/01/29	D	REDEM	Final Redemption of the Security.
LSTAT	I	2016/02/18	2016/02/18	5164760	4673502		CNIBBM	2016/01/01	2016/01/29	D	REDEM	Final Redemption of the Security.
LSTAT	I	2016/02/18	2016/02/18	5164761	4430338	US3133EELU29	USTRCE	2016/01/20	2016/01/29	D	REDEM	Final Redemption of the Security.
LSTAT	I	2016/02/18	2016/02/18	5164762	4673466		CNIBBM	2015/12/29	2016/01/29	D	REDEM	Final Redemption of the Security.
LSTAT	I	2016/02/18	2016/02/18	5164763	4673534		CNIBBM	2015/12/29	2016/01/29	D	REDEM	Final Redemption of the Security.
LSTAT	I	2016/02/18	2016/02/18	5164764	4673417		CNIBBM	2015/12/29	2016/01/29	D	REDEM	Final Redemption of the Security.
LSTAT	I	2016/02/18	2016/02/18	5164765	4673520		CNIBBM	2015/12/29	2016/01/29	D	REDEM	Final Redemption of the Security.
LSTAT	I	2016/02/18	2016/02/18	5164766	4431587	US31315PH511	USTRCE	2016/01/20	2016/01/29	D	REDEM	Final Redemption of the Security.
LSTAT	I	2016/02/18	2016/02/18	5164767	4431609	US31315PJ343	USTRCE	2016/01/20	2016/01/29	D	REDEM	Final Redemption of the Security.
LSTAT	I	2016/02/18	2016/02/18	5164768	4673430		CNIBBM	2016/01/01	2016/01/29	D	REDEM	Final Redemption of the Security.
LSTAT	I	2016/02/18	2016/02/18	5164769	4673436		CNIBBM	2016/01/01	2016/01/29	D	REDEM	Final Redemption of the Security.
LSTAT	I	2016/02/18	2016/02/18	5164770	4421548	US3133EEJR28	USTRCE	2016/01/21	2016/01/29	D	REDEM	Final Redemption of the Security.
LSTAT	I	2016/02/18	2016/02/18	5164771	4430339	US3133EELW84	USTRCE	2016/01/21	2016/01/29	D	REDEM	Final Redemption of the Security.
LSTAT	I	2016/02/18	2016/02/18	5164772	4532208	US3130A5PR46	USTRCE	2016/01/21	2016/01/29	D	REDEM	Final Redemption of the Security.
LSTAT	I	2016/02/18	2016/02/18	5164773	4673447		CNIBBM	2016/01/02	2016/01/29	D	REDEM	Final Redemption of the Security.
LSTAT	I	2016/02/18	2016/02/18	5164774	4673514		CNIBBM	2016/01/02	2016/01/29	D	REDEM	Final Redemption of the Security.
LSTAT	I	2016/02/18	2016/02/18	5164775	4673477		CNIBBM	2016/01/02	2016/01/29	D	REDEM	Final Redemption of the Security.
LSTAT	I	2016/02/18	2016/02/18	5164776	4673457		CNIBBM	2016/01/02	2016/01/29	D	REDEM	Final Redemption of the Security.
LSTAT	I	2016/02/18	2016/02/18	5164777	4615035	US3134G7N988	USTRCE	2016/01/21	2016/01/29	D	REDEM	Final Redemption of the Security.
LSTAT	I	2016/02/18	2016/02/18	5164778	4555002	US3134G7LF66	USTRCE	2016/01/21	2016/01/29	D	REDEM	Final Redemption of the Security.
LSTAT	I	2016/02/18	2016/02/18	5164779	4554960	US3134G7KU43	USTRCE	2016/01/21	2016/01/29	D	REDEM	Final Redemption of the Security.
LSTAT	I	2016/02/18	2016/02/18	5164780	4551429	US3134G7HT17	USTRCE	2016/01/21	2016/01/29	D	REDEM	Final Redemption of the Security.
LSTAT	I	2016/02/18	2016/02/18	5164781	4544950	US3134G7GR69	USTRCE	2016/01/21	2016/01/29	D	REDEM	Final Redemption of the Security.
LSTAT	I	2016/02/18	2016/02/18	5164782	4433035	US3134G6BJ16	USTRCE	2016/01/21	2016/01/29	D	REDEM	Final Redemption of the Security.
LSTAT	I	2016/02/18	2016/02/18	5164783	4170940	US3134G4SZ27	USTRCE	2016/01/21	2016/01/29	D	REDEM	Final Redemption of the Security.
LSTAT	I	2016/02/18	2016/02/18	5164784	4439242	XS1185177687	DEBSE	2016/01/28	2016/01/29	D	REDEM	Final Redemption of the Security.
LSTAT	I	2016/02/18	2016/02/18	5164785	4439242	XS1185177687	DEFSX	2016/01/28	2016/01/29	D	REDEM	Final Redemption of the Security.
LSTAT	I	2016/02/18	2016/02/18	5164786	4439242	XS1185177687	LULSE	2016/01/28	2016/01/29	D	REDEM	Final Redemption of the Security.
LSTAT	I	2016/02/18	2016/02/18	5164787	3477934	XS0727904301	LULSE	2016/01/28	2016/01/29	D	REDEM	Final Redemption of the Security.
LSTAT	I	2016/02/18	2016/02/18	5164788	2397772	XS0580973575	GBLSE	2016/01/28	2016/01/29	D	REDEM	Final Redemption of the Security.
LSTAT	I	2016/02/18	2016/02/18	5164789	626342	XS0309630084	GBLSE	2016/01/28	2016/01/29	D	REDEM	Final Redemption of the Security.
LSTAT	I	2016/02/18	2016/02/18	5164790	4188442	XS1022095910	SGSSE	2016/01/29	2016/01/29	D	REDEM	Final Redemption-Conversion of the Security.
LSTAT	I	2016/02/18	2016/02/18	5164791	4508869		AUASX	2015/12/29	2016/01/29	D	CONV	Final Conversion of the Security.
LSTAT	I	2016/02/18	2016/02/18	5164792	4441729	XS1169795439	DEFSX	2016/01/15	2016/01/29	D	CONV	Final Exchange of the Security.
LSTAT	I	2016/02/18	2016/02/18	5164793	4692448	US87612BAT98	USNYSE	2016/02/17	2016/02/17	S	CORR	
LSTAT	I	2016/02/18	2016/02/18	5164794	4519560	US87612BAR33	USNYSE	2016/02/17	2016/02/17	S	CORR	
LSTAT	I	2016/02/18	2016/02/18	5164795	3594728	US87612BAH50	USNYSE	2016/02/17	2016/02/17	S	CORR	
LSTAT	I	2016/02/18	2016/02/18	5164796	4144621	US87612BAM46	USNYSE	2016/02/17	2016/02/17	S	CORR	
LSTAT	I	2016/02/18	2016/02/18	5164797	4037929	US87612BAP76	USNYSE	2016/02/17	2016/02/17	S	CORR	
LSTAT	I	2016/02/18	2016/02/18	5164798	2718752	IL0011237281	ILTSE	2015/11/18	2013/03/18	D	REDEM	Final Redemption of the security.
LSTAT	I	2016/02/18	2016/02/18	5164799	3873916	TG0000000207	CIBVA	2016/03/15	2016/03/15	D	CORR	
LSTAT	I	2016/02/18	2016/02/18	5164806	4070340	NZANBDT011C4	NZSE	2016/02/16	2016/02/16	S		As Per (nzca 16022017_11.pdf)<BR><BR>NZX Regulation ( NZXR ) advises that, following the announcements by ANZ Bank New Zealand Limited ( ANB ) at 10.01am today, trading in ANB capital notes ( ANBHA and ANBHB ) and bonds ( ANB090  and  ANB100 ) will resume at 10.16am
EDI_ENDOFFILE
