EDI_SCEXH_20150429
TableName	Actflag	Created	Changed	ScExhID	SecID	ISIN	ExchgCD	ListStatus	Lot	MinTrdgQty	ListDate	DelistDate	LocalCode	JunkLocalcode	PriceTick	TickSize	Notes
SCEXH	U	2013/06/21	2015/04/29	5810931	951987	US31364DJK37	USTRCE	D				2015/04/09	FNMA.HD				
SCEXH	I	2015/04/29	2015/04/29	6356726	4499720	US3136G2HU48	USTRCE	N					FNMA4238962				
SCEXH	I	2015/04/29	2015/04/29	6356738	4499731	US3136G2J571	USTRCE	N					FNMA4239496				
SCEXH	I	2015/04/29	2015/04/29	6356743	4499735	US3136G2J738	USTRCE	N					FNMA4239519				
SCEXH	I	2015/04/29	2015/04/29	6356746	4499739	US3136G2J811	USTRCE	N					FNMA4239611				
SCEXH	I	2015/04/29	2015/04/29	6356753	4499743	US3136G2JA65	USTRCE	N					FNMA4239732				
SCEXH	I	2015/04/29	2015/04/29	6356754	4499745	US3136G2JC22	USTRCE	N					FNMA4239745				
SCEXH	I	2015/04/29	2015/04/29	6356784	4499771	US3136G2J407	USTRCE	N					FNMA4239494				
SCEXH	I	2015/04/29	2015/04/29	6356788	4499775	US3136G2J324	USTRCE	N					FNMA4239479				
SCEXH	I	2015/04/29	2015/04/29	6356790	4499777	US3136G2J241	USTRCE	N					FNMA4239478				
SCEXH	I	2015/04/29	2015/04/29	6356794	4499781	US3136G2HY69	USTRCE	N					FNMA4239472				
SCEXH	I	2015/04/29	2015/04/29	6356799	4499785	US3136G2HW04	USTRCE	N					FNMA4239469				
SCEXH	I	2015/04/29	2015/04/29	6356802	4499787	US3136G2HX86	USTRCE	N					FNMA4239467				
SCEXH	U	2013/07/11	2015/04/29	5829128	4072788	US3134G4BH02	USTRCE	D				2015/04/09	FMCC4020254				
SCEXH	U	2014/12/17	2015/04/29	6239650	4408222	US3134G5UY98	USTRCE	D				2015/04/09	FMCC4195266				
SCEXH	U	2014/12/19	2015/04/29	6241708	4409989	US3134G5VH56	USTRCE	D				2015/04/09	FMCC4196114				
SCEXH	U	2014/12/19	2015/04/29	6241714	4409995	US3134G5VL68	USTRCE	D				2015/04/09	FMCC4196122				
SCEXH	U	2014/12/20	2015/04/29	6242868	4411077	US3134G5VQ55	USTRCE	D				2015/04/09	FMCC4196133				
SCEXH	I	2015/04/29	2015/04/29	6356830	4499810	US3134G6A292	USTRCE	N					FMCC4239631				
SCEXH	I	2015/04/29	2015/04/29	6356818	4499801	US3134G6ZV87	USTRCE	N					FMCC4239549				
SCEXH	D	2015/04/28	2015/04/29	6355920	4498933	US3134G6YB33	USBND	N									
SCEXH	I	2015/04/29	2015/04/29	6356814	4498933	US3134G6YB33	USTRCE	N					FMCC4239509				
SCEXH	I	2015/04/29	2015/04/29	6356943	4499078	US3134G6ZB24	USTRCE	N					FMCC4238797				
SCEXH	I	2015/04/29	2015/04/29	6356608	4499599	US3134G6ZG11	USTRCE	N					FMCC4238983				
SCEXH	I	2015/04/29	2015/04/29	6356683	4499679	US3134G6ZF38	USTRCE	N					FMCC4238967				
SCEXH	I	2015/04/29	2015/04/29	6356685	4499682	US3134G6ZA41	USTRCE	N					FMCC4238791				
SCEXH	I	2015/04/29	2015/04/29	6356690	4499689	US3134G6ZH93	USTRCE	N					FMCC4238974				
SCEXH	I	2015/04/29	2015/04/29	6356805	4499789	US3134G6ZL06	USTRCE	N					FMCC4239475				
SCEXH	I	2015/04/29	2015/04/29	6356807	4499791	US3134G6ZK23	USTRCE	N					FMCC4239473				
SCEXH	I	2015/04/29	2015/04/29	6356811	4499795	US3134G6ZP10	USTRCE	N					FMCC4239493				
SCEXH	I	2015/04/29	2015/04/29	6356812	4499796	US3134G6ZR75	USTRCE	N					FMCC4239507				
SCEXH	I	2015/04/29	2015/04/29	6356822	4499805	US3134G6ZW60	USTRCE	N					FMCC4239575				
SCEXH	I	2015/04/29	2015/04/29	6356824	4499806	US3134G6ZX44	USTRCE	N					FMCC4239627				
SCEXH	I	2015/04/29	2015/04/29	6356826	4499808	US3134G6ZY27	USTRCE	N					FMCC4239630				
SCEXH	I	2015/04/29	2015/04/29	6356834	4499811	US3134G6ZS58	USTRCE	N					FMCC4239633				
SCEXH	I	2015/04/29	2015/04/29	6356844	4499818	US3134G6A375	USTRCE	N					FMCC4239740				
SCEXH	I	2015/04/29	2015/04/29	6356940	4499872	US3134G6ZT32	USTRCE	N					FMCC4239516				
SCEXH	U	2014/01/02	2015/04/29	5947765	4169320	US3130A0K336	USTRCE	D				2014/05/26	FHLN4086398				
SCEXH	U	2014/01/14	2015/04/29	5957832	4178579	US3130A0N975	USTRCE	D				2014/05/28	FHLN4088628				
SCEXH	U	2014/09/19	2015/04/29	6163823	4349759	US3130A36D18	USTRCE	D				2015/04/09	FHLN4165494				
SCEXH	U	2014/12/10	2015/04/29	6233915	4403245	US3130A3RL00	USTRCE	D				2015/04/09	FHLN4193160				
SCEXH	D	2015/04/28	2015/04/29	6355653	4498773	US3130A5AC32	USBND	N									
SCEXH	I	2015/04/29	2015/04/29	6356947	4498773	US3130A5AC32	USTRCE	N					FHLN4239508				
SCEXH	I	2015/04/29	2015/04/29	6356903	4499612	US3130A5AM14	USTRCE	N					FHLN4239470				
SCEXH	I	2015/04/29	2015/04/29	6356904	4499614	US3130A5AN96	USBND	N									
SCEXH	I	2015/04/29	2015/04/29	6356906	4499617	US3130A5AP45	USTRCE	N					FHLN4239500				
SCEXH	I	2015/04/29	2015/04/29	6356907	4499621	US3130A5AQ28	USTRCE	N					FHLN4239497				
SCEXH	I	2015/04/29	2015/04/29	6356908	4499625	US3130A5AR01	USTRCE	N					FHLN4239499				
SCEXH	I	2015/04/29	2015/04/29	6356910	4499635	US3130A5AS83	USTRCE	N					FHLN4239515				
SCEXH	I	2015/04/29	2015/04/29	6356912	4499647	US3130A5AT66	USBND	N									
SCEXH	I	2015/04/29	2015/04/29	6356914	4499651	US3130A5AU30	USTRCE	N					FHLN4239548				
SCEXH	I	2015/04/29	2015/04/29	6356916	4499656	US3130A5AV13	USTRCE	N					FHLN4239573				
SCEXH	I	2015/04/29	2015/04/29	6356919	4499660	US3130A5AW95	USTRCE	N					FHLN4239572				
SCEXH	I	2015/04/29	2015/04/29	6356922	4499666	US3130A5AX78	USTRCE	N					FHLN4239619				
SCEXH	I	2015/04/29	2015/04/29	6356924	4499670	US3130A5AY51	USTRCE	N					FHLN4239760				
SCEXH	I	2015/04/29	2015/04/29	6356926	4499673	US3130A5AZ27	USTRCE	N					FHLN4239704				
SCEXH	I	2015/04/29	2015/04/29	6356927	4499678	US3130A5B243	USTRCE	N					FHLN4239697				
SCEXH	I	2015/04/29	2015/04/29	6356928	4499681	US3130A5B326	USTRCE	N					FHLN4239737				
SCEXH	I	2015/04/29	2015/04/29	6356930	4499687	US3130A5B409	USTRCE	N					FHLN4239813				
SCEXH	U	2012/05/10	2015/04/29	5445430	3780875	US3133EAQG67	USTRCE	D				2015/04/09	FFCD3852797				
SCEXH	U	2012/09/12	2015/04/29	5571934	3898918	US3133EAU225	USTRCE	D				2015/04/09	FFCD3898921				
SCEXH	U	2013/07/08	2015/04/29	5827042	4070985	US3133ECU510	USTRCE	D				2015/04/09	FFCD4026009				
SCEXH	U	2013/10/28	2015/04/29	5903779	4133384	US3133ED5K41	USTRCE	D				2014/10/24	FFCD4061493				
SCEXH	U	2014/04/05	2015/04/29	6032972	4235431	US3133EDJ784	USTRCE	D				2015/04/09	FFCD4114193				
SCEXH	U	2014/07/17	2015/04/29	6115499	4310072	US3133EDR464	USTRCE	D				2015/04/09	FFCD4144925				
SCEXH	U	2014/10/27	2015/04/29	6195326	4371947	US3133EEAH37	USTRCE	D				2015/04/09	FFCD4178197				
SCEXH	U	2014/11/10	2015/04/29	6209247	4381604	US3133EEBX77	USTRCE	D				2015/04/09	FFCD4182993				
SCEXH	U	2014/12/02	2015/04/29	6226894	4397057	US3133EEEK20	USTRCE	D				2015/04/09	FFCD4189848				
SCEXH	I	2015/04/29	2015/04/29	6356951	4499594	US3133EEG796	USBND	N									
SCEXH	I	2015/04/29	2015/04/29	6356858	4499596	US3133EEG879	USTRCE	N					FFCD4239634				
SCEXH	I	2015/04/29	2015/04/29	6356860	4499598	US3133EEG952	USTRCE	N					FFCD4239520				
SCEXH	I	2015/04/29	2015/04/29	6356855	4499606	US3133EEG614	USTRCE	N					FFCD4239514				
SCEXH	I	2015/04/29	2015/04/29	6356688	4499686	US3133EEG465	USTRCE	N					FFCD4238824				
SCEXH	I	2015/04/29	2015/04/29	6356934	4499868	US3133FXFX04	USTRCE	N					FFCD4239624				
EDI_ENDOFFILE
