EDI_REDEM_20150429
TableName	Actflag	Created	Changed	RedemID	SecID	ISIN	Recdate	RedemDate	RedemCurrency	RedemPrice	MandOptFlag	PartFinal	RedemType	AmountRedeemed	RedemPremium	RedemPercent	PoolFactor	PriceAsPercent	PremiumAsPercent	InDefPay	TenderOpenDate	TenderCloseDate	ExpTime	ExpTimeZone	Notes
REDEM	I	2015/04/29	2015/04/29	1621407	951893	US31364DBZ87		2015/05/29	USD	35.95000	M	F	MAT					100.000000000							
REDEM	I	2015/04/29	2015/04/29	1621871	3930333	US3136G0Y392		2015/05/08	USD	1000.00000	M	F	CALL					100.000000000					:		
REDEM	I	2015/04/29	2015/04/29	1621863	3930366	US3136G0W495		2015/05/08	USD	1000.00000	M	F	CALL					100.000000000					:		
REDEM	U	2015/04/18	2015/04/29	1615163	3973743	US3136G1BW84		2015/04/29	USD	1000.00000	M	F	CALL					100.000000000					:		
REDEM	U	2015/04/18	2015/04/29	1615161	4024351	US3136G1L983		2015/04/29	USD	1000.00000	M	F	CALL					100.000000000					:		
REDEM	U	2015/04/18	2015/04/29	1615160	4024588	US3135G0WR06		2015/04/29	USD	1000.00000	M	F	CALL					100.000000000					:		
REDEM	U	2015/04/18	2015/04/29	1615157	4024756	US3136G1KY40		2015/04/29	USD	1000.00000	M	F	CALL					100.000000000					:		
REDEM	U	2015/04/23	2015/04/29	1618405	4024101	US3134G42D93	2015/04/28	2015/04/29	USD	1000.00000	M	F	CALL					100.000000000					:		
REDEM	I	2015/04/29	2015/04/29	1621862	4033177	US3136G1LJ63		2015/05/08	USD	1000.00000	M	F	CALL					100.000000000					:		
REDEM	I	2015/04/29	2015/04/29	1622100	4310112	US3134G5DS14		2015/05/05	USD	1000.00000	M	F	CALL					100.000000000					:		
REDEM	U	2015/04/23	2015/04/29	1618406	4314405	US3134G5EH40	2015/04/28	2015/04/29	USD	2000.00000	M	F	CALL					100.000000000					:		
REDEM	I	2015/04/29	2015/04/29	1622099	4366974	US3134G5LD52		2015/05/05	USD	1000.00000	M	F	CALL					100.000000000					:		
REDEM	U	2015/04/28	2015/04/29	1621280	4371122	US3134G5MP73	2015/05/02	2015/05/03	USD	1000.00000	M	F	CALL					100.000000000					:		
REDEM	U	2015/04/28	2015/04/29	1621279	4371262	US3134G5LX17	2015/05/02	2015/05/03	USD	1000.00000	M	F	CALL					100.000000000					:		
REDEM	D	2015/01/03	2015/04/29	1534886	1760884	US3133XG2R40		2006/12/29	USD	5000.00000	M	F	CALL					100.000000000							
REDEM	I	2015/04/29	2015/04/29	1622053	1760884	US3133XG2R40		2006/12/29	USD	5000.00000	M	F	CALL					100.000000000					:		
REDEM	I	2015/04/29	2015/04/29	1621878	1886445	US3133XY6K61		2015/05/05	USD	10000.00000	M	F	CALL					100.000000000					:		
REDEM	I	2015/04/29	2015/04/29	1621453	2069419	US313370JE95		2015/05/29	USD	10000.00000	M	F	MAT					100.000000000							
REDEM	I	2015/04/29	2015/04/29	1621454	2221118	US313371QD13		2015/05/29	USD	10000.00000	M	F	MAT					100.000000000							
REDEM	I	2015/04/29	2015/04/29	1621466	2541674	US313372ZX58		2015/05/29	USD	10000.00000	M	F	MAT					100.000000000							
REDEM	I	2015/04/29	2015/04/29	1621478	3421513	US313376R312		2015/05/29	USD	10000.00000	M	F	MAT					100.000000000							
REDEM	I	2015/04/29	2015/04/29	1621479	3640536	US313378M574		2015/05/29	USD	10000.00000	M	F	MAT					100.000000000							
REDEM	U	2015/04/23	2015/04/29	1618134	3911799	US313380WM54		2015/04/29	USD	100000.00000	M	F	CALL					100.000000000					:		
REDEM	U	2015/04/23	2015/04/29	1618138	3914450	US313380YT89		2015/04/29	USD	100000.00000	M	F	CALL					100.000000000					:		
REDEM	U	2015/04/23	2015/04/29	1618140	3962304	US313381TY13		2015/04/29	USD	100000.00000	M	F	CALL					100.000000000					:		
REDEM	U	2015/04/23	2015/04/29	1618141	4013601	US313382R963		2015/04/29	USD	10000.00000	M	F	CALL					100.000000000					:		
REDEM	U	2015/04/23	2015/04/29	1618145	4020170	US313382S201		2015/04/29	USD	10000.00000	M	F	CALL					100.000000000					:		
REDEM	U	2015/04/23	2015/04/29	1618147	4020708	US313382UE13		2015/04/29	USD	100000.00000	M	F	CALL					100.000000000					:		
REDEM	U	2015/04/23	2015/04/29	1618149	4025335	US313382WG43		2015/04/29	USD	100000.00000	M	F	CALL					100.000000000					:		
REDEM	I	2015/04/29	2015/04/29	1621549	4047868	US313383GC95		2015/05/29	USD	10000.00000	M	F	MAT					100.000000000							
REDEM	D	2014/05/17	2015/04/29	1382081	4169320	US3130A0K336		2014/05/23	USD	10000.00000	M	F	CALL					100.000000000							
REDEM	I	2015/04/29	2015/04/29	1622043	4169320	US3130A0K336		2014/05/23	USD	10000.00000	M	F	CALL					100.000000000					:		
REDEM	D	2014/05/20	2015/04/29	1383288	4178579	US3130A0N975		2014/05/27	USD	10000.00000	M	F	CALL					100.000000000							
REDEM	I	2015/04/29	2015/04/29	1622050	4178579	US3130A0N975		2014/05/27	USD	10000.00000	M	F	CALL					100.000000000					:		
REDEM	U	2015/03/30	2015/04/29	1598526	4184720	US3130A0RA06		2015/04/29	USD	10000.00000	M	F	MAT					100.000000000							
REDEM	D	2015/02/12	2015/04/29	1567288	4187023	US3130A0TU42		2015/02/19	USD	10000.00000	M	F	CALL					100.000000000							
REDEM	D	2014/05/13	2015/04/29	1379766	4190714	US3130A0VM97		2014/05/19	USD	10000.00000	M	F	CALL					100.000000000							
REDEM	D	2015/01/26	2015/04/29	1552168	4191401	US3130A0VY36		2015/01/30	USD	10000.00000	M	F	CALL					100.000000000							
REDEM	U	2015/03/30	2015/04/29	1598561	4252976	US3130A1U978		2015/04/29	USD	10000.00000	M	F	MAT					100.000000000							
REDEM	I	2015/04/29	2015/04/29	1621605	4276305	US3130A26M35		2015/05/29	USD	10000.00000	M	F	MAT					100.000000000							
REDEM	I	2015/04/29	2015/04/29	1621606	4276315	US3130A26Q49		2015/05/29	USD	10000.00000	M	F	MAT					100.000000000							
REDEM	I	2015/04/29	2015/04/29	1621890	4359924	US3130A3CB82		2015/05/05	USD	100000.00000	M	F	CALL					100.000000000					:		
REDEM	U	2015/04/23	2015/04/29	1618125	4363414	US3130A3D350		2015/04/29	USD	10000.00000	M	F	CALL					100.000000000					:		
REDEM	U	2015/03/30	2015/04/29	1598609	4367065	US3130A3DN12		2015/04/29	USD	10000.00000	M	F	MAT					100.000000000							
REDEM	U	2015/03/30	2015/04/29	1598610	4367068	US3130A3DV38		2015/04/29	USD	10000.00000	M	F	MAT					100.000000000							
REDEM	U	2015/03/30	2015/04/29	1598611	4367516	US3130A3DZ42		2015/04/29	USD	10000.00000	M	F	MAT					100.000000000							
REDEM	I	2015/04/29	2015/04/29	1621676	4399840	US3130A3PX65		2015/05/29	USD	10000.00000	M	F	MAT					100.000000000							
REDEM	U	2015/04/23	2015/04/29	1618132	4420795	US3130A3VU52		2015/04/29	USD	10000.00000	M	F	CALL					100.000000000					:		
REDEM	U	2015/04/23	2015/04/29	1618137	4421717	US3130A3W913		2015/04/29	USD	10000.00000	M	F	CALL					100.000000000					:		
REDEM	U	2015/03/30	2015/04/29	1598420	942765	US31331SV919		2015/04/29	USD	5000.00000	M	F	MAT					100.000000000							
REDEM	D	2014/10/18	2015/04/29	1485483	4133384	US3133ED5K41		2014/10/24	USD	1000.00000	M	F	CALL					100.000000000							
REDEM	I	2015/04/29	2015/04/29	1622095	4133384	US3133ED5K41		2014/10/24	USD	1000.00000	M	F	CALL					100.000000000					:		
REDEM	U	2015/04/23	2015/04/29	1618143	4221921	US3133EDHD76		2015/04/29	USD	1000.00000	M	F	CALL					100.000000000					:		
REDEM	U	2015/04/22	2015/04/29	1617742	4252307	US3133EDKE13		2015/04/29	USD	1000.00000	M	F	CALL					100.000000000					:		
REDEM	U	2015/04/21	2015/04/29	1616974	4370105	US3133EDZZ86		2015/04/29	USD	1000.00000	M	F	CALL					100.000000000					:		
EDI_ENDOFFILE
