EDI_INTPY_20150429
TableName	Actflag	Created	Changed	SecID	ISIN	DebtCurrency	NominalValue	ExchgCD	RdID	OptionID	Recdate	Exdate	Paydate	InterestFromDate	InterestToDate	Days	Interest_Currency	Interest_Rate	GrossInterest	NetInterest	DomesticTaxRate	NonResidentTaxRate	RescindInterest	AgencyFees	CouponNo	DefaultOpt	OptElectionDate	AnlCoupRate	InDefPay	NilInt
INTPY	I	2015/04/29	2015/04/29	4277163	US3130A26Z48	USD	10000.00000	USBND	3467811	1				2015/04/05	2015/05/04		USD	0.010666666	0.000106666				F			F		0.128000000		F
INTPY	I	2015/04/29	2015/04/29	4277163	US3130A26Z48	USD	10000.00000	USTRCE	3467811	1			2015/05/05	2015/04/05	2015/05/04		USD	0.010666666	0.000106666				F			F		0.128000000		F
EDI_ENDOFFILE
