SecID	ISIN	Issuer	Description	ExchgCD	IssID	Currency	EXCHANGE	Security_Status	Country_of_Incorporation	SEDOL	Symbol	Security_Type	US_Code	Issue_Date	Current_Currency	Issue_Price	Issue_Currency	Issue_Amount_in_Millions	Outstanding_In_Millions	Interest_Basis	Interest_Rate	Maturity_Date
4716201	RU000A0JW6P7	Vnesheconombank	11.60% BD REDEEM 17/02/2025 RUB 1000	RUMICX	90615	RUB	Moscow Exchange MICEX-RTS	Active	RU			BND		2016/02/29	RUB	1000.00000	RUB	19575.00000	19575.00000	FXD	11.60000	2025/02/17
4714118	RU000A0JW5K0	Gazprombank	FXDFR BD REDEEM 19/02/2021 RUB 1000 - Ser 2/IP	RUMICX	103304	RUB	Moscow Exchange MICEX-RTS	Active	RU			BND		2016/02/26	RUB	1000.00000	RUB	15000.00000	15000.00000	FXDFR	10.90000	2021/02/19
